Warning: I'll induce an error of 50 percent on all FTIO predictions
I think I'm working for the application of IOSETS_JOB_ID = 11
I'll open/create the priority file /sys/kernel/config/iosets/11/priority!
Priority = 0.021100 (211)
Now I'll create the log file
Now I'll wait for information from the predictor
I will launch the predictor on file /root/running_ior/11/8.jsonl
73.300000 1.000000
Priority = 0.010000 (100)
73.300000 1.000000
Priority = 0.010000 (100)
691.500000 1.000000
Priority = 0.001000 (10)
558.000000 1.000000
Priority = 0.010000 (100)
-1.000000 1.000000
Priority = 0.010000 (100)
219.111111 1.000000
Priority = 0.001000 (10)
422.600000 1.000000
Priority = 0.001000 (10)
-1.000000 1.000000
Priority = 0.001000 (10)
