Warning: I'll induce an error of 50 percent on all FTIO predictions
I think I'm working for the application of IOSETS_JOB_ID = 12
I'll open/create the priority file /sys/kernel/config/iosets/12/priority!
Priority = 0.021200 (212)
Now I'll create the log file
Now I'll wait for information from the predictor
I will launch the predictor on file /root/running_ior/12/8.jsonl
68.133333 1.000000
Priority = 0.010000 (100)
780.100000 1.000000
Priority = 0.001000 (10)
680.750000 1.000000
Priority = 0.001000 (10)
597.833333 1.000000
Priority = 0.010000 (100)
561.925000 1.000000
Priority = 0.010000 (100)
224.591667 1.000000
Priority = 0.001000 (10)
142.943478 0.983489
Priority = 0.010000 (100)
