Warning: I'll induce an error of 50 percent on all FTIO predictions
I think I'm working for the application of IOSETS_JOB_ID = 6
I'll open/create the priority file /sys/kernel/config/iosets/6/priority!
Priority = 0.026000 (260)
Now I'll create the log file
Now I'll wait for information from the predictor
I will launch the predictor on file /root/running_ior/6/8.jsonl
189.900000 1.000000
Priority = 0.010000 (100)
591.000000 1.000000
Priority = 0.010000 (100)
485.350000 1.000000
Priority = 0.010000 (100)
456.433333 1.000000
Priority = 0.010000 (100)
201.177778 0.862594
Priority = 0.010000 (100)
201.745455 0.872950
Priority = 0.010000 (100)
203.423077 1.000000
Priority = 0.010000 (100)
204.846667 1.000000
Priority = 0.010000 (100)
