Warning: I'll induce an error of 50 percent on all FTIO predictions
I think I'm working for the application of IOSETS_JOB_ID = 16
I'll open/create the priority file /sys/kernel/config/iosets/16/priority!
Priority = 0.021600 (216)
Now I'll create the log file
Now I'll wait for information from the predictor
I will launch the predictor on file /root/running_ior/16/8.jsonl
146.350000 1.000000
Priority = 0.010000 (100)
146.350000 1.000000
Priority = 0.010000 (100)
701.500000 1.000000
Priority = 0.001000 (10)
135.137500 0.884914
Priority = 0.010000 (100)
133.954545 1.000000
Priority = 0.010000 (100)
-1.000000 1.000000
Priority = 0.010000 (100)
-1.000000 1.000000
Priority = 0.010000 (100)
389.114286 1.000000
Priority = 0.001000 (10)
391.500000 1.000000
Priority = 0.010000 (100)
