Warning: I'll induce an error of 50 percent on all FTIO predictions
I think I'm working for the application of IOSETS_JOB_ID = 2
I'll open/create the priority file /sys/kernel/config/iosets/2/priority!
Priority = 0.022000 (220)
Now I'll create the log file
Now I'll wait for information from the predictor
I will launch the predictor on file /root/running_ior/2/8.jsonl
164.600000 1.000000
Priority = 0.010000 (100)
581.800000 1.000000
Priority = 0.010000 (100)
480.150000 1.000000
Priority = 0.010000 (100)
192.085714 0.808011
Priority = 0.010000 (100)
194.333333 1.000000
Priority = 0.010000 (100)
197.263636 0.853563
Priority = 0.010000 (100)
197.907692 0.908523
Priority = 0.010000 (100)
199.620000 0.955127
Priority = 0.010000 (100)
