Warning: I'll induce an error of 50 percent on all FTIO predictions
I think I'm working for the application of IOSETS_JOB_ID = 16
I'll open/create the priority file /sys/kernel/config/iosets/16/priority!
Priority = 0.021600 (216)
Now I'll create the log file
Now I'll wait for information from the predictor
I will launch the predictor on file /root/running_ior/16/8.jsonl
298.500000 1.000000
Priority = 0.001000 (10)
298.500000 1.000000
Priority = 0.010000 (100)
730.800000 1.000000
Priority = 0.001000 (10)
632.300000 1.000000
Priority = 0.010000 (100)
140.458333 1.000000
Priority = 0.010000 (100)
137.113333 1.000000
Priority = 0.010000 (100)
136.427778 1.000000
Priority = 0.010000 (100)
135.747619 0.818422
Priority = 0.010000 (100)
135.837500 1.000000
Priority = 0.010000 (100)
