Warning: I'll induce an error of 50 percent on all FTIO predictions
I think I'm working for the application of IOSETS_JOB_ID = 14
I'll open/create the priority file /sys/kernel/config/iosets/14/priority!
Priority = 0.021400 (214)
Now I'll create the log file
Now I'll wait for information from the predictor
I will launch the predictor on file /root/running_ior/14/8.jsonl
152.000000 1.000000
Priority = 0.010000 (100)
152.000000 1.000000
Priority = 0.010000 (100)
893.800000 1.000000
Priority = 0.001000 (10)
661.900000 1.000000
Priority = 0.001000 (10)
429.800000 1.000000
Priority = 0.001000 (10)
425.780000 1.000000
Priority = 0.010000 (100)
422.800000 1.000000
Priority = 0.010000 (100)
420.857143 1.000000
Priority = 0.010000 (100)
