Warning: I'll induce an error of 50 percent on all FTIO predictions
I think I'm working for the application of IOSETS_JOB_ID = 1
I'll open/create the priority file /sys/kernel/config/iosets/1/priority!
Priority = 0.030000 (300)
Now I'll create the log file
Now I'll wait for information from the predictor
I will launch the predictor on file /root/running_ior/1/8.jsonl
-1.000000 0.000000
Priority = 0.030000 (300)
-1.000000 0.000000
Priority = 0.030000 (300)
-1.000000 0.000000
Priority = 0.030000 (300)
19.950000 1.000000
Priority = 0.100000 (1000)
-1.000000 1.000000
Priority = 0.100000 (1000)
-1.000000 1.000000
Priority = 0.100000 (1000)
-1.000000 1.000000
Priority = 0.100000 (1000)
-1.000000 1.000000
Priority = 0.100000 (1000)
-1.000000 1.000000
Priority = 0.100000 (1000)
-1.000000 1.000000
Priority = 0.100000 (1000)
-1.000000 1.000000
Priority = 0.100000 (1000)
-1.000000 1.000000
Priority = 0.100000 (1000)
-1.000000 1.000000
Priority = 0.100000 (1000)
-1.000000 1.000000
Priority = 0.100000 (1000)
-1.000000 1.000000
Priority = 0.100000 (1000)
-1.000000 1.000000
Priority = 0.100000 (1000)
-1.000000 1.000000
Priority = 0.100000 (1000)
-1.000000 1.000000
Priority = 0.100000 (1000)
-1.000000 1.000000
Priority = 0.100000 (1000)
-1.000000 1.000000
Priority = 0.100000 (1000)
-1.000000 1.000000
Priority = 0.100000 (1000)
-1.000000 1.000000
Priority = 0.100000 (1000)
-1.000000 1.000000
Priority = 0.100000 (1000)
-1.000000 1.000000
Priority = 0.100000 (1000)
-1.000000 1.000000
Priority = 0.100000 (1000)
-1.000000 1.000000
Priority = 0.100000 (1000)
-1.000000 1.000000
Priority = 0.100000 (1000)
-1.000000 1.000000
Priority = 0.100000 (1000)
-1.000000 1.000000
Priority = 0.100000 (1000)
-1.000000 1.000000
Priority = 0.100000 (1000)
-1.000000 1.000000
Priority = 0.100000 (1000)
-1.000000 1.000000
Priority = 0.100000 (1000)
-1.000000 1.000000
Priority = 0.100000 (1000)
-1.000000 1.000000
Priority = 0.100000 (1000)
6.686531 1.000000
Priority = 0.100000 (1000)
6.620717 1.000000
Priority = 0.100000 (1000)
6.623228 1.000000
Priority = 0.100000 (1000)
6.621790 1.000000
Priority = 0.100000 (1000)
-1.000000 1.000000
Priority = 0.100000 (1000)
-1.000000 1.000000
Priority = 0.100000 (1000)
6.685227 1.000000
Priority = 0.100000 (1000)
6.687640 1.000000
Priority = 0.100000 (1000)
6.685926 1.000000
Priority = 0.100000 (1000)
-1.000000 1.000000
Priority = 0.100000 (1000)
-1.000000 1.000000
Priority = 0.100000 (1000)
-1.000000 1.000000
Priority = 0.100000 (1000)
-1.000000 1.000000
Priority = 0.100000 (1000)
6.685366 1.000000
Priority = 0.100000 (1000)
3.994705 1.000000
Priority = 0.100000 (1000)
-1.000000 1.000000
Priority = 0.100000 (1000)
6.681494 0.836061
Priority = 0.100000 (1000)
-1.000000 0.836061
Priority = 0.100000 (1000)
6.681703 1.000000
Priority = 0.100000 (1000)
6.685000 1.000000
Priority = 0.100000 (1000)
-1.000000 1.000000
Priority = 0.100000 (1000)
-1.000000 1.000000
Priority = 0.100000 (1000)
-1.000000 1.000000
Priority = 0.100000 (1000)
-1.000000 1.000000
Priority = 0.100000 (1000)
20.023214 1.000000
Priority = 0.100000 (1000)
3.993838 1.000000
Priority = 1.000000 (10000)
-1.000000 1.000000
Priority = 1.000000 (10000)
-1.000000 1.000000
Priority = 1.000000 (10000)
-1.000000 1.000000
Priority = 1.000000 (10000)
-1.000000 1.000000
Priority = 1.000000 (10000)
3.994167 0.912288
Priority = 1.000000 (10000)
-1.000000 0.912288
Priority = 1.000000 (10000)
-1.000000 0.912288
Priority = 1.000000 (10000)
20.045528 1.000000
Priority = 0.100000 (1000)
-1.000000 1.000000
Priority = 0.100000 (1000)
-1.000000 1.000000
Priority = 0.100000 (1000)
20.041406 1.000000
Priority = 0.100000 (1000)
3.994753 0.912409
Priority = 1.000000 (10000)
3.994640 0.879745
Priority = 1.000000 (10000)
-1.000000 0.879745
Priority = 1.000000 (10000)
-1.000000 0.879745
Priority = 1.000000 (10000)
3.995082 1.000000
Priority = 1.000000 (10000)
20.043704 1.000000
Priority = 0.100000 (1000)
-1.000000 1.000000
Priority = 0.100000 (1000)
3.993922 0.816430
Priority = 0.100000 (1000)
6.690168 1.000000
Priority = 0.100000 (1000)
-1.000000 1.000000
Priority = 0.100000 (1000)
3.994937 0.938476
Priority = 1.000000 (10000)
-1.000000 0.938476
Priority = 1.000000 (10000)
-1.000000 0.938476
Priority = 1.000000 (10000)
-1.000000 0.938476
Priority = 1.000000 (10000)
3.994595 1.000000
Priority = 1.000000 (10000)
3.993968 0.840224
Priority = 1.000000 (10000)
-1.000000 0.840224
Priority = 1.000000 (10000)
3.994584 0.805132
Priority = 1.000000 (10000)
2.846872 0.893244
Priority = 0.100000 (1000)
-1.000000 0.893244
Priority = 0.100000 (1000)
-1.000000 0.893244
Priority = 0.100000 (1000)
-1.000000 0.893244
Priority = 0.100000 (1000)
-1.000000 0.893244
Priority = 0.100000 (1000)
3.994465 1.000000
Priority = 1.000000 (10000)
3.994514 1.000000
Priority = 1.000000 (10000)
-1.000000 1.000000
Priority = 1.000000 (10000)
2.492272 1.000000
Priority = 1.000000 (10000)
-1.000000 1.000000
Priority = 1.000000 (10000)
-1.000000 1.000000
Priority = 1.000000 (10000)
-1.000000 1.000000
Priority = 1.000000 (10000)
-1.000000 1.000000
Priority = 1.000000 (10000)
-1.000000 1.000000
Priority = 1.000000 (10000)
-1.000000 1.000000
Priority = 1.000000 (10000)
-1.000000 1.000000
Priority = 1.000000 (10000)
3.995853 1.000000
Priority = 1.000000 (10000)
3.995429 1.000000
Priority = 1.000000 (10000)
3.995233 0.863420
Priority = 1.000000 (10000)
-1.000000 0.863420
Priority = 1.000000 (10000)
3.994855 1.000000
Priority = 0.100000 (1000)
-1.000000 1.000000
Priority = 0.100000 (1000)
-1.000000 1.000000
Priority = 0.100000 (1000)
26.048227 1.000000
Priority = 0.100000 (1000)
-1.000000 1.000000
Priority = 0.100000 (1000)
-1.000000 1.000000
Priority = 0.100000 (1000)
26.040972 1.000000
Priority = 0.100000 (1000)
