Warning: I'll induce an error of 50 percent on all FTIO predictions
I think I'm working for the application of IOSETS_JOB_ID = 10
I'll open/create the priority file /sys/kernel/config/iosets/10/priority!
Priority = 0.030000 (300)
Now I'll create the log file
Now I'll wait for information from the predictor
I will launch the predictor on file /root/running_ior/10/8.jsonl
191.400000 1.000000
Priority = 0.010000 (100)
771.100000 1.000000
Priority = 0.001000 (10)
603.050000 1.000000
Priority = 0.010000 (100)
250.685714 0.937676
Priority = 0.010000 (100)
544.925000 1.000000
Priority = 0.010000 (100)
518.780000 1.000000
Priority = 0.010000 (100)
502.283333 1.000000
Priority = 0.010000 (100)
