Warning: I'll induce an error of 50 percent on all FTIO predictions
I think I'm working for the application of IOSETS_JOB_ID = 2
I'll open/create the priority file /sys/kernel/config/iosets/2/priority!
I will launch the predictor on file /root/running_ior/2/8.jsonl
Priority = 0.022000 (220)
Now I'll create the log file
Now I'll wait for information from the predictor
-1.000000 0.000000
Priority = 0.022000 (220)
508.100000 1.000000
Priority = 0.010000 (100)
487.400000 1.000000
Priority = 0.010000 (100)
481.166667 1.000000
Priority = 0.010000 (100)
477.975000 1.000000
Priority = 0.010000 (100)
474.160000 1.000000
Priority = 0.010000 (100)
465.950000 1.000000
Priority = 0.010000 (100)
459.071429 1.000000
Priority = 0.001000 (10)
