Warning: I'll induce an error of 50 percent on all FTIO predictions
I think I'm working for the application of IOSETS_JOB_ID = 3
I'll open/create the priority file /sys/kernel/config/iosets/3/priority!
Priority = 0.023000 (230)
Now I'll create the log file
Now I'll wait for information from the predictor
I will launch the predictor on file /root/running_ior/3/8.jsonl
127.100000 1.000000
Priority = 0.010000 (100)
553.700000 1.000000
Priority = 0.010000 (100)
503.700000 1.000000
Priority = 0.010000 (100)
499.333333 1.000000
Priority = 0.010000 (100)
500.150000 1.000000
Priority = 0.010000 (100)
481.860000 1.000000
Priority = 0.010000 (100)
472.116667 1.000000
Priority = 0.010000 (100)
465.614286 1.000000
Priority = 0.001000 (10)
