I think I'm working for the application of IOSETS_JOB_ID = 6
I'll open/create the priority file /sys/kernel/config/iosets/6/priority!
Priority = 0.026000 (260)
Will write 260 to the file (priority is 0.026000)
Now I'll create the log file
Now I'll wait for information from the predictor
I will launch the predictor on file /root/running_ior/6/8.jsonl
147.400000 1.000000
Priority = 0.010000 (100)
Will write 100 to the file (priority is 0.010000)
727.600000 1.000000
Priority = 0.001000 (10)
Will write 10 to the file (priority is 0.001000)
632.550000 1.000000
Priority = 0.001000 (10)
Will write 10 to the file (priority is 0.001000)
563.700000 1.000000
Priority = 0.001000 (10)
Will write 10 to the file (priority is 0.001000)
138.286667 0.954547
Priority = 0.010000 (100)
Will write 100 to the file (priority is 0.010000)
205.225000 1.000000
Priority = 0.010000 (100)
Will write 100 to the file (priority is 0.010000)
203.728571 1.000000
Priority = 0.010000 (100)
Will write 100 to the file (priority is 0.010000)
405.837500 1.000000
Priority = 0.001000 (10)
Will write 10 to the file (priority is 0.001000)
