I think I'm working for the application of IOSETS_JOB_ID = 5
I'll open/create the priority file /sys/kernel/config/iosets/5/priority!
Priority = 0.025000 (250)
Will write 250 to the file (priority is 0.025000)
Now I'll create the log file
Now I'll wait for information from the predictor
I will launch the predictor on file /root/running_ior/5/8.jsonl
243.500000 1.000000
Priority = 0.010000 (100)
Will write 100 to the file (priority is 0.010000)
678.500000 1.000000
Priority = 0.001000 (10)
Will write 10 to the file (priority is 0.001000)
596.300000 1.000000
Priority = 0.001000 (10)
Will write 10 to the file (priority is 0.001000)
546.466667 1.000000
Priority = 0.001000 (10)
Will write 10 to the file (priority is 0.001000)
504.475000 1.000000
Priority = 0.001000 (10)
Will write 10 to the file (priority is 0.001000)
-1.000000 1.000000
Priority = 0.001000 (10)
Will write 10 to the file (priority is 0.001000)
-1.000000 1.000000
Priority = 0.001000 (10)
Will write 10 to the file (priority is 0.001000)
-1.000000 1.000000
Priority = 0.001000 (10)
Will write 10 to the file (priority is 0.001000)
