I think I'm working for the application of IOSETS_JOB_ID = 2
I will launch the predictor on file /root/running_ior/2/8.jsonl
I'll open/create the priority file /sys/kernel/config/iosets/2/priority!
Priority = 0.022000 (220)
Will write 220 to the file (priority is 0.022000)
Now I'll create the log file
Now I'll wait for information from the predictor
125.900000 1.000000
Priority = 0.010000 (100)
Will write 100 to the file (priority is 0.010000)
603.700000 1.000000
Priority = 0.001000 (10)
Will write 10 to the file (priority is 0.001000)
538.350000 1.000000
Priority = 0.001000 (10)
Will write 10 to the file (priority is 0.001000)
513.000000 1.000000
Priority = 0.001000 (10)
Will write 10 to the file (priority is 0.001000)
480.875000 1.000000
Priority = 0.001000 (10)
Will write 10 to the file (priority is 0.001000)
461.660000 1.000000
Priority = 0.001000 (10)
Will write 10 to the file (priority is 0.001000)
448.716667 1.000000
Priority = 0.001000 (10)
Will write 10 to the file (priority is 0.001000)
96.575000 0.914167
Priority = 0.010000 (100)
Will write 100 to the file (priority is 0.010000)
