I think I'm working for the application of IOSETS_JOB_ID = 9
I'll open/create the priority file /sys/kernel/config/iosets/9/priority!
Priority = 0.029000 (290)
Will write 290 to the file (priority is 0.029000)
Now I'll create the log file
Now I'll wait for information from the predictor
I will launch the predictor on file /root/running_ior/9/8.jsonl
96.400000 1.000000
Priority = 0.010000 (100)
Will write 100 to the file (priority is 0.010000)
96.400000 1.000000
Priority = 0.010000 (100)
Will write 100 to the file (priority is 0.010000)
779.800000 1.000000
Priority = 0.001000 (10)
Will write 10 to the file (priority is 0.001000)
654.150000 1.000000
Priority = 0.001000 (10)
Will write 10 to the file (priority is 0.001000)
572.466667 1.000000
Priority = 0.001000 (10)
Will write 10 to the file (priority is 0.001000)
191.563636 0.890436
Priority = 0.010000 (100)
Will write 100 to the file (priority is 0.010000)
-1.000000 0.890436
Priority = 0.010000 (100)
Will write 100 to the file (priority is 0.010000)
-1.000000 0.890436
Priority = 0.010000 (100)
Will write 100 to the file (priority is 0.010000)
-1.000000 0.890436
Priority = 0.010000 (100)
Will write 100 to the file (priority is 0.010000)
