I think I'm working for the application of IOSETS_JOB_ID = 1
I'll open/create the priority file /sys/kernel/config/iosets/1/priority!
Priority = 0.030000 (300)
Will write 300 to the file (priority is 0.030000)
Now I'll create the log file
Now I'll wait for information from the predictor
I will launch the predictor on file /root/running_ior/1/8.jsonl
-1.000000 0.000000
Priority = 0.030000 (300)
Will write 300 to the file (priority is 0.030000)
-1.000000 0.000000
Priority = 0.030000 (300)
Will write 300 to the file (priority is 0.030000)
-1.000000 0.000000
Priority = 0.030000 (300)
Will write 300 to the file (priority is 0.030000)
20.025000 1.000000
Priority = 0.100000 (1000)
Will write 1000 to the file (priority is 0.100000)
-1.000000 1.000000
Priority = 0.100000 (1000)
Will write 1000 to the file (priority is 0.100000)
20.033333 1.000000
Priority = 0.100000 (1000)
Will write 1000 to the file (priority is 0.100000)
-1.000000 1.000000
Priority = 0.100000 (1000)
Will write 1000 to the file (priority is 0.100000)
20.025000 1.000000
Priority = 0.100000 (1000)
Will write 1000 to the file (priority is 0.100000)
20.011111 1.000000
Priority = 0.100000 (1000)
Will write 1000 to the file (priority is 0.100000)
-1.000000 1.000000
Priority = 0.100000 (1000)
Will write 1000 to the file (priority is 0.100000)
20.027273 1.000000
Priority = 0.100000 (1000)
Will write 1000 to the file (priority is 0.100000)
20.041667 1.000000
Priority = 0.100000 (1000)
Will write 1000 to the file (priority is 0.100000)
20.046154 1.000000
Priority = 0.100000 (1000)
Will write 1000 to the file (priority is 0.100000)
-1.000000 1.000000
Priority = 0.100000 (1000)
Will write 1000 to the file (priority is 0.100000)
-1.000000 1.000000
Priority = 0.100000 (1000)
Will write 1000 to the file (priority is 0.100000)
20.050000 1.000000
Priority = 0.100000 (1000)
Will write 1000 to the file (priority is 0.100000)
20.041176 1.000000
Priority = 0.100000 (1000)
Will write 1000 to the file (priority is 0.100000)
-1.000000 1.000000
Priority = 0.100000 (1000)
Will write 1000 to the file (priority is 0.100000)
-1.000000 1.000000
Priority = 0.100000 (1000)
Will write 1000 to the file (priority is 0.100000)
-1.000000 1.000000
Priority = 0.100000 (1000)
Will write 1000 to the file (priority is 0.100000)
6.685593 1.000000
Priority = 0.100000 (1000)
Will write 1000 to the file (priority is 0.100000)
-1.000000 1.000000
Priority = 0.100000 (1000)
Will write 1000 to the file (priority is 0.100000)
-1.000000 1.000000
Priority = 0.100000 (1000)
Will write 1000 to the file (priority is 0.100000)
6.682031 1.000000
Priority = 0.100000 (1000)
Will write 1000 to the file (priority is 0.100000)
-1.000000 1.000000
Priority = 0.100000 (1000)
Will write 1000 to the file (priority is 0.100000)
6.680000 1.000000
Priority = 0.100000 (1000)
Will write 1000 to the file (priority is 0.100000)
-1.000000 1.000000
Priority = 0.100000 (1000)
Will write 1000 to the file (priority is 0.100000)
6.692810 1.000000
Priority = 0.100000 (1000)
Will write 1000 to the file (priority is 0.100000)
6.686228 0.853408
Priority = 0.100000 (1000)
Will write 1000 to the file (priority is 0.100000)
-1.000000 0.853408
Priority = 0.100000 (1000)
Will write 1000 to the file (priority is 0.100000)
-1.000000 0.853408
Priority = 0.100000 (1000)
Will write 1000 to the file (priority is 0.100000)
6.687442 0.895645
Priority = 0.100000 (1000)
Will write 1000 to the file (priority is 0.100000)
-1.000000 0.895645
Priority = 0.100000 (1000)
Will write 1000 to the file (priority is 0.100000)
-1.000000 0.895645
Priority = 0.100000 (1000)
Will write 1000 to the file (priority is 0.100000)
-1.000000 0.895645
Priority = 0.100000 (1000)
Will write 1000 to the file (priority is 0.100000)
-1.000000 0.895645
Priority = 0.100000 (1000)
Will write 1000 to the file (priority is 0.100000)
-1.000000 0.895645
Priority = 0.100000 (1000)
Will write 1000 to the file (priority is 0.100000)
-1.000000 0.895645
Priority = 0.100000 (1000)
Will write 1000 to the file (priority is 0.100000)
6.691700 0.824965
Priority = 0.100000 (1000)
Will write 1000 to the file (priority is 0.100000)
-1.000000 0.824965
Priority = 0.100000 (1000)
Will write 1000 to the file (priority is 0.100000)
-1.000000 0.824965
Priority = 0.100000 (1000)
Will write 1000 to the file (priority is 0.100000)
-1.000000 0.824965
Priority = 0.100000 (1000)
Will write 1000 to the file (priority is 0.100000)
9.959459 0.834844
Priority = 0.100000 (1000)
Will write 1000 to the file (priority is 0.100000)
-1.000000 0.834844
Priority = 0.100000 (1000)
Will write 1000 to the file (priority is 0.100000)
6.684321 0.876021
Priority = 0.100000 (1000)
Will write 1000 to the file (priority is 0.100000)
-1.000000 0.876021
Priority = 0.100000 (1000)
Will write 1000 to the file (priority is 0.100000)
6.689527 0.840157
Priority = 0.100000 (1000)
Will write 1000 to the file (priority is 0.100000)
-1.000000 0.840157
Priority = 0.100000 (1000)
Will write 1000 to the file (priority is 0.100000)
-1.000000 0.840157
Priority = 0.100000 (1000)
Will write 1000 to the file (priority is 0.100000)
6.689286 0.945278
Priority = 0.100000 (1000)
Will write 1000 to the file (priority is 0.100000)
9.965550 1.000000
Priority = 0.100000 (1000)
Will write 1000 to the file (priority is 0.100000)
-1.000000 1.000000
Priority = 0.100000 (1000)
Will write 1000 to the file (priority is 0.100000)
-1.000000 1.000000
Priority = 0.100000 (1000)
Will write 1000 to the file (priority is 0.100000)
-1.000000 1.000000
Priority = 0.100000 (1000)
Will write 1000 to the file (priority is 0.100000)
-1.000000 1.000000
Priority = 0.100000 (1000)
Will write 1000 to the file (priority is 0.100000)
-1.000000 1.000000
Priority = 0.100000 (1000)
Will write 1000 to the file (priority is 0.100000)
4.006655 0.839738
Priority = 0.100000 (1000)
Will write 1000 to the file (priority is 0.100000)
-1.000000 0.839738
Priority = 0.100000 (1000)
Will write 1000 to the file (priority is 0.100000)
-1.000000 0.839738
Priority = 0.100000 (1000)
Will write 1000 to the file (priority is 0.100000)
-1.000000 0.839738
Priority = 0.100000 (1000)
Will write 1000 to the file (priority is 0.100000)
-1.000000 0.839738
Priority = 0.100000 (1000)
Will write 1000 to the file (priority is 0.100000)
-1.000000 0.839738
Priority = 0.100000 (1000)
Will write 1000 to the file (priority is 0.100000)
4.006599 1.000000
Priority = 0.100000 (1000)
Will write 1000 to the file (priority is 0.100000)
-1.000000 1.000000
Priority = 0.100000 (1000)
Will write 1000 to the file (priority is 0.100000)
4.006612 1.000000
Priority = 0.100000 (1000)
Will write 1000 to the file (priority is 0.100000)
-1.000000 1.000000
Priority = 0.100000 (1000)
Will write 1000 to the file (priority is 0.100000)
-1.000000 1.000000
Priority = 0.100000 (1000)
Will write 1000 to the file (priority is 0.100000)
4.006902 0.838446
Priority = 0.100000 (1000)
Will write 1000 to the file (priority is 0.100000)
-1.000000 0.838446
Priority = 0.100000 (1000)
Will write 1000 to the file (priority is 0.100000)
-1.000000 0.838446
Priority = 0.100000 (1000)
Will write 1000 to the file (priority is 0.100000)
-1.000000 0.838446
Priority = 0.100000 (1000)
Will write 1000 to the file (priority is 0.100000)
-1.000000 0.838446
Priority = 0.100000 (1000)
Will write 1000 to the file (priority is 0.100000)
4.005982 1.000000
Priority = 0.100000 (1000)
Will write 1000 to the file (priority is 0.100000)
4.005623 1.000000
Priority = 0.100000 (1000)
Will write 1000 to the file (priority is 0.100000)
4.006024 1.000000
Priority = 0.100000 (1000)
Will write 1000 to the file (priority is 0.100000)
-1.000000 1.000000
Priority = 0.100000 (1000)
Will write 1000 to the file (priority is 0.100000)
20.325564 1.000000
Priority = 0.100000 (1000)
Will write 1000 to the file (priority is 0.100000)
4.006167 1.000000
Priority = 0.100000 (1000)
Will write 1000 to the file (priority is 0.100000)
-1.000000 1.000000
Priority = 0.100000 (1000)
Will write 1000 to the file (priority is 0.100000)
4.005764 1.000000
Priority = 0.100000 (1000)
Will write 1000 to the file (priority is 0.100000)
4.006714 1.000000
Priority = 0.100000 (1000)
Will write 1000 to the file (priority is 0.100000)
-1.000000 1.000000
Priority = 0.100000 (1000)
Will write 1000 to the file (priority is 0.100000)
-1.000000 1.000000
Priority = 0.100000 (1000)
Will write 1000 to the file (priority is 0.100000)
-1.000000 1.000000
Priority = 0.100000 (1000)
Will write 1000 to the file (priority is 0.100000)
-1.000000 1.000000
Priority = 0.100000 (1000)
Will write 1000 to the file (priority is 0.100000)
4.006284 1.000000
Priority = 0.100000 (1000)
Will write 1000 to the file (priority is 0.100000)
4.006098 1.000000
Priority = 0.100000 (1000)
Will write 1000 to the file (priority is 0.100000)
-1.000000 1.000000
Priority = 0.100000 (1000)
Will write 1000 to the file (priority is 0.100000)
-1.000000 1.000000
Priority = 0.100000 (1000)
Will write 1000 to the file (priority is 0.100000)
-1.000000 1.000000
Priority = 0.100000 (1000)
Will write 1000 to the file (priority is 0.100000)
-1.000000 1.000000
Priority = 0.100000 (1000)
Will write 1000 to the file (priority is 0.100000)
-1.000000 1.000000
Priority = 0.100000 (1000)
Will write 1000 to the file (priority is 0.100000)
-1.000000 1.000000
Priority = 0.100000 (1000)
Will write 1000 to the file (priority is 0.100000)
-1.000000 1.000000
Priority = 0.100000 (1000)
Will write 1000 to the file (priority is 0.100000)
-1.000000 1.000000
Priority = 0.100000 (1000)
Will write 1000 to the file (priority is 0.100000)
4.007955 0.887362
Priority = 0.100000 (1000)
Will write 1000 to the file (priority is 0.100000)
4.006633 1.000000
Priority = 0.100000 (1000)
Will write 1000 to the file (priority is 0.100000)
4.006708 1.000000
Priority = 0.100000 (1000)
Will write 1000 to the file (priority is 0.100000)
4.006773 1.000000
Priority = 0.100000 (1000)
Will write 1000 to the file (priority is 0.100000)
-1.000000 1.000000
Priority = 0.100000 (1000)
Will write 1000 to the file (priority is 0.100000)
-1.000000 1.000000
Priority = 0.100000 (1000)
Will write 1000 to the file (priority is 0.100000)
-1.000000 1.000000
Priority = 0.100000 (1000)
Will write 1000 to the file (priority is 0.100000)
-1.000000 1.000000
Priority = 0.100000 (1000)
Will write 1000 to the file (priority is 0.100000)
-1.000000 1.000000
Priority = 0.100000 (1000)
Will write 1000 to the file (priority is 0.100000)
4.006588 0.844661
Priority = 0.100000 (1000)
Will write 1000 to the file (priority is 0.100000)
4.006659 0.813681
Priority = 0.100000 (1000)
Will write 1000 to the file (priority is 0.100000)
4.006729 1.000000
Priority = 0.100000 (1000)
Will write 1000 to the file (priority is 0.100000)
4.006221 1.000000
Priority = 0.100000 (1000)
Will write 1000 to the file (priority is 0.100000)
-1.000000 1.000000
Priority = 0.100000 (1000)
Will write 1000 to the file (priority is 0.100000)
-1.000000 1.000000
Priority = 0.100000 (1000)
Will write 1000 to the file (priority is 0.100000)
-1.000000 1.000000
Priority = 0.100000 (1000)
Will write 1000 to the file (priority is 0.100000)
-1.000000 1.000000
Priority = 0.100000 (1000)
Will write 1000 to the file (priority is 0.100000)
4.007547 1.000000
Priority = 0.100000 (1000)
Will write 1000 to the file (priority is 0.100000)
9.961096 0.818565
Priority = 0.100000 (1000)
Will write 1000 to the file (priority is 0.100000)
4.007440 1.000000
Priority = 0.100000 (1000)
Will write 1000 to the file (priority is 0.100000)
-1.000000 1.000000
Priority = 0.100000 (1000)
Will write 1000 to the file (priority is 0.100000)
-1.000000 1.000000
Priority = 0.100000 (1000)
Will write 1000 to the file (priority is 0.100000)
-1.000000 1.000000
Priority = 0.100000 (1000)
Will write 1000 to the file (priority is 0.100000)
