I think I'm working for the application of IOSETS_JOB_ID = 3
I'll open/create the priority file /sys/kernel/config/iosets/3/priority!
Priority = 0.023000 (230)
Will write 230 to the file (priority is 0.023000)
Now I'll create the log file
Now I'll wait for information from the predictor
I will launch the predictor on file /root/running_ior/3/8.jsonl
192.400000 1.000000
Priority = 0.010000 (100)
Will write 100 to the file (priority is 0.010000)
659.400000 1.000000
Priority = 0.001000 (10)
Will write 10 to the file (priority is 0.001000)
535.600000 1.000000
Priority = 0.001000 (10)
Will write 10 to the file (priority is 0.001000)
494.200000 1.000000
Priority = 0.001000 (10)
Will write 10 to the file (priority is 0.001000)
-1.000000 1.000000
Priority = 0.001000 (10)
Will write 10 to the file (priority is 0.001000)
134.352941 0.943682
Priority = 0.010000 (100)
Will write 100 to the file (priority is 0.010000)
134.840000 0.846179
Priority = 0.010000 (100)
Will write 100 to the file (priority is 0.010000)
135.539130 0.800846
Priority = 0.010000 (100)
Will write 100 to the file (priority is 0.010000)
