I think I'm working for the application of IOSETS_JOB_ID = 1
I'll open/create the priority file /sys/kernel/config/iosets/1/priority!
Priority = 0.030000 (300)
Will write 300 to the file (priority is 0.030000)
Now I'll create the log file
Now I'll wait for information from the predictor
I will launch the predictor on file /root/running_ior/1/8.jsonl
-1.000000 0.000000
Priority = 0.030000 (300)
Will write 300 to the file (priority is 0.030000)
-1.000000 0.000000
Priority = 0.030000 (300)
Will write 300 to the file (priority is 0.030000)
20.066667 1.000000
Priority = 0.100000 (1000)
Will write 1000 to the file (priority is 0.100000)
-1.000000 1.000000
Priority = 0.100000 (1000)
Will write 1000 to the file (priority is 0.100000)
20.080000 1.000000
Priority = 0.100000 (1000)
Will write 1000 to the file (priority is 0.100000)
-1.000000 1.000000
Priority = 0.100000 (1000)
Will write 1000 to the file (priority is 0.100000)
20.114286 1.000000
Priority = 0.100000 (1000)
Will write 1000 to the file (priority is 0.100000)
20.087500 1.000000
Priority = 0.100000 (1000)
Will write 1000 to the file (priority is 0.100000)
20.111111 1.000000
Priority = 0.100000 (1000)
Will write 1000 to the file (priority is 0.100000)
-1.000000 1.000000
Priority = 0.100000 (1000)
Will write 1000 to the file (priority is 0.100000)
-1.000000 1.000000
Priority = 0.100000 (1000)
Will write 1000 to the file (priority is 0.100000)
20.125000 1.000000
Priority = 0.100000 (1000)
Will write 1000 to the file (priority is 0.100000)
20.115385 1.000000
Priority = 0.100000 (1000)
Will write 1000 to the file (priority is 0.100000)
-1.000000 1.000000
Priority = 0.100000 (1000)
Will write 1000 to the file (priority is 0.100000)
-1.000000 1.000000
Priority = 0.100000 (1000)
Will write 1000 to the file (priority is 0.100000)
-1.000000 1.000000
Priority = 0.100000 (1000)
Will write 1000 to the file (priority is 0.100000)
-1.000000 1.000000
Priority = 0.100000 (1000)
Will write 1000 to the file (priority is 0.100000)
-1.000000 1.000000
Priority = 0.100000 (1000)
Will write 1000 to the file (priority is 0.100000)
-1.000000 1.000000
Priority = 0.100000 (1000)
Will write 1000 to the file (priority is 0.100000)
-1.000000 1.000000
Priority = 0.100000 (1000)
Will write 1000 to the file (priority is 0.100000)
-1.000000 1.000000
Priority = 0.100000 (1000)
Will write 1000 to the file (priority is 0.100000)
-1.000000 1.000000
Priority = 0.100000 (1000)
Will write 1000 to the file (priority is 0.100000)
-1.000000 1.000000
Priority = 0.100000 (1000)
Will write 1000 to the file (priority is 0.100000)
10.057471 0.841105
Priority = 0.100000 (1000)
Will write 1000 to the file (priority is 0.100000)
-1.000000 0.841105
Priority = 0.100000 (1000)
Will write 1000 to the file (priority is 0.100000)
-1.000000 0.841105
Priority = 0.100000 (1000)
Will write 1000 to the file (priority is 0.100000)
-1.000000 0.841105
Priority = 0.100000 (1000)
Will write 1000 to the file (priority is 0.100000)
-1.000000 0.841105
Priority = 0.100000 (1000)
Will write 1000 to the file (priority is 0.100000)
-1.000000 0.841105
Priority = 0.100000 (1000)
Will write 1000 to the file (priority is 0.100000)
-1.000000 0.841105
Priority = 0.100000 (1000)
Will write 1000 to the file (priority is 0.100000)
-1.000000 0.841105
Priority = 0.100000 (1000)
Will write 1000 to the file (priority is 0.100000)
20.449231 1.000000
Priority = 0.100000 (1000)
Will write 1000 to the file (priority is 0.100000)
-1.000000 1.000000
Priority = 0.100000 (1000)
Will write 1000 to the file (priority is 0.100000)
-1.000000 1.000000
Priority = 0.100000 (1000)
Will write 1000 to the file (priority is 0.100000)
20.455072 1.000000
Priority = 0.100000 (1000)
Will write 1000 to the file (priority is 0.100000)
20.440000 1.000000
Priority = 0.100000 (1000)
Will write 1000 to the file (priority is 0.100000)
2.514533 0.946921
Priority = 1.000000 (10000)
Will write 10000 to the file (priority is 1.000000)
-1.000000 0.946921
Priority = 1.000000 (10000)
Will write 10000 to the file (priority is 1.000000)
2.514790 0.984410
Priority = 1.000000 (10000)
Will write 10000 to the file (priority is 1.000000)
-1.000000 0.984410
Priority = 1.000000 (10000)
Will write 10000 to the file (priority is 1.000000)
-1.000000 0.984410
Priority = 1.000000 (10000)
Will write 10000 to the file (priority is 1.000000)
-1.000000 0.984410
Priority = 1.000000 (10000)
Will write 10000 to the file (priority is 1.000000)
-1.000000 0.984410
Priority = 1.000000 (10000)
Will write 10000 to the file (priority is 1.000000)
20.521795 1.000000
Priority = 0.100000 (1000)
Will write 1000 to the file (priority is 0.100000)
20.521519 1.000000
Priority = 0.100000 (1000)
Will write 1000 to the file (priority is 0.100000)
-1.000000 1.000000
Priority = 0.100000 (1000)
Will write 1000 to the file (priority is 0.100000)
-1.000000 1.000000
Priority = 0.100000 (1000)
Will write 1000 to the file (priority is 0.100000)
20.485542 1.000000
Priority = 0.100000 (1000)
Will write 1000 to the file (priority is 0.100000)
-1.000000 1.000000
Priority = 0.100000 (1000)
Will write 1000 to the file (priority is 0.100000)
-1.000000 1.000000
Priority = 0.100000 (1000)
Will write 1000 to the file (priority is 0.100000)
-1.000000 1.000000
Priority = 0.100000 (1000)
Will write 1000 to the file (priority is 0.100000)
-1.000000 1.000000
Priority = 0.100000 (1000)
Will write 1000 to the file (priority is 0.100000)
-1.000000 1.000000
Priority = 0.100000 (1000)
Will write 1000 to the file (priority is 0.100000)
-1.000000 1.000000
Priority = 0.100000 (1000)
Will write 1000 to the file (priority is 0.100000)
19.944211 1.000000
Priority = 0.100000 (1000)
Will write 1000 to the file (priority is 0.100000)
19.945833 1.000000
Priority = 0.100000 (1000)
Will write 1000 to the file (priority is 0.100000)
19.941237 1.000000
Priority = 0.100000 (1000)
Will write 1000 to the file (priority is 0.100000)
-1.000000 1.000000
Priority = 0.100000 (1000)
Will write 1000 to the file (priority is 0.100000)
-1.000000 1.000000
Priority = 0.100000 (1000)
Will write 1000 to the file (priority is 0.100000)
-1.000000 1.000000
Priority = 0.100000 (1000)
Will write 1000 to the file (priority is 0.100000)
-1.000000 1.000000
Priority = 0.100000 (1000)
Will write 1000 to the file (priority is 0.100000)
19.946602 1.000000
Priority = 0.100000 (1000)
Will write 1000 to the file (priority is 0.100000)
-1.000000 1.000000
Priority = 0.100000 (1000)
Will write 1000 to the file (priority is 0.100000)
-1.000000 1.000000
Priority = 0.100000 (1000)
Will write 1000 to the file (priority is 0.100000)
-1.000000 1.000000
Priority = 0.100000 (1000)
Will write 1000 to the file (priority is 0.100000)
-1.000000 1.000000
Priority = 0.100000 (1000)
Will write 1000 to the file (priority is 0.100000)
-1.000000 1.000000
Priority = 0.100000 (1000)
Will write 1000 to the file (priority is 0.100000)
-1.000000 1.000000
Priority = 0.100000 (1000)
Will write 1000 to the file (priority is 0.100000)
-1.000000 1.000000
Priority = 0.100000 (1000)
Will write 1000 to the file (priority is 0.100000)
-1.000000 1.000000
Priority = 0.100000 (1000)
Will write 1000 to the file (priority is 0.100000)
-1.000000 1.000000
Priority = 0.100000 (1000)
Will write 1000 to the file (priority is 0.100000)
-1.000000 1.000000
Priority = 0.100000 (1000)
Will write 1000 to the file (priority is 0.100000)
-1.000000 1.000000
Priority = 0.100000 (1000)
Will write 1000 to the file (priority is 0.100000)
-1.000000 1.000000
Priority = 0.100000 (1000)
Will write 1000 to the file (priority is 0.100000)
-1.000000 1.000000
Priority = 0.100000 (1000)
Will write 1000 to the file (priority is 0.100000)
2.875297 1.000000
Priority = 1.000000 (10000)
Will write 10000 to the file (priority is 1.000000)
-1.000000 1.000000
Priority = 1.000000 (10000)
Will write 10000 to the file (priority is 1.000000)
-1.000000 1.000000
Priority = 1.000000 (10000)
Will write 10000 to the file (priority is 1.000000)
-1.000000 1.000000
Priority = 1.000000 (10000)
Will write 10000 to the file (priority is 1.000000)
-1.000000 1.000000
Priority = 1.000000 (10000)
Will write 10000 to the file (priority is 1.000000)
2.514045 0.931751
Priority = 1.000000 (10000)
Will write 10000 to the file (priority is 1.000000)
-1.000000 0.931751
Priority = 1.000000 (10000)
Will write 10000 to the file (priority is 1.000000)
-1.000000 0.931751
Priority = 1.000000 (10000)
Will write 10000 to the file (priority is 1.000000)
-1.000000 0.931751
Priority = 1.000000 (10000)
Will write 10000 to the file (priority is 1.000000)
-1.000000 0.931751
Priority = 1.000000 (10000)
Will write 10000 to the file (priority is 1.000000)
19.938060 1.000000
Priority = 0.100000 (1000)
Will write 1000 to the file (priority is 0.100000)
2.880128 1.000000
Priority = 1.000000 (10000)
Will write 10000 to the file (priority is 1.000000)
2.879788 1.000000
Priority = 1.000000 (10000)
Will write 10000 to the file (priority is 1.000000)
-1.000000 1.000000
Priority = 1.000000 (10000)
Will write 10000 to the file (priority is 1.000000)
2.879709 1.000000
Priority = 1.000000 (10000)
Will write 10000 to the file (priority is 1.000000)
-1.000000 1.000000
Priority = 1.000000 (10000)
Will write 10000 to the file (priority is 1.000000)
-1.000000 1.000000
Priority = 1.000000 (10000)
Will write 10000 to the file (priority is 1.000000)
2.879310 0.934214
Priority = 1.000000 (10000)
Will write 10000 to the file (priority is 1.000000)
-1.000000 0.934214
Priority = 1.000000 (10000)
Will write 10000 to the file (priority is 1.000000)
2.879761 0.812861
Priority = 1.000000 (10000)
Will write 10000 to the file (priority is 1.000000)
5.036442 0.882927
Priority = 0.100000 (1000)
Will write 1000 to the file (priority is 0.100000)
-1.000000 0.882927
Priority = 0.100000 (1000)
Will write 1000 to the file (priority is 0.100000)
2.879495 0.902801
Priority = 1.000000 (10000)
Will write 10000 to the file (priority is 1.000000)
-1.000000 0.902801
Priority = 1.000000 (10000)
Will write 10000 to the file (priority is 1.000000)
-1.000000 0.902801
Priority = 1.000000 (10000)
Will write 10000 to the file (priority is 1.000000)
2.879602 0.855089
Priority = 1.000000 (10000)
Will write 10000 to the file (priority is 1.000000)
-1.000000 0.855089
Priority = 1.000000 (10000)
Will write 10000 to the file (priority is 1.000000)
2.880037 1.000000
Priority = 1.000000 (10000)
Will write 10000 to the file (priority is 1.000000)
-1.000000 1.000000
Priority = 1.000000 (10000)
Will write 10000 to the file (priority is 1.000000)
24.693750 1.000000
Priority = 0.100000 (1000)
Will write 1000 to the file (priority is 0.100000)
24.732558 1.000000
Priority = 0.100000 (1000)
Will write 1000 to the file (priority is 0.100000)
-1.000000 1.000000
Priority = 0.100000 (1000)
Will write 1000 to the file (priority is 0.100000)
-1.000000 1.000000
Priority = 0.100000 (1000)
Will write 1000 to the file (priority is 0.100000)
24.690226 1.000000
Priority = 0.100000 (1000)
Will write 1000 to the file (priority is 0.100000)
24.712687 1.000000
Priority = 0.100000 (1000)
Will write 1000 to the file (priority is 0.100000)
24.737778 1.000000
Priority = 0.100000 (1000)
Will write 1000 to the file (priority is 0.100000)
24.727206 1.000000
Priority = 0.100000 (1000)
Will write 1000 to the file (priority is 0.100000)
24.705839 1.000000
Priority = 0.100000 (1000)
Will write 1000 to the file (priority is 0.100000)
24.700000 1.000000
Priority = 0.100000 (1000)
Will write 1000 to the file (priority is 0.100000)
24.711511 1.000000
Priority = 0.100000 (1000)
Will write 1000 to the file (priority is 0.100000)
24.765714 1.000000
Priority = 0.100000 (1000)
Will write 1000 to the file (priority is 0.100000)
24.714085 1.000000
Priority = 0.100000 (1000)
Will write 1000 to the file (priority is 0.100000)
24.714685 1.000000
Priority = 0.100000 (1000)
Will write 1000 to the file (priority is 0.100000)
24.732639 1.000000
Priority = 0.100000 (1000)
Will write 1000 to the file (priority is 0.100000)
24.770345 1.000000
Priority = 0.100000 (1000)
Will write 1000 to the file (priority is 0.100000)
24.773973 1.000000
Priority = 0.100000 (1000)
Will write 1000 to the file (priority is 0.100000)
24.802721 1.000000
Priority = 0.100000 (1000)
Will write 1000 to the file (priority is 0.100000)
24.671141 1.000000
Priority = 0.100000 (1000)
Will write 1000 to the file (priority is 0.100000)
24.730667 1.000000
Priority = 0.100000 (1000)
Will write 1000 to the file (priority is 0.100000)
24.763816 1.000000
Priority = 0.100000 (1000)
Will write 1000 to the file (priority is 0.100000)
