I think I'm working for the application of IOSETS_JOB_ID = 12
I'll open/create the priority file /sys/kernel/config/iosets/12/priority!
Priority = 0.021200 (212)
Will write 212 to the file (priority is 0.021200)
Now I'll create the log file
Now I'll wait for information from the predictor
I will launch the predictor on file /root/running_ior/12/8.jsonl
65.700000 1.000000
Priority = 0.010000 (100)
Will write 100 to the file (priority is 0.010000)
535.800000 1.000000
Priority = 0.001000 (10)
Will write 10 to the file (priority is 0.001000)
516.700000 1.000000
Priority = 0.001000 (10)
Will write 10 to the file (priority is 0.001000)
480.100000 1.000000
Priority = 0.001000 (10)
Will write 10 to the file (priority is 0.001000)
462.500000 1.000000
Priority = 0.001000 (10)
Will write 10 to the file (priority is 0.001000)
451.600000 1.000000
Priority = 0.001000 (10)
Will write 10 to the file (priority is 0.001000)
446.050000 1.000000
Priority = 0.001000 (10)
Will write 10 to the file (priority is 0.001000)
436.671429 1.000000
Priority = 0.001000 (10)
Will write 10 to the file (priority is 0.001000)
