I think I'm working for the application of IOSETS_JOB_ID = 7
I'll open/create the priority file /sys/kernel/config/iosets/7/priority!
Priority = 0.027000 (270)
Will write 270 to the file (priority is 0.027000)
Now I'll create the log file
Now I'll wait for information from the predictor
I will launch the predictor on file /root/running_ior/7/8.jsonl
128.800000 1.000000
Priority = 0.010000 (100)
Will write 100 to the file (priority is 0.010000)
128.800000 1.000000
Priority = 0.010000 (100)
Will write 100 to the file (priority is 0.010000)
657.600000 1.000000
Priority = 0.001000 (10)
Will write 10 to the file (priority is 0.001000)
208.340000 0.820395
Priority = 0.010000 (100)
Will write 100 to the file (priority is 0.010000)
204.114286 1.000000
Priority = 0.010000 (100)
Will write 100 to the file (priority is 0.010000)
203.888889 1.000000
Priority = 0.010000 (100)
Will write 100 to the file (priority is 0.010000)
-1.000000 1.000000
Priority = 0.010000 (100)
Will write 100 to the file (priority is 0.010000)
204.546154 1.000000
Priority = 0.010000 (100)
Will write 100 to the file (priority is 0.010000)
204.966667 1.000000
Priority = 0.010000 (100)
Will write 100 to the file (priority is 0.010000)
