I think I'm working for the application of IOSETS_JOB_ID = 14
I'll open/create the priority file /sys/kernel/config/iosets/14/priority!
Priority = 0.021400 (214)
Will write 214 to the file (priority is 0.021400)
Now I'll create the log file
Now I'll wait for information from the predictor
I will launch the predictor on file /root/running_ior/14/8.jsonl
123.100000 1.000000
Priority = 0.010000 (100)
Will write 100 to the file (priority is 0.010000)
123.100000 1.000000
Priority = 0.010000 (100)
Will write 100 to the file (priority is 0.010000)
587.100000 1.000000
Priority = 0.001000 (10)
Will write 10 to the file (priority is 0.001000)
510.600000 1.000000
Priority = 0.001000 (10)
Will write 10 to the file (priority is 0.001000)
478.100000 1.000000
Priority = 0.001000 (10)
Will write 10 to the file (priority is 0.001000)
457.350000 1.000000
Priority = 0.001000 (10)
Will write 10 to the file (priority is 0.001000)
446.940000 1.000000
Priority = 0.001000 (10)
Will write 10 to the file (priority is 0.001000)
442.650000 1.000000
Priority = 0.001000 (10)
Will write 10 to the file (priority is 0.001000)
438.371429 1.000000
Priority = 0.001000 (10)
Will write 10 to the file (priority is 0.001000)
