Warning: I'll induce an error of 50 percent on all FTIO predictions
I think I'm working for the application of IOSETS_JOB_ID = 9
I'll open/create the priority file /sys/kernel/config/iosets/9/priority!
Priority = 0.029000 (290)
Now I'll create the log file
Now I'll wait for information from the predictor
I will launch the predictor on file /root/running_ior/9/8.jsonl
220.900000 1.000000
Priority = 0.001000 (10)
869.000000 1.000000
Priority = 0.001000 (10)
649.250000 1.000000
Priority = 0.001000 (10)
577.100000 1.000000
Priority = 0.010000 (100)
224.370000 0.884413
Priority = 0.010000 (100)
488.183333 1.000000
Priority = 0.010000 (100)
