Warning: I'll induce an error of 50 percent on all FTIO predictions
I think I'm working for the application of IOSETS_JOB_ID = 11
I'll open/create the priority file /sys/kernel/config/iosets/11/priority!
Priority = 0.021100 (211)
Now I'll create the log file
Now I'll wait for information from the predictor
I will launch the predictor on file /root/running_ior/11/8.jsonl
343.100000 1.000000
Priority = 0.001000 (10)
837.100000 1.000000
Priority = 0.001000 (10)
410.400000 1.000000
Priority = 0.001000 (10)
400.525000 1.000000
Priority = 0.010000 (100)
398.240000 1.000000
Priority = 0.010000 (100)
397.150000 1.000000
Priority = 0.010000 (100)
399.400000 1.000000
Priority = 0.001000 (10)
404.362500 1.000000
Priority = 0.001000 (10)
