Warning: I'll induce an error of 50 percent on all FTIO predictions
I think I'm working for the application of IOSETS_JOB_ID = 16
I'll open/create the priority file /sys/kernel/config/iosets/16/priority!
Priority = 0.021600 (216)
Now I'll create the log file
Now I'll wait for information from the predictor
I will launch the predictor on file /root/running_ior/16/8.jsonl
237.900000 1.000000
Priority = 0.001000 (10)
237.900000 1.000000
Priority = 0.010000 (100)
679.000000 1.000000
Priority = 0.001000 (10)
226.820000 1.000000
Priority = 0.010000 (100)
220.371429 1.000000
Priority = 0.010000 (100)
213.922222 1.000000
Priority = 0.010000 (100)
211.209091 1.000000
Priority = 0.001000 (10)
-1.000000 1.000000
Priority = 0.001000 (10)
-1.000000 1.000000
Priority = 0.001000 (10)
