Warning: I'll induce an error of 50 percent on all FTIO predictions
I think I'm working for the application of IOSETS_JOB_ID = 12
I'll open/create the priority file /sys/kernel/config/iosets/12/priority!
Priority = 0.021200 (212)
Now I'll create the log file
Now I'll wait for information from the predictor
I will launch the predictor on file /root/running_ior/12/8.jsonl
104.900000 1.000000
Priority = 0.010000 (100)
104.900000 1.000000
Priority = 0.010000 (100)
538.300000 1.000000
Priority = 0.001000 (10)
462.300000 1.000000
Priority = 0.010000 (100)
435.966667 1.000000
Priority = 0.010000 (100)
423.325000 1.000000
Priority = 0.010000 (100)
-1.000000 1.000000
Priority = 0.010000 (100)
416.500000 1.000000
Priority = 0.001000 (10)
417.314286 1.000000
Priority = 0.010000 (100)
