Warning: I'll induce an error of 50 percent on all FTIO predictions
I think I'm working for the application of IOSETS_JOB_ID = 5
I'll open/create the priority file /sys/kernel/config/iosets/5/priority!
Priority = 0.025000 (250)
Now I'll create the log file
Now I'll wait for information from the predictor
I will launch the predictor on file /root/running_ior/5/8.jsonl
174.000000 1.000000
Priority = 0.010000 (100)
689.100000 1.000000
Priority = 0.001000 (10)
558.100000 1.000000
Priority = 0.001000 (10)
216.542857 0.810302
Priority = 0.010000 (100)
210.244444 1.000000
Priority = 0.010000 (100)
382.933333 1.000000
Priority = 0.010000 (100)
-1.000000 1.000000
Priority = 0.010000 (100)
387.850000 1.000000
Priority = 0.001000 (10)
