Warning: I'll induce an error of 50 percent on all FTIO predictions
I think I'm working for the application of IOSETS_JOB_ID = 14
I'll open/create the priority file /sys/kernel/config/iosets/14/priority!
Priority = 0.021400 (214)
Now I'll create the log file
Now I'll wait for information from the predictor
I will launch the predictor on file /root/running_ior/14/8.jsonl
118.150000 1.000000
Priority = 0.010000 (100)
118.150000 1.000000
Priority = 0.010000 (100)
706.700000 1.000000
Priority = 0.001000 (10)
554.300000 1.000000
Priority = 0.010000 (100)
-1.000000 1.000000
Priority = 0.010000 (100)
-1.000000 1.000000
Priority = 0.010000 (100)
-1.000000 1.000000
Priority = 0.010000 (100)
382.571429 1.000000
Priority = 0.001000 (10)
386.937500 1.000000
Priority = 0.001000 (10)
