Warning: I'll induce an error of 50 percent on all FTIO predictions
I think I'm working for the application of IOSETS_JOB_ID = 4
I'll open/create the priority file /sys/kernel/config/iosets/4/priority!
Priority = 0.024000 (240)
Now I'll create the log file
Now I'll wait for information from the predictor
I will launch the predictor on file /root/running_ior/4/8.jsonl
180.600000 1.000000
Priority = 0.010000 (100)
702.900000 1.000000
Priority = 0.001000 (10)
573.400000 1.000000
Priority = 0.001000 (10)
-1.000000 1.000000
Priority = 0.001000 (10)
387.200000 1.000000
Priority = 0.010000 (100)
390.250000 1.000000
Priority = 0.010000 (100)
391.957143 1.000000
Priority = 0.001000 (10)
394.475000 1.000000
Priority = 0.001000 (10)
