Warning: I'll induce an error of 50 percent on all FTIO predictions
I think I'm working for the application of IOSETS_JOB_ID = 13
I'll open/create the priority file /sys/kernel/config/iosets/13/priority!
Priority = 0.021300 (212)
Now I'll create the log file
Now I'll wait for information from the predictor
I will launch the predictor on file /root/running_ior/13/8.jsonl
146.100000 1.000000
Priority = 0.010000 (100)
704.900000 1.000000
Priority = 0.001000 (10)
556.900000 1.000000
Priority = 0.001000 (10)
500.866667 1.000000
Priority = 0.010000 (100)
-1.000000 1.000000
Priority = 0.010000 (100)
386.666667 1.000000
Priority = 0.010000 (100)
387.471429 1.000000
Priority = 0.001000 (10)
390.512500 1.000000
Priority = 0.001000 (10)
