I think I'm working for the application of IOSETS_JOB_ID = 9
I'll open/create the priority file /sys/kernel/config/iosets/9/priority!
Priority = 0.029000 (290)
Now I'll create the log file
Now I'll wait for information from the predictor
I will launch the predictor on file /root/running_ior/9/8.jsonl
205.600000 1.000000
Priority = 0.010000 (100)
205.600000 1.000000
Priority = 0.010000 (100)
661.100000 1.000000
Priority = 0.001000 (10)
532.650000 1.000000
Priority = 0.001000 (10)
483.766667 1.000000
Priority = 0.001000 (10)
-1.000000 1.000000
Priority = 0.001000 (10)
-1.000000 1.000000
Priority = 0.001000 (10)
205.953846 0.802593
Priority = 0.010000 (100)
207.993333 0.858125
Priority = 0.010000 (100)
