I think I'm working for the application of IOSETS_JOB_ID = 12
I'll open/create the priority file /sys/kernel/config/iosets/12/priority!
Priority = 0.021200 (212)
Now I'll create the log file
Now I'll wait for information from the predictor
I will launch the predictor on file /root/running_ior/12/8.jsonl
88.600000 1.000000
Priority = 0.010000 (100)
459.200000 1.000000
Priority = 0.001000 (10)
420.350000 1.000000
Priority = 0.001000 (10)
417.733333 1.000000
Priority = 0.001000 (10)
415.075000 1.000000
Priority = 0.001000 (10)
412.520000 1.000000
Priority = 0.001000 (10)
411.783333 1.000000
Priority = 0.001000 (10)
413.042857 1.000000
Priority = 0.001000 (10)
