I think I'm working for the application of IOSETS_JOB_ID = 10
I'll open/create the priority file /sys/kernel/config/iosets/10/priority!
Priority = 0.030000 (300)
Now I'll create the log file
Now I'll wait for information from the predictor
I will launch the predictor on file /root/running_ior/10/8.jsonl
106.150000 1.000000
Priority = 0.010000 (100)
106.150000 1.000000
Priority = 0.010000 (100)
696.300000 1.000000
Priority = 0.001000 (10)
560.750000 1.000000
Priority = 0.001000 (10)
216.014286 0.867449
Priority = 0.010000 (100)
-1.000000 0.867449
Priority = 0.010000 (100)
-1.000000 0.867449
Priority = 0.010000 (100)
397.242857 1.000000
Priority = 0.001000 (10)
-1.000000 1.000000
Priority = 0.001000 (10)
