I think I'm working for the application of IOSETS_JOB_ID = 2
I'll open/create the priority file /sys/kernel/config/iosets/2/priority!
Priority = 0.022000 (220)
Now I'll create the log file
Now I'll wait for information from the predictor
I will launch the predictor on file /root/running_ior/2/8.jsonl
82.900000 1.000000
Priority = 0.010000 (100)
496.500000 1.000000
Priority = 0.001000 (10)
442.650000 1.000000
Priority = 0.001000 (10)
433.633333 1.000000
Priority = 0.001000 (10)
427.975000 1.000000
Priority = 0.001000 (10)
427.760000 1.000000
Priority = 0.001000 (10)
424.166667 1.000000
Priority = 0.001000 (10)
421.628571 1.000000
Priority = 0.001000 (10)
422.587500 1.000000
Priority = 0.001000 (10)
