I think I'm working for the application of IOSETS_JOB_ID = 3
I'll open/create the priority file /sys/kernel/config/iosets/3/priority!
Priority = 0.023000 (230)
Will write 230 to the file (priority is 0.023000)
Now I'll create the log file
Now I'll wait for information from the predictor
I will launch the predictor on file /root/running_ior/3/8.jsonl
136.300000 1.000000
Priority = 0.010000 (100)
Will write 100 to the file (priority is 0.010000)
608.500000 1.000000
Priority = 0.001000 (10)
Will write 10 to the file (priority is 0.001000)
571.350000 1.000000
Priority = 0.001000 (10)
Will write 10 to the file (priority is 0.001000)
514.533333 1.000000
Priority = 0.001000 (10)
Will write 10 to the file (priority is 0.001000)
482.275000 1.000000
Priority = 0.001000 (10)
Will write 10 to the file (priority is 0.001000)
193.025000 1.000000
Priority = 0.010000 (100)
Will write 100 to the file (priority is 0.010000)
193.550000 1.000000
Priority = 0.010000 (100)
Will write 100 to the file (priority is 0.010000)
195.050000 1.000000
Priority = 0.010000 (100)
Will write 100 to the file (priority is 0.010000)
