I think I'm working for the application of IOSETS_JOB_ID = 4
I'll open/create the priority file /sys/kernel/config/iosets/4/priority!
Priority = 0.024000 (240)
Will write 240 to the file (priority is 0.024000)
Now I'll create the log file
Now I'll wait for information from the predictor
I will launch the predictor on file /root/running_ior/4/8.jsonl
133.000000 1.000000
Priority = 0.010000 (100)
Will write 100 to the file (priority is 0.010000)
133.000000 1.000000
Priority = 0.010000 (100)
Will write 100 to the file (priority is 0.010000)
597.700000 1.000000
Priority = 0.001000 (10)
Will write 10 to the file (priority is 0.001000)
589.900000 1.000000
Priority = 0.001000 (10)
Will write 10 to the file (priority is 0.001000)
521.800000 1.000000
Priority = 0.001000 (10)
Will write 10 to the file (priority is 0.001000)
195.180000 0.845725
Priority = 0.010000 (100)
Will write 100 to the file (priority is 0.010000)
195.183333 1.000000
Priority = 0.010000 (100)
Will write 100 to the file (priority is 0.010000)
195.421429 1.000000
Priority = 0.010000 (100)
Will write 100 to the file (priority is 0.010000)
196.893750 1.000000
Priority = 0.010000 (100)
Will write 100 to the file (priority is 0.010000)
