I think I'm working for the application of IOSETS_JOB_ID = 13
I'll open/create the priority file /sys/kernel/config/iosets/13/priority!
Priority = 0.021300 (212)
Will write 212 to the file (priority is 0.021300)
Now I'll create the log file
Now I'll wait for information from the predictor
I will launch the predictor on file /root/running_ior/13/8.jsonl
112.700000 1.000000
Priority = 0.010000 (100)
Will write 100 to the file (priority is 0.010000)
840.300000 1.000000
Priority = 0.001000 (10)
Will write 10 to the file (priority is 0.001000)
627.100000 1.000000
Priority = 0.001000 (10)
Will write 10 to the file (priority is 0.001000)
405.925000 1.000000
Priority = 0.001000 (10)
Will write 10 to the file (priority is 0.001000)
401.560000 1.000000
Priority = 0.001000 (10)
Will write 10 to the file (priority is 0.001000)
398.850000 1.000000
Priority = 0.001000 (10)
Will write 10 to the file (priority is 0.001000)
399.585714 1.000000
Priority = 0.001000 (10)
Will write 10 to the file (priority is 0.001000)
