I think I'm working for the application of IOSETS_JOB_ID = 14
I'll open/create the priority file /sys/kernel/config/iosets/14/priority!
Priority = 0.021400 (214)
Now I'll create the log file
Now I'll wait for information from the predictor
I will launch the predictor on file /root/running_ior/14/8.jsonl
319.200000 1.000000
Priority = 0.001000 (10)
711.300000 1.000000
Priority = 0.001000 (10)
-1.000000 1.000000
Priority = 0.001000 (10)
-1.000000 1.000000
Priority = 0.001000 (10)
-1.000000 1.000000
Priority = 0.001000 (10)
-1.000000 1.000000
Priority = 0.001000 (10)
380.900000 1.000000
Priority = 0.001000 (10)
385.937500 1.000000
Priority = 0.001000 (10)
