I think I'm working for the application of IOSETS_JOB_ID = 13
I'll open/create the priority file /sys/kernel/config/iosets/13/priority!
Priority = 0.021300 (212)
Now I'll create the log file
Now I'll wait for information from the predictor
I will launch the predictor on file /root/running_ior/13/8.jsonl
142.050000 1.000000
Priority = 0.010000 (100)
142.050000 1.000000
Priority = 0.010000 (100)
691.800000 1.000000
Priority = 0.001000 (10)
100.363636 0.884780
Priority = 0.010000 (100)
99.000000 0.886118
Priority = 0.010000 (100)
98.642105 0.883731
Priority = 0.010000 (100)
98.908696 0.822687
Priority = 0.010000 (100)
-1.000000 0.822687
Priority = 0.010000 (100)
-1.000000 0.822687
Priority = 0.010000 (100)
