I think I'm working for the application of IOSETS_JOB_ID = 3
I'll open/create the priority file /sys/kernel/config/iosets/3/priority!
Priority = 0.023000 (230)
Now I'll create the log file
Now I'll wait for information from the predictor
I will launch the predictor on file /root/running_ior/3/8.jsonl
-1.000000 0.000000
Priority = 0.023000 (230)
524.700000 1.000000
Priority = 0.001000 (10)
472.200000 1.000000
Priority = 0.001000 (10)
448.200000 1.000000
Priority = 0.001000 (10)
437.350000 1.000000
Priority = 0.001000 (10)
429.260000 1.000000
Priority = 0.001000 (10)
426.916667 1.000000
Priority = 0.001000 (10)
425.185714 1.000000
Priority = 0.001000 (10)
425.237500 1.000000
Priority = 0.001000 (10)
