I think I'm working for the application of IOSETS_JOB_ID = 2
I'll open/create the priority file /sys/kernel/config/iosets/2/priority!
Priority = 0.022000 (220)
Now I'll create the log file
Now I'll wait for information from the predictor
I will launch the predictor on file /root/running_ior/2/8.jsonl
335.200000 1.000000
Priority = 0.001000 (10)
335.200000 1.000000
Priority = 0.001000 (10)
252.833333 1.000000
Priority = 0.010000 (100)
128.688889 1.000000
Priority = 0.010000 (100)
389.950000 1.000000
Priority = 0.001000 (10)
391.080000 1.000000
Priority = 0.001000 (10)
394.433333 1.000000
Priority = 0.001000 (10)
398.028571 1.000000
Priority = 0.001000 (10)
399.875000 1.000000
Priority = 0.001000 (10)
