Warning: I'll induce an error of 50 percent on all FTIO predictions
I think I'm working for the application of IOSETS_JOB_ID = 11
I'll open/create the priority file /sys/kernel/config/iosets/11/priority!
Priority = 0.021100 (211)
Now I'll create the log file
Now I'll wait for information from the predictor
I will launch the predictor on file /root/running_ior/11/8.jsonl
114.800000 1.000000
Priority = 0.010000 (100)
660.000000 1.000000
Priority = 0.001000 (10)
560.950000 1.000000
Priority = 0.001000 (10)
548.900000 1.000000
Priority = 0.001000 (10)
546.225000 1.000000
Priority = 0.001000 (10)
533.520000 1.000000
Priority = 0.010000 (100)
518.916667 1.000000
Priority = 0.010000 (100)
