Warning: I'll induce an error of 50 percent on all FTIO predictions
I think I'm working for the application of IOSETS_JOB_ID = 5
I'll open/create the priority file /sys/kernel/config/iosets/5/priority!
Priority = 0.025000 (250)
Now I'll create the log file
Now I'll wait for information from the predictor
I will launch the predictor on file /root/running_ior/5/8.jsonl
-1.000000 0.000000
Priority = 0.025000 (250)
511.400000 1.000000
Priority = 0.001000 (10)
531.800000 1.000000
Priority = 0.001000 (10)
517.433333 1.000000
Priority = 0.001000 (10)
502.300000 1.000000
Priority = 0.001000 (10)
487.560000 1.000000
Priority = 0.010000 (100)
480.183333 1.000000
Priority = 0.010000 (100)
471.200000 1.000000
Priority = 0.010000 (100)
