Warning: I'll induce an error of 50 percent on all FTIO predictions
I think I'm working for the application of IOSETS_JOB_ID = 9
I'll open/create the priority file /sys/kernel/config/iosets/9/priority!
Priority = 0.029000 (290)
Now I'll create the log file
Now I'll wait for information from the predictor
I will launch the predictor on file /root/running_ior/9/8.jsonl
152.450000 1.000000
Priority = 0.010000 (100)
152.450000 1.000000
Priority = 0.010000 (100)
868.300000 1.000000
Priority = 0.001000 (10)
247.100000 1.000000
Priority = 0.001000 (10)
-1.000000 1.000000
Priority = 0.001000 (10)
602.275000 1.000000
Priority = 0.010000 (100)
111.219231 0.944705
Priority = 0.010000 (100)
-1.000000 0.944705
Priority = 0.010000 (100)
