I think I'm working for the application of IOSETS_JOB_ID = 5
I'll open/create the priority file /sys/kernel/config/iosets/5/priority!
Priority = 0.025000 (250)
Now I'll create the log file
Now I'll wait for information from the predictor
I will launch the predictor on file /root/running_ior/5/8.jsonl
127.100000 1.000000
Priority = 0.010000 (100)
563.800000 1.000000
Priority = 0.001000 (10)
482.150000 1.000000
Priority = 0.001000 (10)
463.366667 1.000000
Priority = 0.001000 (10)
450.850000 1.000000
Priority = 0.001000 (10)
446.240000 1.000000
Priority = 0.001000 (10)
445.466667 1.000000
Priority = 0.001000 (10)
442.400000 1.000000
Priority = 0.001000 (10)
