I think I'm working for the application of IOSETS_JOB_ID = 6
I'll open/create the priority file /sys/kernel/config/iosets/6/priority!
Priority = 0.026000 (260)
Now I'll create the log file
Now I'll wait for information from the predictor
I will launch the predictor on file /root/running_ior/6/8.jsonl
136.300000 1.000000
Priority = 0.010000 (100)
594.200000 1.000000
Priority = 0.001000 (10)
498.800000 1.000000
Priority = 0.001000 (10)
473.633333 1.000000
Priority = 0.001000 (10)
460.875000 1.000000
Priority = 0.001000 (10)
-1.000000 1.000000
Priority = 0.001000 (10)
-1.000000 1.000000
Priority = 0.001000 (10)
-1.000000 1.000000
Priority = 0.001000 (10)
