I think I'm working for the application of IOSETS_JOB_ID = 16
I'll open/create the priority file /sys/kernel/config/iosets/16/priority!
Priority = 0.021600 (216)
Now I'll create the log file
Now I'll wait for information from the predictor
I will launch the predictor on file /root/running_ior/16/8.jsonl
299.100000 1.000000
Priority = 0.010000 (100)
519.750000 1.000000
Priority = 0.001000 (10)
824.600000 1.000000
Priority = 0.001000 (10)
-1.000000 1.000000
Priority = 0.001000 (10)
420.116667 1.000000
Priority = 0.001000 (10)
418.285714 1.000000
Priority = 0.001000 (10)
414.300000 1.000000
Priority = 0.001000 (10)
