app_id,start_exec,end_exec,start_io,end_io
0,0.007438182830810547,18.025642156600952,18.025662183761597,19.44378113746643
0,19.44378113746643,37.670756101608276,37.670775175094604,39.19212508201599
0,39.19212508201599,57.46614718437195,57.466166973114014,58.93614196777344
0,58.93614196777344,77.18190097808838,77.18192315101624,78.86414003372192
0,78.86414003372192,97.09044313430786,97.0904631614685,98.6841721534729
0,98.6841721534729,116.9265410900116,116.92656016349792,118.54431104660034
0,118.54431104660034,136.80193996429443,136.80195903778076,138.35622811317444
0,138.35622811317444,156.64774107933044,156.6477620601654,158.06430101394653
0,158.06430101394653,176.41310811042786,176.4131259918213,177.82833003997803
0,177.82833003997803,196.0986361503601,196.09865498542786,197.6242151260376
0,197.6242151260376,215.9135639667511,215.91359519958496,217.4922230243683
0,217.4922230243683,235.8379831314087,235.83800196647644,237.32019114494324
0,237.32019114494324,255.53601813316345,255.5360369682312,257.18415212631226
0,257.18415212631226,275.3709511756897,275.37096905708313,277.04819416999817
0,277.04819416999817,295.3779311180115,295.3779489994049,296.97618198394775
0,296.97618198394775,315.1818289756775,315.18184900283813,316.9482421875
0,316.9482421875,335.2174391746521,335.21745920181274,336.83235216140747
0,336.83235216140747,355.0501000881195,355.05011916160583,356.68046712875366
0,356.68046712875366,539.2638721466064,539.2638921737671,566.1600270271301
0,566.1600270271301,609.2404670715332,609.2404890060425,621.1485860347748
0,621.1485860347748,681.6682281494141,681.668249130249,708.660551071167
0,708.660551071167,726.9104859828949,726.9105069637299,728.2315649986267
0,728.2315649986267,746.474130153656,746.474151134491,748.1082031726837
0,748.1082031726837,766.4006161689758,766.4006350040436,768.1082100868225
0,768.1082100868225,786.3788089752197,786.3788290023804,787.9715621471405
0,787.9715621471405,806.2615749835968,806.2615950107574,807.9481739997864
0,807.9481739997864,826.2752451896667,826.2752640247345,827.9642241001129
0,827.9642241001129,846.278046131134,846.278069972992,847.9522161483765
0,847.9522161483765,866.2223861217499,866.2224040031433,876.1851360797882
0,876.1851360797882,906.8926501274109,906.8926711082458,930.5600140094757
0,930.5600140094757,962.2028880119324,962.202908039093,966.9883990287781
0,966.9883990287781,987.6323280334473,987.6323499679565,996.6961271762848
0,996.6961271762848,1025.9548590183258,1025.9549000263214,1030.1881701946259
0,1030.1881701946259,1070.9601860046387,1070.9602191448212,1112.8479981422424
0,1112.8479981422424,1196.9907381534576,1196.9907591342926,1209.3640930652618
0,1209.3640930652618,1229.3840780258179,1229.3841001987457,1234.5566880702972
0,1234.5566880702972,1254.992266178131,1254.992287158966,1259.4721541404724
0,1259.4721541404724,1282.1001861095428,1282.1002089977264,1290.4721450805664
0,1290.4721450805664,1311.056363105774,1311.0563831329346,1316.6778120994568
0,1316.6778120994568,1339.088049173355,1339.0880692005157,1350.0762841701508
0,1350.0762841701508,1371.148635149002,1371.148656129837,1376.544214963913
0,1376.544214963913,1397.83988904953,1397.8399109840393,1402.4600050449371
0,1402.4600050449371,1423.3057811260223,1423.305804014206,1430.1921830177307
0,1430.1921830177307,1448.7362229824066,1448.7362430095673,1452.872188091278
0,1452.872188091278,1471.2016670703888,1471.2016861438751,1478.4522151947021
0,1478.4522151947021,1496.6819641590118,1496.6819829940796,1498.264258146286
0,1498.264258146286,1516.5709900856018,1516.571012020111,1519.1281859874725
0,1519.1281859874725,1539.5999681949615,1539.5999891757965,1550.0561020374298
0,1550.0561020374298,1571.0048191547394,1571.0048410892487,1579.7700700759888
0,1579.7700700759888,1600.6000671386719,1600.6000881195068,1605.7753009796143
0,1605.7753009796143,1626.28395819664,1626.2839801311493,1630.5922021865845
0,1630.5922021865845,1651.623430967331,1651.6234521865845,1654.9321641921997
0,1654.9321641921997,1695.062667131424,1695.0626940727234,1702.927983045578
0,1702.927983045578,1736.344684123993,1736.3447070121765,1754.3119630813599
0,1754.3119630813599,1801.2529771327972,1801.2529971599579,1815.661369085312
0,1815.661369085312,1884.4718651771545,1884.4718849658966,1891.520178079605
0,1891.520178079605,1917.6001579761505,1917.6001811027527,1932.4801921844482
0,1932.4801921844482,1963.8761751651764,1963.876195192337,1978.1455581188202
0,1978.1455581188202,1999.6880559921265,1999.6880769729614,2025.8841149806976
0,2025.8841149806976,2044.1272540092468,2044.1272740364075,2054.04417014122
0,2054.04417014122,2075.9164860248566,2075.9165091514587,2084.316040992737
0,2084.316040992737,2107.82052898407,2107.820549964905,2121.936026096344
0,2121.936026096344,2144.3000111579895,2144.30003118515,2155.2841420173645
0,2155.2841420173645,2176.292282104492,2176.292303085327,2181.920112133026
0,2181.920112133026,2204.60009098053,2204.6001110076904,2215.4320120811462
0,2215.4320120811462,2259.097113132477,2259.097135066986,2260.8842639923096
0,2260.8842639923096,2281.9319610595703,2281.9319829940796,2287.3240320682526
0,2287.3240320682526,2317.5995950698853,2317.59961605072,2328.0457379817963
0,2328.0457379817963,2350.7280371189117,2350.728059053421,2365.328096151352
0,2365.328096151352,2387.052290201187,2387.052311182022,2393.7720160484314
0,2393.7720160484314,2435.051973104477,2435.051994085312,2447.2239739894867
0,2447.2239739894867,2496.868326187134,2496.8683450222015,2506.5920131206512
0,2506.5920131206512,2530.356503009796,2530.356523990631,2539.5245130062103
0,2539.5245130062103,2562.2092361450195,2562.2092571258545,2568.552076101303
0,2568.552076101303,2589.952929019928,2589.9529531002045,2601.9401140213013
0,2601.9401140213013,2631.4124360084534,2631.412458181381,2641.4201900959015
0,2641.4201900959015,2662.5925631523132,2662.592584133148,2668.0400080680847
0,2668.0400080680847,2695.09313416481,2695.093155145645,2702.572197198868
0,2702.572197198868,2724.8764271736145,2724.876447200775,2732.8120260238647
0,2732.8120260238647,2772.7604310512543,2772.7604529857635,2779.404055118561
0,2779.404055118561,2800.3807430267334,2800.3807780742645,2812.0801730155945
0,2812.0801730155945,2834.597321033478,2834.59734416008,2866.0320739746094
0,2866.0320739746094,2889.336177110672,2889.3361971378326,2895.535979986191
0,2895.535979986191,2931.4397900104523,2931.4398109912872,2938.856199026108
0,2938.856199026108,2962.3043460845947,2962.3043670654297,2975.772027015686
0,2975.772027015686,3001.1322700977325,3001.1322960853577,3010.203975200653
0,3010.203975200653,3047.1640391349792,3047.164060115814,3054.0360481739044
0,3054.0360481739044,3097.631692171097,3097.6317150592804,3102.8760771751404
0,3102.8760771751404,3143.1532759666443,3143.1532990932465,3162.560203075409
0,3162.560203075409,3209.538863182068,3209.538885116577,3226.5281751155853
0,3226.5281751155853,3268.6601881980896,3268.6602091789246,3281.5920321941376
0,3281.5920321941376,3322.3938801288605,3322.393903017044,3332.0752601623535
0,3332.0752601623535,3355.1765711307526,3355.1765921115875,3363.4560110569
0,3363.4560110569,3385.076075077057,3385.0760979652405,3392.8241550922394
0,3392.8241550922394,3415.052409172058,3415.052430152893,3422.1159830093384
0,3422.1159830093384,3447.6162691116333,3447.616291999817,3454.7040209770203
0,3454.7040209770203,3489.140599966049,3489.140622138977,3520.504198074341
0,3520.504198074341,3544.1482281684875,3544.1482491493225,3554.791990995407
0,3554.791990995407,3579.055746078491,3579.055766105652,3597.8286411762238
0,3597.8286411762238,3618.908415079117,3618.908436059952,3628.3600261211395
0,3628.3600261211395,3660.648298025131,3660.6483211517334,3669.0521960258484
0,3669.0521960258484,3691.1847081184387,3691.184730052948,3703.2243530750275
0,3703.2243530750275,3725.328356027603,3725.3283829689026,3731.7160301208496
0,3731.7160301208496,3757.796271085739,3757.796292066574,3770.13094997406
10,1.5071849822998047,510.3800570964813,510.3800780773163,717.7919001579285
10,717.7919001579285,1177.5925250053406,1177.5925481319427,1256.264948129654
10,1256.264948129654,1620.0442321300507,1620.0442531108856,1767.5345289707184
10,1767.5345289707184,2130.202069044113,2130.202090024948,2260.8663280010223
10,2260.8663280010223,2637.8715829849243,2637.8716039657593,2748.3572630882263
10,2748.3572630882263,3111.644040107727,3111.6440629959106,3209.8488759994507
10,3209.8488759994507,3599.844011068344,3599.8440310955048,3710.990560054779
11,0.3788321018218994,360.732784986496,360.73280811309814,499.8645009994507
11,499.8645009994507,907.4322052001953,907.4322321414948,967.0046820640564
11,967.0046820640564,1327.5480360984802,1327.5480570793152,1395.522078037262
11,1395.522078037262,1795.6720361709595,1795.6720581054688,1886.7697491645813
11,1886.7697491645813,2260.3504450321198,2260.350468158722,2329.974107980728
11,2329.974107980728,2732.8284339904785,2732.8284730911255,2860.328245162964
11,2860.328245162964,3225.462774991989,3225.4628109931946,3283.111051082611
12,1.3351919651031494,464.5872530937195,464.58727407455444,688.4063329696655
12,688.4063329696655,1072.3879661560059,1072.3879899978638,1196.879268169403
12,1196.879268169403,1565.7121231555939,1565.7121469974518,1701.835993051529
12,1701.835993051529,2062.071954011917,2062.071976184845,2132.069149017334
12,2132.069149017334,2505.932186126709,2505.9322080612183,2868.501706123352
13,1.3268110752105713,418.9326331615448,418.93265104293823,650.2527151107788
13,650.2527151107788,1025.6372020244598,1025.6372210979462,1196.8818361759186
13,1196.8818361759186,1565.7762551307678,1565.7762761116028,1870.7771100997925
13,1870.7771100997925,2253.4062480926514,2253.4062690734863,2423.3811151981354
13,2423.3811151981354,2788.012046098709,2788.0120680332184,2939.1738381385803
13,2939.1738381385803,3322.213381052017,3322.2134029865265,3393.2544391155243
14,1.2752361297607422,411.87985610961914,411.8798770904541,648.6519660949707
14,648.6519660949707,1008.8183641433716,1008.818382024765,1057.0148901939392
14,1057.0148901939392,1422.7710890769958,1422.7711110115051,1484.275446176529
14,1484.275446176529,1884.4586131572723,1884.4586341381073,1941.2460281848907
14,1941.2460281848907,2377.832034111023,2377.832056045532,3071.353940010071
14,3071.353940010071,3434.968430042267,3434.968453168869,3523.347067117691
15,1.4308459758758545,421.6565821170807,421.6565999984741,669.0123851299286
15,669.0123851299286,1034.7191350460052,1034.7191591262817,1175.2034130096436
15,1175.2034130096436,1535.4338510036469,1535.4338750839233,2031.5495920181274
15,2031.5495920181274,2402.6658120155334,2402.6658341884613,2481.2782850265503
15,2481.2782850265503,2937.606453180313,2937.6064760684967,3227.6728410720825
1,0.0,360.0321931838989,360.032212972641,491.576208114624
1,491.576208114624,883.5406060218811,883.540628194809,937.0664551258087
1,937.0664551258087,1299.572597026825,1299.5726191997528,1361.3708090782166
1,1361.3708090782166,1740.2641801834106,1740.26420211792,1815.7492380142212
1,1815.7492380142212,2181.8873159885406,2181.8873419761658,2260.901724100113
1,2260.901724100113,2637.9209911823273,2637.9210121631622,2703.3262991905212
1,2703.3262991905212,3077.428465127945,3077.42848610878,3143.5253450870514
1,3143.5253450870514,3520.3203451633453,3520.3203661441803,3598.7493481636047
2,0.007573127746582031,360.1996750831604,360.1996991634369,487.9935541152954
2,487.9935541152954,848.5800840854645,848.5801041126251,879.8915691375732
2,879.8915691375732,1243.9600901603699,1243.9601120948792,1300.8751621246338
2,1300.8751621246338,1663.860002040863,1663.8600239753723,1734.1654481887817
2,1734.1654481887817,2094.609701156616,2094.609722137451,2164.7948360443115
2,2164.7948360443115,2536.11567902565,2536.1157071590424,2604.0360991954803
2,2604.0360991954803,2973.883059024811,2973.8830831050873,3047.775057077408
2,3047.775057077408,3410.9963471889496,3410.996369123459,3517.9884390830994
3,0.001873016357421875,360.05380296707153,360.05382204055786,489.4883539676666
3,489.4883539676666,874.0412681102753,874.041296005249,909.2984399795532
3,909.2984399795532,1269.4698190689087,1269.469838142395,1333.2583739757538
3,1333.2583739757538,1711.0879590511322,1711.0879800319672,1796.0244371891022
3,1796.0244371891022,2157.0526111125946,2157.052633047104,2221.2974421977997
3,2221.2974421977997,2584.409826040268,2584.40984916687,2650.9723081588745
3,2650.9723081588745,3017.6840150356293,3017.6840369701385,3098.237317085266
3,3098.237317085266,3464.536451101303,3464.536484003067,3599.726114988327
4,1.40323805809021,460.19229197502136,460.1923100948334,717.7359080314636
4,717.7359080314636,1174.843677997589,1174.8436980247498,1271.0693311691284
4,1271.0693311691284,1635.8900411128998,1635.8900611400604,1695.3759570121765
4,1695.3759570121765,2055.525778055191,2055.5257980823517,2102.3180119991302
4,2102.3180119991302,2467.4222960472107,2467.4223170280457,2546.477238178253
4,2546.477238178253,2930.1111509799957,2930.1111721992493,2999.490497112274
4,2999.490497112274,3370.648907184601,3370.64892911911,3444.5738451480865
5,1.4791991710662842,476.407977104187,476.40799713134766,688.6001431941986
5,688.6001431941986,1076.2559201717377,1076.2559440135956,1157.6922430992126
5,1157.6922430992126,1534.7621929645538,1534.7622141838074,1581.7050850391388
5,1581.7050850391388,1959.7105829715729,1959.7106380462646,2031.474596977234
5,2031.474596977234,2403.3249640464783,2403.3249881267548,2499.637263059616
5,2499.637263059616,2866.5744841098785,2866.5745100975037,2937.5201539993286
5,2937.5201539993286,3322.1898901462555,3322.1899161338806,3465.2329411506653
6,0.78285813331604,377.81618905067444,377.8162200450897,579.6104211807251
6,579.6104211807251,939.9598031044006,939.9598231315613,997.4440941810608
6,997.4440941810608,1359.3986749649048,1359.3987011909485,1430.1913170814514
6,1430.1913170814514,1815.7281739711761,1815.7281951904297,1892.27308511734
6,1892.27308511734,2260.678938150406,2260.678960084915,2325.614193201065
6,2325.614193201065,2692.692368030548,2692.6923899650574,2766.730038166046
6,2766.730038166046,3144.1327850818634,3144.1328270435333,3226.7001080513
6,3226.7001080513,3595.1312131881714,3595.131236076355,3668.530569076538
7,0.9868249893188477,398.94799399375916,398.9480149745941,620.9655821323395
7,620.9655821323395,981.2182731628418,981.2182919979095,1026.575266122818
7,1026.575266122818,1387.456097126007,1387.4561240673065,1452.614187002182
7,1452.614187002182,1871.168930053711,1871.168951034546,1960.6766080856323
7,1960.6766080856323,2325.7387120723724,2325.7387351989746,2376.398506164551
7,2376.398506164551,2744.269249200821,2744.26927113533,2814.4675149917603
7,2814.4675149917603,3209.5869851112366,3209.587007045746,3332.9822211265564
7,3332.9822211265564,3703.2800471782684,3703.2800760269165,3784.4732961654663
8,1.4472031593322754,509.73578119277954,509.735817193985,717.7221200466156
8,717.7221200466156,1175.5181629657745,1175.5181879997253,1225.2929470539093
8,1225.2929470539093,1587.9125301837921,1587.9125499725342,1652.7798609733582
8,1652.7798609733582,2025.8276221752167,2025.827649116516,2064.5597620010376
8,2064.5597620010376,2439.5124900341034,2439.5125110149384,2579.664980173111
8,2579.664980173111,2947.8846650123596,2947.8846871852875,3063.8486621379852
8,3063.8486621379852,3428.056687116623,3428.056709051132,3672.3484330177307
9,1.4072141647338867,454.6158661842346,454.61588501930237,680.795713186264
9,680.795713186264,1061.396448135376,1061.396471977234,1156.2880580425262
9,1156.2880580425262,1516.4817061424255,1516.4817261695862,1550.5499901771545
9,1550.5499901771545,1919.6282060146332,1919.628228187561,1991.8261620998383
9,1991.8261620998383,2360.3201999664307,2360.320223093033,2427.7700111865997
9,2427.7700111865997,2794.583314180374,2794.583335161209,2870.6343631744385
9,2870.6343631744385,3237.456248998642,3237.456269979477,3332.257311105728
