app_id,start_exec,end_exec,start_io,end_io
0,0.08360505104064941,18.09518599510193,18.09520697593689,19.530713081359863
0,19.530713081359863,37.765998125076294,37.766010999679565,39.082468032836914
0,39.082468032836914,57.3428521156311,57.34286713600159,58.666447162628174
0,58.666447162628174,76.892657995224,76.89267206192017,78.24914813041687
0,78.24914813041687,96.50563597679138,96.5056471824646,97.97111201286316
0,97.97111201286316,116.16617107391357,116.16618204116821,117.49049711227417
0,117.49049711227417,135.70032811164856,135.7003390789032,137.10247206687927
0,137.10247206687927,155.31868815422058,155.3187131881714,156.69053101539612
0,156.69053101539612,174.93508195877075,174.93509316444397,176.30254411697388
0,176.30254411697388,194.58579111099243,194.5858030319214,196.010516166687
0,196.010516166687,214.2318069934845,214.23181700706482,215.7224941253662
0,215.7224941253662,233.97228503227234,233.97229504585266,235.43851709365845
0,235.43851709365845,253.76781797409058,253.7678279876709,255.1773281097412
0,255.1773281097412,273.40010809898376,273.4001200199127,274.79051518440247
0,274.79051518440247,292.9637131690979,292.9637231826782,294.3225841522217
0,294.3225841522217,312.6004271507263,312.60043811798096,313.93051314353943
0,313.93051314353943,332.1882801055908,332.18829011917114,333.53464913368225
0,333.53464913368225,351.756236076355,351.7562470436096,353.27051305770874
0,353.27051305770874,373.6275951862335,373.62762212753296,380.610552072525
0,380.610552072525,401.3019971847534,401.30201601982117,410.9585471153259
0,410.9585471153259,431.29072403907776,431.29074215888977,435.01652908325195
0,435.01652908325195,455.37132596969604,455.3713471889496,461.4808189868927
0,461.4808189868927,482.1154091358185,482.1154341697693,486.81860399246216
0,486.81860399246216,507.42342615127563,507.42344999313354,514.0306601524353
0,514.0306601524353,533.7911059856415,533.7911291122437,537.3704931735992
0,537.3704931735992,557.6189870834351,557.6190071105957,561.4265270233154
0,561.4265270233154,582.7706120014191,582.7706341743469,588.1025171279907
0,588.1025171279907,608.5951859951019,608.5952081680298,613.170389175415
0,613.170389175415,633.4712209701538,633.471244096756,637.7945501804352
0,637.7945501804352,659.0394370555878,659.0394611358643,664.9984731674194
0,664.9984731674194,685.5356080532074,685.5356290340424,693.9944710731506
0,693.9944710731506,712.387736082077,712.3877551555634,716.6584520339966
0,716.6584520339966,734.8724451065063,734.8724579811096,741.3585200309753
0,741.3585200309753,759.541118144989,759.5411291122437,760.7985191345215
0,760.7985191345215,781.7556521892548,781.7556669712067,789.6184720993042
0,789.6184720993042,810.8282380104065,810.8282580375671,817.6344931125641
0,817.6344931125641,838.3645851612091,838.3646039962769,847.6944589614868
0,847.6944589614868,868.5601141452789,868.5601351261139,876.9676241874695
0,876.9676241874695,899.3081011772156,899.3081240653992,905.7744791507721
0,905.7744791507721,926.8010611534119,926.8010830879211,931.8224489688873
0,931.8224489688873,952.4718811511993,952.4719030857086,958.6944651603699
0,958.6944651603699,979.2959830760956,979.2960031032562,985.4303569793701
0,985.4303569793701,1006.4220910072327,1006.422110080719,1012.1344201564789
0,1012.1344201564789,1033.2304780483246,1033.2304999828339,1038.7145380973816
0,1038.7145380973816,1059.2326200008392,1059.2326409816742,1064.3344571590424
0,1064.3344571590424,1085.1039810180664,1085.1040029525757,1091.9945969581604
0,1091.9945969581604,1111.380989074707,1111.3810110092163,1117.2826421260834
0,1117.2826421260834,1138.0369210243225,1138.0369410514832,1144.5413920879364
0,1144.5413920879364,1165.2086119651794,1165.2086291313171,1172.0784630775452
0,1172.0784630775452,1192.156238079071,1192.1562530994415,1199.7824931144714
0,1199.7824931144714,1220.6285650730133,1220.6285791397095,1228.8665089607239
0,1228.8665089607239,1249.4931139945984,1249.4931290149689,1257.3664531707764
0,1257.3664531707764,1278.6007380485535,1278.6007561683655,1286.7544400691986
0,1286.7544400691986,1307.8253769874573,1307.825392961502,1315.77446103096
0,1315.77446103096,1336.8610670566559,1336.861083984375,1345.1864471435547
0,1345.1864471435547,1366.2765381336212,1366.2765610218048,1373.9828310012817
0,1373.9828310012817,1394.88494515419,1394.8849639892578,1402.4304950237274
0,1402.4304950237274,1423.9408240318298,1423.9408431053162,1430.6304841041565
0,1430.6304841041565,1450.7886490821838,1450.7886710166931,1457.8065240383148
0,1457.8065240383148,1478.4487459659576,1478.4487690925598,1486.7463891506195
0,1486.7463891506195,1508.4470431804657,1508.4470670223236,1513.9148170948029
0,1513.9148170948029,1537.2370870113373,1537.2371129989624,1541.4224500656128
0,1541.4224500656128,1564.6085200309753,1564.6085410118103,1568.774491071701
0,1568.774491071701,1590.9654431343079,1590.9654650688171,1596.9664499759674
0,1596.9664499759674,1617.933072090149,1617.933086156845,1623.8984789848328
0,1623.8984789848328,1644.725800037384,1644.7258191108704,1651.9904510974884
0,1651.9904510974884,1672.9612550735474,1672.9612720012665,1678.94251704216
0,1678.94251704216,1698.6175940036774,1698.6176261901855,1706.062373161316
0,1706.062373161316,1726.4854831695557,1726.4855029582977,1734.2144801616669
0,1734.2144801616669,1755.3500430583954,1755.350063085556,1763.4064481258392
0,1763.4064481258392,1784.3693640232086,1784.369383096695,1791.70650100708
0,1791.70650100708,1811.165009021759,1811.165027141571,1819.0824551582336
0,1819.0824551582336,1839.5411920547485,1839.5412111282349,1848.8244111537933
0,1848.8244111537933,1869.4748380184174,1869.474858045578,1878.3185470104218
0,1878.3185470104218,1899.1696569919586,1899.1696779727936,1908.5224480628967
0,1908.5224480628967,1929.4454860687256,1929.445505142212,1938.0384211540222
0,1938.0384211540222,1959.0941851139069,1959.0942070484161,1966.2265131473541
0,1966.2265131473541,1987.5736451148987,1987.5736610889435,1996.7706141471863
0,1996.7706141471863,2017.0500609874725,2017.0500831604004,2022.430498123169
0,2022.430498123169,2043.8260970115662,2043.8261270523071,2048.1745281219482
0,2048.1745281219482,2070.9539890289307,2070.9540071487427,2075.083002090454
0,2075.083002090454,2095.862347126007,2095.862365961075,2103.964476108551
0,2103.964476108551,2125.84663105011,2125.846652984619,2133.238517999649
0,2133.238517999649,2155.2985141277313,2155.2985360622406,2162.114438056946
0,2162.114438056946,2185.0099840164185,2185.0100071430206,2192.2344241142273
0,2192.2344241142273,2215.030205965042,2215.0302290916443,2221.158455133438
0,2221.158455133438,2243.411698102951,2243.4117181301117,2250.6304659843445
0,2250.6304659843445,2271.459547996521,2271.4595670700073,2278.3044550418854
0,2278.3044550418854,2299.1466431617737,2299.1466660499573,2306.842451095581
0,2306.842451095581,2327.550495147705,2327.550518989563,2335.643862962723
0,2335.643862962723,2357.3112120628357,2357.311233997345,2365.7744851112366
0,2365.7744851112366,2386.5804240703583,2386.5804460048676,2393.054470062256
0,2393.054470062256,2414.1228790283203,2414.1228959560394,2422.7985241413116
0,2422.7985241413116,2443.2829179763794,2443.2829320430756,2453.438635110855
0,2453.438635110855,2474.479117155075,2474.4791321754456,2483.3824541568756
0,2483.3824541568756,2503.7151231765747,2503.7151370048523,2514.2104630470276
0,2514.2104630470276,2535.2070100307465,2535.207029104233,2546.1464309692383
0,2546.1464309692383,2567.442775964737,2567.442790031433,2577.3704011440277
0,2577.3704011440277,2598.4471201896667,2598.4471340179443,2606.182461977005
0,2606.182461977005,2627.2154290676117,2627.215443134308,2635.2865500450134
0,2635.2865500450134,2656.144865989685,2656.144884109497,2663.156788110733
0,2663.156788110733,2686.207174062729,2686.20721411705,2697.470607995987
0,2697.470607995987,2719.7794370651245,2719.7794580459595,2727.597212076187
0,2727.597212076187,2749.307729959488,2749.3077521324158,2757.813127040863
0,2757.813127040863,2779.167174100876,2779.1671900749207,2792.154486179352
0,2792.154486179352,2813.479781150818,2813.479803085327,2824.042479991913
0,2824.042479991913,2844.55947804451,2844.559501171112,2850.0223591327667
0,2850.0223591327667,2870.936305999756,2870.9363300800323,2874.8848581314087
0,2874.8848581314087,2897.0475301742554,2897.047553062439,2904.750512123108
0,2904.750512123108,2926.455950021744,2926.4559700489044,2936.554496049881
0,2936.554496049881,2957.7879631519318,2957.7879831790924,2967.1864919662476
0,2967.1864919662476,2988.5003061294556,2988.500329017639,2998.028827190399
0,2998.028827190399,3020.035935163498,3020.035956144333,3031.750391960144
0,3031.750391960144,3053.3327021598816,3053.332724094391,3063.9945859909058
0,3063.9945859909058,3084.735911130905,3084.735929965973,3094.6624100208282
0,3094.6624100208282,3115.400043964386,3115.4000639915466,3126.1865491867065
0,3126.1865491867065,3147.239850997925,3147.239878177643,3157.2418880462646
0,3157.2418880462646,3178.8972070217133,3178.8972301483154,3188.698454141617
0,3188.698454141617,3210.0289211273193,3210.0289421081543,3218.998526096344
0,3218.998526096344,3241.084617137909,3241.084650039673,3251.0424621105194
0,3251.0424621105194,3280.0068261623383,3280.0068509578705,3295.154531955719
0,3295.154531955719,3316.3774950504303,3316.3775169849396,3326.29048204422
0,3326.29048204422,3350.052572965622,3350.0525929927826,3360.4985060691833
0,3360.4985060691833,3382.6205730438232,3382.620594024658,3395.46648812294
0,3395.46648812294,3416.8006689548492,3416.800691127777,3425.6250030994415
0,3425.6250030994415,3448.277419090271,3448.2774419784546,3456.6024491786957
0,3456.6024491786957,3478.6005470752716,3478.6005771160126,3491.954486131668
0,3491.954486131668,3512.54541015625,3512.5454301834106,3521.2024550437927
0,3521.2024550437927,3543.617094039917,3543.6171131134033,3554.5744099617004
0,3554.5744099617004,3575.377228975296,3575.377247095108,3585.730544090271
0,3585.730544090271,3607.8094420433044,3607.8094651699066,3618.65528011322
0,3618.65528011322,3639.621649980545,3639.6216690540314,3651.7170300483704
0,3651.7170300483704,3673.1892681121826,3673.189285993576,3683.2824201583862
0,3683.2824201583862,3706.917167186737,3706.917186975479,3717.545809984207
0,3717.545809984207,3741.0091831684113,3741.009202003479,3755.9024550914764
0,3755.9024550914764,3777.721081018448,3777.7211060523987,3792.5064730644226
10,1.2011849880218506,514.2350921630859,514.2351109981537,613.146301984787
10,613.146301984787,984.9039640426636,984.9039840698242,1038.9125871658325
10,1038.9125871658325,1402.2920050621033,1402.292025089264,1458.7853591442108
10,1458.7853591442108,1818.978059053421,1818.9780759811401,1881.3930411338806
10,1881.3930411338806,2249.5199019908905,2249.5199201107025,2307.163099050522
10,2307.163099050522,2667.3749771118164,2667.37499499321,2734.1764121055603
10,2734.1764121055603,3096.14009809494,3096.1401150226593,3159.1606810092926
10,3159.1606810092926,3524.8391580581665,3524.8391721248627,3594.3007311820984
11,1.165356159210205,514.4072439670563,514.4072661399841,637.7543950080872
11,637.7543950080872,1011.939924955368,1011.9399440288544,1065.4805121421814
11,1065.4805121421814,1429.8090620040894,1429.8090810775757,1487.3405439853668
11,1487.3405439853668,1848.7690541744232,1848.7690751552582,1911.032935142517
11,1911.032935142517,2276.6038041114807,2276.6038250923157,2336.5686321258545
11,2336.5686321258545,2697.5669181346893,2697.5669350624084,2769.272078037262
11,2769.272078037262,3133.299793958664,3133.2998151779175,3193.745427131653
11,3193.745427131653,3556.4741530418396,3556.4741690158844,3625.263792991638
12,0.43904995918273926,361.7644271850586,361.7644510269165,665.0011870861053
12,665.0011870861053,1038.4038441181183,1038.4038650989532,1092.1445360183716
12,1092.1445360183716,1456.3521401882172,1456.3521699905396,1514.1882209777832
12,1514.1882209777832,1876.2214181423187,1876.2214381694794,1938.6968150138855
12,1938.6968150138855,2305.782392978668,2305.782413005829,2366.071676969528
12,2366.071676969528,2728.511593103409,2728.511619091034,2796.885462999344
12,2796.885462999344,3158.4100811481476,3158.4101021289825,3224.9701249599457
12,3224.9701249599457,3589.2890181541443,3589.2890350818634,3657.3046791553497
13,1.285520076751709,637.4892501831055,637.4892721176147,694.3766951560974
13,694.3766951560974,1064.2112460136414,1064.2112641334534,1117.944442987442
13,1117.944442987442,1485.1503970623016,1485.1504180431366,1541.5094640254974
13,1541.5094640254974,1906.3192851543427,1906.3193061351776,1967.0644669532776
13,1967.0644669532776,2333.845946073532,2333.8459680080414,2394.282562017441
13,2394.282562017441,2757.8763411045074,2757.876356124878,2827.4636249542236
13,2827.4636249542236,3189.7102451324463,3189.7102601528168,3259.402901172638
13,3259.402901172638,3620.8933351039886,3620.893350124359,3690.017292022705
14,1.1771910190582275,637.5562641620636,637.556282043457,717.117429971695
14,717.117429971695,1090.4320549964905,1090.4320771694183,1144.756247997284
14,1144.756247997284,1512.9174330234528,1512.9174511432648,1568.8771710395813
14,1568.8771710395813,1937.9247341156006,1937.924753189087,1997.4691951274872
14,1997.4691951274872,2364.4549469947815,2364.4549691677094,2425.432676076889
14,2425.432676076889,2795.0393731594086,2795.0393900871277,2909.8916730880737
15,1.2171950340270996,637.5563969612122,637.556410074234,742.817183971405
15,742.817183971405,1117.242171049118,1117.2421910762787,1172.5691311359406
15,1172.5691311359406,1538.3177590370178,1538.3177781105042,1603.7797989845276
15,1603.7797989845276,1983.2808420658112,1983.2808570861816,2252.8393671512604
15,2252.8393671512604,2615.46288895607,2615.4629039764404,3289.4040880203247
1,0.0,360.0126121044159,360.01262617111206,407.2646040916443
1,407.2646040916443,767.2952079772949,767.2952210903168,796.1699650287628
1,796.1699650287628,1156.3560299873352,1156.35604596138,1200.129322052002
1,1200.129322052002,1565.5528450012207,1565.552864074707,1624.0968680381775
1,1624.0968680381775,1986.833760023117,1986.8337750434875,2036.3168060779572
1,2036.3168060779572,2396.5408840179443,2396.540896177292,2454.7548220157623
1,2454.7548220157623,2822.0105850696564,2822.0106070041656,2872.5069410800934
1,2872.5069410800934,3237.3482761383057,3237.3482949733734,3301.43288397789
1,3301.43288397789,3667.1973371505737,3667.197355031967,3727.004462957382
2,0.07642316818237305,360.1476490497589,360.14766812324524,411.7709891796112
2,411.7709891796112,771.8512251377106,771.851240158081,824.108962059021
2,824.108962059021,1184.3369400501251,1184.3369550704956,1229.0518131256104
2,1229.0518131256104,1593.825098991394,1593.8251221179962,1652.333086013794
2,1652.333086013794,2014.3256130218506,2014.3256361484528,2075.2818551063538
2,2075.2818551063538,2435.4837880134583,2435.48380112648,2486.2661390304565
2,2486.2661390304565,2851.6113719940186,2851.611392021179,2913.824622154236
2,2913.824622154236,3289.248875141144,3289.2488930225372,3333.49054312706
2,3333.49054312706,3696.6171650886536,3696.61718416214,3760.8173201084137
3,0.07928609848022461,361.00888109207153,361.00890707969666,435.0107510089874
3,435.0107510089874,795.2726230621338,795.2726390361786,851.5952570438385
3,851.5952570438385,1211.809070110321,1211.8090829849243,1257.6859440803528
3,1257.6859440803528,1623.1613430976868,1623.1613600254059,1679.361032962799
3,1679.361032962799,2040.1619889736176,2040.1620061397552,2104.6680731773376
3,2104.6680731773376,2464.836855173111,2464.8368690013885,2515.330085992813
3,2515.330085992813,2878.43563914299,2878.435655117035,2944.364701986313
3,2944.364701986313,3310.4763519763947,3310.476371049881,3370.985134124756
3,3370.985134124756,3735.549331188202,3735.549350976944,3796.411108016968
4,0.09582304954528809,361.3510980606079,361.3511221408844,461.68917202949524
4,461.68917202949524,822.8635790348053,822.8635931015015,878.6648271083832
4,878.6648271083832,1238.84042096138,1238.8404350280762,1287.1606121063232
4,1287.1606121063232,1651.909106016159,1651.9091250896454,1706.8245661258698
4,1706.8245661258698,2072.0929000377655,2072.0929210186005,2133.6877360343933
4,2133.6877360343933,2493.9074261188507,2493.9074490070343,2546.5405900478363
4,2546.5405900478363,2908.6850650310516,2908.6850819587708,2975.392599105835
4,2975.392599105835,3338.328248023987,3338.328269958496,3401.3733179569244
5,0.1002659797668457,361.67674708366394,361.6767680644989,486.92121505737305
5,486.92121505737305,847.6655969619751,847.6656241416931,906.2321710586548
5,906.2321710586548,1266.4284961223602,1266.4285089969635,1316.513789176941
5,1316.513789176941,1678.4979581832886,1678.497976064682,1736.336730003357
5,1736.336730003357,2102.787847995758,2102.7878670692444,2162.238680124283
5,2162.238680124283,2522.421317100525,2522.421331167221,2574.3698410987854
5,2574.3698410987854,2938.54859995842,2938.548618078232,3007.8111531734467
5,3007.8111531734467,3370.3006451129913,3370.3006629943848,3432.8572771549225
6,0.09774613380432129,361.2675051689148,361.2675290107727,512.5877230167389
6,512.5877230167389,876.9356241226196,876.9356551170349,932.1223690509796
6,932.1223690509796,1292.3117740154266,1292.3117880821228,1345.8616490364075
6,1345.8616490364075,1706.108479976654,1706.1084940433502,1764.2432851791382
6,1764.2432851791382,2132.2269489765167,2132.2269711494446,2192.244507074356
6,2192.244507074356,2552.464380979538,2552.46439409256,2605.2753641605377
6,2605.2753641605377,2975.227671146393,2975.227692127228,3038.236946105957
6,3038.236946105957,3400.383157014847,3400.383176088333,3464.6373841762543
7,1.1692559719085693,461.7010750770569,461.7011351585388,535.7777180671692
7,535.7777180671692,903.7305610179901,903.7305829524994,959.5921030044556
7,959.5921030044556,1319.731451034546,1319.7314660549164,1374.6176381111145
7,1374.6176381111145,1734.7763180732727,1734.7763321399689,1792.8903331756592
7,1792.8903331756592,2160.6986181735992,2160.698641061783,2221.063941001892
7,2221.063941001892,2581.244600057602,2581.244613170624,2636.255928039551
7,2636.255928039551,2998.1593630313873,2998.159378051758,3068.6129660606384
7,3068.6129660606384,3431.268615961075,3431.2686331272125,3496.2568440437317
8,0.3706200122833252,361.7004020214081,361.7004179954529,561.4764239788055
8,561.4764239788055,931.5040111541748,931.5040440559387,985.711755990982
8,985.711755990982,1345.943992137909,1345.9440059661865,1404.7211019992828
8,1404.7211019992828,1764.915675163269,1764.9156901836395,1821.320914030075
8,1821.320914030075,2190.6439051628113,2190.6439261436462,2250.1684980392456
8,2250.1684980392456,2610.3377730846405,2610.337788105011,2668.735118150711
8,2668.735118150711,3032.0121359825134,3032.0121541023254,3098.389878988266
8,3098.389878988266,3460.428759098053,3460.428775072098,3527.3403890132904
9,1.3091790676116943,513.9274311065674,513.9274561405182,588.6169950962067
9,588.6169950962067,957.7851951122284,957.7852129936218,1012.6200079917908
9,1012.6200079917908,1373.169459104538,1373.1694781780243,1430.8283460140228
9,1430.8283460140228,1791.6063740253448,1791.6063921451569,1850.7257430553436
9,1850.7257430553436,2216.5983731746674,2216.598392009735,2279.033898115158
9,2279.033898115158,2641.911383152008,2641.9114031791687,2704.9284839630127
9,2704.9284839630127,3066.311688184738,3066.3117020130157,3128.0487179756165
9,3128.0487179756165,3492.6444380283356,3492.644458055496,3560.5444951057434
