app_id,start_exec,end_exec,start_io,end_io
0,1.1541180610656738,19.3245689868927,19.324590921401978,20.93962788581848
0,20.93962788581848,39.14477896690369,39.14479994773865,40.91900110244751
0,40.91900110244751,59.181758880615234,59.18177890777588,60.85504603385925
0,60.85504603385925,79.08083200454712,79.08085298538208,80.6872169971466
0,80.6872169971466,99.06676006317139,99.06678199768066,100.84707403182983
0,100.84707403182983,119.06163001060486,119.0616500377655,120.71927189826965
0,120.71927189826965,139.09543895721436,139.095458984375,140.8271300792694
0,140.8271300792694,159.07693600654602,159.0769579410553,160.79901599884033
0,160.79901599884033,179.02081894874573,179.0208399295807,180.73916697502136
0,180.73916697502136,198.96893405914307,198.96895503997803,200.70810508728027
0,200.70810508728027,218.97392892837524,218.97395610809326,220.6432728767395
0,220.6432728767395,238.85319709777832,238.85321688652039,240.63505005836487
0,240.63505005836487,258.8989140987396,258.8989350795746,260.5030839443207
0,260.5030839443207,278.7165720462799,278.71659207344055,280.4270520210266
0,280.4270520210266,298.7368528842926,298.73687505722046,300.46705889701843
0,300.46705889701843,318.76881289482117,318.768835067749,320.53508400917053
0,320.53508400917053,338.7646698951721,338.7646908760071,340.5631070137024
0,340.5631070137024,358.77961707115173,358.779639005661,360.5630419254303
0,360.5630419254303,590.4947600364685,590.4947838783264,642.7791419029236
0,642.7791419029236,706.7393810749054,706.739403963089,741.7669100761414
0,741.7669100761414,791.2510600090027,791.2511639595032,796.0430560112
0,796.0430560112,814.3309020996094,814.3309230804443,816.159215927124
0,816.159215927124,834.4175961017609,834.4176180362701,836.3470718860626
0,836.3470718860626,854.5810399055481,854.581060886383,856.4870700836182
0,856.4870700836182,874.8383619785309,874.8383839130402,877.291069984436
0,877.291069984436,895.4527230262756,895.4527440071106,904.8391048908234
0,904.8391048908234,938.491870880127,938.4918940067291,947.9109909534454
0,947.9109909534454,971.5876040458679,971.5876259803772,982.5309128761292
0,982.5309128761292,1000.7690620422363,1000.7690830230713,1012.5150389671326
0,1012.5150389671326,1059.8818490505219,1059.8818719387054,1066.0270330905914
0,1066.0270330905914,1108.5520339012146,1108.5520589351654,1149.3429799079895
0,1149.3429799079895,1372.2683219909668,1372.2683470249176,1383.8270649909973
0,1383.8270649909973,1486.2832989692688,1486.2833240032196,1555.9761769771576
0,1555.9761769771576,1600.9051089286804,1600.905133008957,1609.010982990265
0,1609.010982990265,1628.574131011963,1628.5741539001465,1635.775006055832
0,1635.775006055832,1654.0058679580688,1654.0058898925781,1658.5030159950256
0,1658.5030159950256,1676.6978800296783,1676.6979150772095,1683.363245010376
0,1683.363245010376,1701.5574820041656,1701.5575029850006,1702.7754390239716
0,1702.7754390239716,1721.0669519901276,1721.0669729709625,1722.2071850299835
0,1722.2071850299835,1740.6052629947662,1740.6052849292755,1744.6979939937592
0,1744.6979939937592,1763.0093638896942,1763.0093879699707,1765.9993829727173
0,1765.9993829727173,1784.1536750793457,1784.1536951065063,1786.611095905304
0,1786.611095905304,1804.8855760097504,1804.885598897934,1806.1670870780945
0,1806.1670870780945,1824.405643939972,1824.4056639671326,1825.6351110935211
0,1825.6351110935211,1843.8814680576324,1843.8814899921417,1845.1234290599823
0,1845.1234290599823,1863.40780210495,1863.407821893692,1870.1470680236816
0,1870.1470680236816,1888.3729529380798,1888.3729739189148,1889.583102941513
0,1889.583102941513,1913.3244309425354,1913.3244519233704,1918.470829963684
0,1918.470829963684,1936.9739830493927,1936.9740030765533,1940.0991020202637
0,1940.0991020202637,1974.9265899658203,1974.926619052887,1984.1829180717468
0,1984.1829180717468,2021.6446590423584,2021.6446869373322,2036.286943912506
0,2036.286943912506,2066.414747953415,2066.414769887924,2078.8181369304657
0,2078.8181369304657,2098.798590898514,2098.798614025116,2115.1350700855255
0,2115.1350700855255,2133.3593349456787,2133.359356880188,2139.167093038559
0,2139.167093038559,2157.746645927429,2157.746668100357,2162.0830841064453
0,2162.0830841064453,2180.3178770542145,2180.317897081375,2181.9391100406647
0,2181.9391100406647,2200.3215069770813,2200.3215301036835,2201.739098072052
0,2201.739098072052,2219.986615896225,2219.9866399765015,2221.210102081299
0,2221.210102081299,2239.487370967865,2239.4873929023743,2240.7471940517426
0,2240.7471940517426,2258.9887149333954,2258.988734960556,2264.0193219184875
0,2264.0193219184875,2282.3609778881073,2282.360999107361,2290.139091014862
0,2290.139091014862,2308.3843569755554,2308.3843779563904,2319.699066877365
0,2319.699066877365,2337.827714920044,2337.8277349472046,2343.327066898346
0,2343.327066898346,2363.1437799930573,2363.1438040733337,2371.635237932205
0,2371.635237932205,2390.6609559059143,2390.660979986191,2394.3631229400635
0,2394.3631229400635,2413.3911170959473,2413.3911430835724,2418.587975025177
0,2418.587975025177,2436.8045959472656,2436.8046169281006,2439.9533898830414
0,2439.9533898830414,2458.2473800182343,2458.247400045395,2461.5031259059906
0,2461.5031259059906,2482.1858620643616,2482.185883998871,2487.526983976364
0,2487.526983976364,2524.1993069648743,2524.199331998825,2532.8830120563507
0,2532.8830120563507,2554.79944396019,2554.7994680404663,2563.160691022873
0,2563.160691022873,2581.3368270397186,2581.3368458747864,2589.5830760002136
0,2589.5830760002136,2607.8204090595245,2607.8204429149628,2609.0710999965668
0,2609.0710999965668,2627.4136378765106,2627.4136600494385,2629.3110530376434
0,2629.3110530376434,2647.548992872238,2647.5490119457245,2650.807126045227
0,2650.807126045227,2669.0250899791718,2669.0251109600067,2677.3230888843536
0,2677.3230888843536,2695.5647718906403,2695.564793109894,2703.311068058014
0,2703.311068058014,2721.544802904129,2721.544823884964,2728.159101963043
0,2728.159101963043,2746.3205099105835,2746.3205308914185,2757.2413969039917
0,2757.2413969039917,2775.8349380493164,2775.8349609375,2782.5590109825134
0,2782.5590109825134,2808.248795032501,2808.248820066452,2810.6590321063995
0,2810.6590321063995,2831.309016942978,2831.309037923813,2835.5830380916595
0,2835.5830380916595,2857.5580780506134,2857.5581018924713,2860.4090299606323
0,2860.4090299606323,2879.4527399539948,2879.4527769088745,2884.55100107193
0,2884.55100107193,2905.0762400627136,2905.076267004013,2908.4111371040344
0,2908.4111371040344,2929.988095998764,2929.9881229400635,2941.6669919490814
0,2941.6669919490814,2971.9992129802704,2971.99923992157,2976.4910519123077
0,2976.4910519123077,2994.713275909424,2994.7132959365845,3001.2991139888763
0,3001.2991139888763,3019.533277988434,3019.533298969269,3024.867078065872
0,3024.867078065872,3043.1447739601135,3043.144793987274,3044.551073074341
0,3044.551073074341,3062.7089080810547,3062.7089269161224,3070.987112045288
0,3070.987112045288,3089.173490047455,3089.173511981964,3098.855052947998
0,3098.855052947998,3117.0929188728333,3117.092941045761,3122.7630710601807
0,3122.7630710601807,3141.03755903244,3141.037584066391,3149.1870839595795
0,3149.1870839595795,3167.3749408721924,3167.374960899353,3173.431427001953
0,3173.431427001953,3191.649580001831,3191.649600982666,3199.143091917038
0,3199.143091917038,3217.3292450904846,3217.329267978668,3226.041708946228
0,3226.041708946228,3244.2158439159393,3244.2158648967743,3252.0192210674286
0,3252.0192210674286,3271.993248939514,3271.9932720661163,3278.63907289505
0,3278.63907289505,3301.931610107422,3301.931634902954,3306.5790309906006
0,3306.5790309906006,3327.1717441082,3327.1717689037323,3332.3314430713654
0,3332.3314430713654,3357.4761559963226,3357.476177930832,3360.6422119140625
0,3360.6422119140625,3383.730139017105,3383.7301630973816,3387.2430579662323
0,3387.2430579662323,3411.119682073593,3411.119710922241,3413.867069005966
0,3413.867069005966,3432.113056898117,3432.113077878952,3437.4111289978027
0,3437.4111289978027,3455.6772968769073,3455.677318096161,3464.3551349639893
0,3464.3551349639893,3482.549642086029,3482.549661874771,3492.256618976593
0,3492.256618976593,3510.466567993164,3510.466588973999,3517.9110798835754
0,3517.9110798835754,3536.088728904724,3536.088749885559,3543.3724370002747
0,3543.3724370002747,3561.5969688892365,3561.59699010849,3568.5631020069122
0,3568.5631020069122,3586.8013451099396,3586.8013648986816,3595.6462960243225
0,3595.6462960243225,3613.8619289398193,3613.8619499206543,3622.6990699768066
0,3622.6990699768066,3658.949322938919,3658.9493460655212,3663.8790349960327
0,3663.8790349960327,3690.128264904022,3690.128284931183,3693.0710520744324
0,3693.0710520744324,3711.330111026764,3711.3301310539246,3715.3190360069275
0,3715.3190360069275,3744.179925918579,3744.1799490451813,3747.2910630702972
0,3747.2910630702972,3767.6669828891754,3767.6670060157776,3771.9909970760345
10,1.5497069358825684,550.0748209953308,550.0748410224915,796.9508409500122
10,796.9508409500122,1284.9485280513763,1284.9485518932343,1559.2662138938904
10,1559.2662138938904,1941.6371290683746,1941.6371500492096,1983.7746810913086
10,1983.7746810913086,2343.9269049167633,2343.9269258975983,2371.4629690647125
10,2371.4629690647125,2731.6968789100647,2731.6969010829926,2762.6230568885803
10,2762.6230568885803,3122.8097639083862,3122.809784889221,3153.5113139152527
10,3153.5113139152527,3514.98223900795,3514.982259988785,3555.342941045761
11,1.5617001056671143,501.41453790664673,501.4145619869232,641.7001819610596
11,641.7001819610596,1010.5135068893433,1010.5135269165039,1098.6496000289917
11,1098.6496000289917,1535.263102054596,1535.2631270885468,1614.5235378742218
11,1614.5235378742218,1976.5067920684814,1976.5068180561066,2023.6082570552826
11,2023.6082570552826,2383.758728981018,2383.7587521076202,2415.2948789596558
11,2415.2948789596558,2775.481698036194,2775.481719970703,2809.306701898575
11,2809.306701898575,3170.3307070732117,3170.330729007721,3203.205671072006
11,3203.205671072006,3568.4835278987885,3568.4835510253906,3608.8464069366455
12,1.529716968536377,540.7828660011292,540.7828900814056,745.6387550830841
12,745.6387550830841,1137.4564878940582,1137.456510066986,1294.477166891098
12,1294.477166891098,1722.3849821090698,1722.385015964508,1745.1439199447632
12,1745.1439199447632,2110.3766770362854,2110.376699924469,2139.2215950489044
12,2139.2215950489044,2500.172681093216,2500.172703027725,2550.435564994812
12,2550.435564994812,2910.64533495903,2910.6453568935394,2955.0378320217133
12,2955.0378320217133,3315.207328081131,3315.2073500156403,3360.879157066345
12,3360.879157066345,3721.104999065399,3721.105020046234,3774.6741950511932
13,1.3661210536956787,451.78237795829773,451.782408952713,785.9627869129181
13,785.9627869129181,1238.3364679813385,1238.3364899158478,1377.7232248783112
13,1377.7232248783112,1744.5981879234314,1744.5982089042664,1786.8343958854675
13,1786.8343958854675,2147.0532228946686,2147.053242921829,2181.7029519081116
13,2181.7029519081116,2544.0771889686584,2544.0772109031677,2593.6860790252686
13,2593.6860790252686,2953.9270009994507,2953.927026987076,3003.5218958854675
13,3003.5218958854675,3363.740634918213,3363.740655899048,3413.314502954483
14,1.3900620937347412,422.52270698547363,422.5227298736572,744.035306930542
14,744.035306930542,1137.0680539608002,1137.0680859088898,1433.1003069877625
14,1433.1003069877625,1859.3499639034271,1859.3499839305878,1882.1154448986053
14,1882.1154448986053,2242.378630876541,2242.378650903702,2265.5753920078278
14,2265.5753920078278,2625.8007299900055,2625.8007519245148,2651.107824087143
14,2651.107824087143,3011.324959039688,3011.3249790668488,3036.7673840522766
14,3036.7673840522766,3396.9644820690155,3396.964504003525,3442.499834060669
15,1.2142200469970703,410.24631094932556,410.2463309764862,711.8030018806458
15,711.8030018806458,1072.0649089813232,1072.0649299621582,1157.6811928749084
15,1157.6811928749084,1609.401048898697,1609.401072025299,1684.7056019306183
15,1684.7056019306183,2047.2865569591522,2047.2865929603577,2095.9883880615234
15,2095.9883880615234,2456.2296969890594,2456.2297179698944,2482.647187948227
15,2482.647187948227,2842.960287094116,2842.9603068828583,2884.050416946411
15,2884.050416946411,3251.2712590694427,3251.271285057068,3279.355026960373
15,3279.355026960373,3639.5659489631653,3639.5659699440002,3691.110421895981
1,0.0,360.4408459663391,360.4408679008484,519.6903541088104
1,519.6903541088104,904.5915040969849,904.5915269851685,956.2903549671173
1,956.2903549671173,1387.3489561080933,1387.3489799499512,1522.8593800067902
1,1522.8593800067902,1894.7934288978577,1894.7934510707855,1918.7274689674377
1,1918.7274689674377,2278.917617082596,2278.917638063431,2302.027142047882
1,2302.027142047882,2662.229420900345,2662.2294430732727,2688.3873159885406
1,2688.3873159885406,3048.5726659297943,3048.5726869106293,3076.7546060085297
1,3076.7546060085297,3437.1280369758606,3437.1280579566956,3471.095258951187
2,0.07437992095947266,360.442085981369,360.4421019554138,520.1079518795013
2,520.1079518795013,908.310772895813,908.3107969760895,989.7571790218353
2,989.7571790218353,1403.4125609397888,1403.412586927414,1537.4780819416046
2,1537.4780819416046,1897.662360906601,1897.6623840332031,1937.798542022705
2,1937.798542022705,2297.968861103058,2297.968882083893,2324.610533952713
2,2324.610533952713,2684.8413910865784,2684.8414108753204,2711.3706500530243
2,2711.3706500530243,3071.5569939613342,3071.557014942169,3100.607846021652
2,3100.607846021652,3462.8352880477905,3462.8353090286255,3498.4872019290924
3,0.0012469291687011719,360.0139400959015,360.01395988464355,513.6554958820343
3,513.6554958820343,873.6766319274902,873.6766541004181,916.6007750034332
3,916.6007750034332,1383.8979289531708,1383.897952079773,1555.543664932251
3,1555.543664932251,1918.213625907898,1918.2136490345001,1965.3208038806915
3,1965.3208038806915,2325.613476037979,2325.6134960651398,2352.9712870121
3,2352.9712870121,2713.1884400844574,2713.1884610652924,2738.6233880519867
3,2738.6233880519867,3098.8081319332123,3098.80815410614,3127.9406819343567
3,3127.9406819343567,3489.4025778770447,3489.402601003647,3527.0228888988495
4,0.4444239139556885,361.35120606422424,361.35122990608215,583.8179750442505
4,583.8179750442505,947.8318090438843,947.8318319320679,1028.0471708774567
4,1028.0471708774567,1535.1055419445038,1535.105576992035,1592.5176138877869
4,1592.5176138877869,1957.4301249980927,1957.4301509857178,1999.3422319889069
4,1999.3422319889069,2359.5408589839935,2359.5408799648285,2394.7948939800262
4,2394.7948939800262,2755.0087010860443,2755.0087208747864,2788.4230868816376
4,2788.4230868816376,3148.6605939865112,3148.6606130599976,3177.591110944748
4,3177.591110944748,3539.147454023361,3539.1474781036377,3581.47465801239
5,0.5297160148620605,375.1143069267273,375.1143250465393,643.8920788764954
5,643.8920788764954,1026.5016601085663,1026.5016820430756,1108.2402799129486
5,1108.2402799129486,1535.199716091156,1535.1997430324554,1628.7023329734802
5,1628.7023329734802,1996.8502130508423,1996.8502340316772,2039.5930960178375
5,2039.5930960178375,2399.9342041015625,2399.9342560768127,2437.968502998352
5,2437.968502998352,2798.1412620544434,2798.1412830352783,2835.590693950653
5,2835.590693950653,3198.1307470798492,3198.1307718753815,3228.666703939438
5,3228.666703939438,3595.5044770240784,3595.504502058029,3636.475401878357
6,1.350127935409546,433.87032294273376,433.8703439235687,743.3711009025574
6,743.3711009025574,1136.3897869586945,1136.3898088932037,1281.6854090690613
6,1281.6854090690613,1647.4774310588837,1647.4774510860443,1690.8137719631195
6,1690.8137719631195,2065.854938030243,2065.854961872101,2117.0164589881897
6,2117.0164589881897,2477.2028160095215,2477.2028369903564,2526.440859079361
6,2526.440859079361,2886.6496019363403,2886.649621963501,2931.7020449638367
6,2931.7020449638367,3291.880676984787,3291.8806989192963,3333.050168991089
6,3333.050168991089,3693.275559902191,3693.2755830287933,3747.3297939300537
7,1.5497078895568848,502.09487891197205,502.09490489959717,787.9735550880432
7,787.9735550880432,1239.4284689426422,1239.4284930229187,1377.2879099845886
7,1377.2879099845886,1737.5931329727173,1737.5931539535522,1765.024892091751
7,1765.024892091751,2125.2169909477234,2125.2170119285583,2162.338849067688
7,2162.338849067688,2526.193605899811,2526.1936299800873,2570.4551870822906
7,2570.4551870822906,2931.434586048126,2931.434607028961,2979.1661429405212
7,2979.1661429405212,3339.417540073395,3339.417562007904,3387.422311067581
8,1.3059608936309814,410.46235394477844,410.4623758792877,712.335695028305
8,712.335695028305,1100.7035698890686,1100.7035911083221,1228.5200650691986
8,1228.5200650691986,1609.1485838890076,1609.148607969284,1650.5954360961914
8,1650.5954360961914,2021.9107949733734,2021.9108169078827,2066.12504196167
8,2066.12504196167,2426.3219780921936,2426.3219969272614,2461.834816932678
8,2461.834816932678,2822.037764072418,2822.037789106369,2859.302563905716
8,2859.302563905716,3222.6131880283356,3222.6132090091705,3253.5562629699707
8,3253.5562629699707,3614.395206928253,3614.3952300548553,3664.1083920001984
9,1.5577020645141602,478.8586928844452,478.8587119579315,796.8825650215149
9,796.8825650215149,1286.708426952362,1286.7084519863129,1637.8409578800201
9,1637.8409578800201,2013.136046886444,2013.1360709667206,2112.752091884613
9,2112.752091884613,2472.9413039684296,2472.9413249492645,2515.0003390312195
9,2515.0003390312195,2875.1832070350647,2875.1832270622253,2907.5608038902283
9,2907.5608038902283,3267.8093769550323,3267.809396982193,3306.226991891861
9,3306.226991891861,3666.4649488925934,3666.464968919754,3718.7631421089172
