app_id,start_exec,end_exec,start_io,end_io
0,0.17702507972717285,18.188009023666382,18.188027143478394,20.419556140899658
0,20.419556140899658,38.6142041683197,38.614217042922974,40.779375076293945
0,40.779375076293945,59.029479026794434,59.029492139816284,61.207348108291626
0,61.207348108291626,79.43641996383667,79.43643116950989,81.65538096427917
0,81.65538096427917,99.83470702171326,99.83471703529358,101.97006011009216
0,101.97006011009216,120.24129796028137,120.24130916595459,122.37537002563477
0,122.37537002563477,140.62066507339478,140.6206750869751,142.7662491798401
0,142.7662491798401,160.96253108978271,160.96254515647888,163.07937002182007
0,163.07937002182007,181.28507804870605,181.2850890159607,183.48737812042236
0,183.48737812042236,201.71839904785156,201.7184100151062,204.01144695281982
0,204.01144695281982,222.2053611278534,222.20537209510803,224.3193919658661
0,224.3193919658661,242.5775170326233,242.57753610610962,244.7593891620636
0,244.7593891620636,263.02475118637085,263.0247609615326,265.23942017555237
0,265.23942017555237,283.5451500415802,283.54516100883484,285.71560502052307
0,285.71560502052307,303.9888770580292,303.9888880252838,306.1114010810852
0,306.1114010810852,324.30095314979553,324.30096316337585,326.4513440132141
0,326.4513440132141,344.6676139831543,344.66762614250183,346.92736411094666
0,346.92736411094666,389.3854820728302,389.38550305366516,399.50028896331787
0,399.50028896331787,420.265398979187,420.2654161453247,426.3385009765625
0,426.3385009765625,447.1932120323181,447.1932280063629,454.05090498924255
0,454.05090498924255,476.3728220462799,476.37284898757935,488.19441413879395
0,488.19441413879395,508.1487009525299,508.1487181186676,513.8715441226959
0,513.8715441226959,533.6526160240173,533.6526350975037,536.3994870185852
0,536.3994870185852,557.324294090271,557.3243119716644,565.347599029541
0,565.347599029541,585.5728130340576,585.572832107544,592.4753429889679
0,592.4753429889679,612.6478130817413,612.647833108902,615.4434700012207
0,615.4434700012207,635.277773141861,635.2778081893921,638.2728340625763
0,638.2728340625763,658.0838160514832,658.0838329792023,668.4753341674805
0,668.4753341674805,688.7575371265411,688.7575540542603,696.9913511276245
0,696.9913511276245,715.1574170589447,715.1574289798737,719.6674160957336
0,719.6674160957336,737.9287440776825,737.9287550449371,739.087396144867
0,739.087396144867,757.3419561386108,757.3419671058655,758.5393719673157
0,758.5393719673157,776.7812080383301,776.781219959259,782.7434079647064
0,782.7434079647064,800.904433965683,800.9044470787048,806.9074301719666
0,806.9074301719666,825.599109172821,825.5991230010986,832.899405002594
0,832.899405002594,851.1173360347748,851.1173479557037,852.307382106781
0,852.307382106781,870.591236114502,870.5912530422211,875.1273851394653
0,875.1273851394653,893.3451671600342,893.3451821804047,896.9491770267487
0,896.9491770267487,916.573860168457,916.5738739967346,920.2553520202637
0,920.2553520202637,938.6411800384521,938.6412010192871,943.1154010295868
0,943.1154010295868,961.2039420604706,961.2039551734924,966.2550780773163
0,966.2550780773163,984.42768907547,984.4277009963989,994.6479051113129
0,994.6479051113129,1012.8221020698547,1012.8221151828766,1019.4074311256409
0,1019.4074311256409,1037.5900971889496,1037.5901110172272,1044.57883810997
0,1044.57883810997,1065.7037000656128,1065.7037119865417,1069.9031310081482
0,1069.9031310081482,1088.2695050239563,1088.2695181369781,1093.6833691596985
0,1093.6833691596985,1111.8729131221771,1111.8729259967804,1113.107441186905
0,1113.107441186905,1131.3254871368408,1131.3254981040955,1132.5874240398407
0,1132.5874240398407,1150.77987408638,1150.7798869609833,1152.5393869876862
0,1152.5393869876862,1170.7533240318298,1170.7533359527588,1173.4354450702667
0,1173.4354450702667,1191.5854830741882,1191.58549618721,1196.719454050064
0,1196.719454050064,1214.9846341609955,1214.9846470355988,1220.6430790424347
0,1220.6430790424347,1238.9117181301117,1238.9117319583893,1250.2754089832306
0,1250.2754089832306,1268.452908039093,1268.4529221057892,1276.8914120197296
0,1276.8914120197296,1295.0654890537262,1295.0655031204224,1302.2075531482697
0,1302.2075531482697,1320.4047420024872,1320.404755115509,1326.7514300346375
0,1326.7514300346375,1345.1109809875488,1345.110995054245,1349.4394400119781
0,1349.4394400119781,1368.1990940570831,1368.1991109848022,1372.1874091625214
0,1372.1874091625214,1391.6791760921478,1391.6791911125183,1394.8114490509033
0,1394.8114490509033,1414.5060811042786,1414.5060939788818,1418.6275119781494
0,1418.6275119781494,1438.5562801361084,1438.5562930107117,1441.4153940677643
0,1441.4153940677643,1459.8802661895752,1459.8802781105042,1463.4114120006561
0,1463.4114120006561,1484.0824451446533,1484.082458972931,1487.1153609752655
0,1487.1153609752655,1505.2902011871338,1505.2902131080627,1509.5074141025543
0,1509.5074141025543,1527.704962015152,1527.7049729824066,1529.0319051742554
0,1529.0319051742554,1547.2849831581116,1547.2849950790405,1553.971421957016
0,1553.971421957016,1572.1730360984802,1572.1730489730835,1579.4154870510101
0,1579.4154870510101,1597.6132881641388,1597.6133019924164,1605.0513951778412
0,1605.0513951778412,1623.2727329730988,1623.272747039795,1632.4634029865265
0,1632.4634029865265,1650.6610519886017,1650.6610651016235,1660.8433899879456
0,1660.8433899879456,1679.064504146576,1679.0645170211792,1687.5956189632416
0,1687.5956189632416,1705.7530970573425,1705.7531111240387,1712.899444103241
0,1712.899444103241,1731.04634308815,1731.0463559627533,1739.9274599552155
0,1739.9274599552155,1759.6316850185394,1759.63170003891,1763.9953620433807
0,1763.9953620433807,1783.539451122284,1783.5394670963287,1788.23007106781
0,1788.23007106781,1808.0047991275787,1808.004812002182,1810.9994039535522
0,1810.9994039535522,1830.7869021892548,1830.7869200706482,1838.175400018692
0,1838.175400018692,1856.457885980606,1856.4578981399536,1858.7834181785583
0,1858.7834181785583,1878.3131279945374,1878.3131411075592,1882.619439125061
0,1882.619439125061,1900.8574039936066,1900.857416152954,1906.2274470329285
0,1906.2274470329285,1924.4929690361023,1924.4929821491241,1931.979411125183
0,1931.979411125183,1950.1810760498047,1950.1810891628265,1958.6194620132446
0,1958.6194620132446,1976.8446941375732,1976.8447070121765,1983.3274731636047
0,1983.3274731636047,2001.5852689743042,2001.5852811336517,2002.8365120887756
0,2002.8365120887756,2021.0325829982758,2021.0325961112976,2027.9754121303558
0,2027.9754121303558,2046.1450941562653,2046.1451070308685,2054.1274960041046
0,2054.1274960041046,2072.3341121673584,2072.3341250419617,2078.365296125412
0,2078.365296125412,2096.6162049770355,2096.6162180900574,2106.1902191638947
0,2106.1902191638947,2124.3299889564514,2124.3300020694733,2132.4514560699463
0,2132.4514560699463,2152.3968760967255,2152.3968901634216,2158.5354330539703
0,2158.5354330539703,2178.28067612648,2178.2806890010834,2185.1313750743866
0,2185.1313750743866,2205.532963991165,2205.5329780578613,2211.403412103653
0,2211.403412103653,2232.440400123596,2232.4404151439667,2236.9515039920807
0,2236.9515039920807,2257.8117570877075,2257.811772108078,2263.207370042801
0,2263.207370042801,2284.1873450279236,2284.1873610019684,2289.235430955887
0,2289.235430955887,2308.7605521678925,2308.760567188263,2315.4593830108643
0,2315.4593830108643,2334.9274010658264,2334.9274151325226,2342.035398006439
0,2342.035398006439,2362.7578020095825,2362.7578160762787,2369.111479997635
0,2369.111479997635,2387.3570799827576,2387.357092142105,2392.295525074005
0,2392.295525074005,2410.4613151550293,2410.4613301754,2418.371458053589
0,2418.371458053589,2436.5374250411987,2436.5374381542206,2444.047369003296
0,2444.047369003296,2462.264757156372,2462.264769077301,2470.6475219726562
0,2470.6475219726562,2488.813157081604,2488.813169002533,2496.095458984375
0,2496.095458984375,2514.3013060092926,2514.30131816864,2522.4714481830597
0,2522.4714481830597,2541.139258146286,2541.1392731666565,2548.7714669704437
0,2548.7714669704437,2566.9726660251617,2566.9726791381836,2575.7686960697174
0,2575.7686960697174,2594.0173060894012,2594.01731801033,2601.2274589538574
0,2601.2274589538574,2619.5053520202637,2619.5053651332855,2628.003419160843
0,2628.003419160843,2646.1913900375366,2646.1914019584656,2654.083414077759
0,2654.083414077759,2672.260619163513,2672.2606329917908,2681.222114086151
0,2681.222114086151,2699.3964760303497,2699.3964891433716,2707.4827649593353
0,2707.4827649593353,2725.6344830989838,2725.634495973587,2730.4353251457214
0,2730.4353251457214,2751.081552028656,2751.0815670490265,2755.2394301891327
0,2755.2394301891327,2777.0075001716614,2777.0075170993805,2781.157588005066
0,2781.157588005066,2801.9680240154266,2801.968039035797,2809.023545026779
0,2809.023545026779,2829.8599309921265,2829.8599469661713,2837.891453027725
0,2837.891453027725,2859.5145921707153,2859.5146100521088,2863.8833961486816
0,2863.8833961486816,2884.696058034897,2884.696076154709,2891.0419211387634
0,2891.0419211387634,2911.827816963196,2911.827835083008,2919.0611350536346
0,2919.0611350536346,2939.9392280578613,2939.9392449855804,2946.8954141139984
0,2946.8954141139984,2967.298709154129,2967.298726081848,2974.5553691387177
0,2974.5553691387177,2995.5266721248627,2995.526690006256,3003.167711019516
0,3003.167711019516,3023.9226570129395,3023.9226729869843,3030.2593851089478
0,3030.2593851089478,3051.374797105789,3051.3748121261597,3058.7193670272827
0,3058.7193670272827,3080.000200033188,3080.000216960907,3086.483388185501
0,3086.483388185501,3107.349028110504,3107.3490459918976,3114.4274129867554
0,3114.4274129867554,3135.305178165436,3135.3051970005035,3139.563485145569
0,3139.563485145569,3160.537271976471,3160.5372869968414,3169.3913950920105
0,3169.3913950920105,3190.784986972809,3190.7850041389465,3196.2679290771484
0,3196.2679290771484,3217.9906589984894,3217.9906730651855,3224.7233850955963
0,3224.7233850955963,3245.3496861457825,3245.3497030735016,3253.5940301418304
0,3253.5940301418304,3274.5924711227417,3274.5924870967865,3284.351396083832
0,3284.351396083832,3305.2564589977264,3305.2564771175385,3313.55939412117
0,3313.55939412117,3334.404141187668,3334.4041571617126,3342.9419481754303
0,3342.9419481754303,3363.7319509983063,3363.731968164444,3372.4873139858246
0,3372.4873139858246,3394.5161809921265,3394.5161991119385,3400.8994331359863
0,3400.8994331359863,3423.435492038727,3423.435510158539,3429.3273451328278
0,3429.3273451328278,3450.855323076248,3450.8553400039673,3457.2276961803436
0,3457.2276961803436,3480.0430879592896,3480.0431060791016,3486.8553941249847
0,3486.8553941249847,3509.973731994629,3509.9737491607666,3514.3153619766235
0,3514.3153619766235,3537.5111191272736,3537.511137008667,3542.5833411216736
0,3542.5833411216736,3563.8468310832977,3563.846848011017,3571.625496149063
0,3571.625496149063,3593.661942958832,3593.661957025528,3599.487776994705
0,3599.487776994705,3621.946089029312,3621.946107149124,3628.303330183029
0,3628.303330183029,3648.401848077774,3648.401864051819,3652.610799074173
0,3652.610799074173,3673.5453159809113,3673.545333147049,3681.299628019333
0,3681.299628019333,3702.6114110946655,3702.611426115036,3709.3233580589294
0,3709.3233580589294,3730.0530230998993,3730.053039073944,3736.5393340587616
0,3736.5393340587616,3757.150330066681,3757.1503469944,3765.74743103981
0,3765.74743103981,3786.24916100502,3786.249178171158,3794.307403087616
10,1.602095127105713,387.9295439720154,387.9295611381531,615.6103820800781
10,615.6103820800781,975.8054351806641,975.8054490089417,1006.1587901115417
10,1006.1587901115417,1366.2935020923615,1366.2935199737549,1395.0234110355377
10,1395.0234110355377,1755.2460341453552,1755.2460579872131,1787.5834691524506
10,1787.5834691524506,2147.8049471378326,2147.8049609661102,2186.018723964691
10,2186.018723964691,2547.839817047119,2547.8398311138153,2585.774871110916
10,2585.774871110916,2946.6332471370697,2946.633264064789,3003.4181661605835
10,3003.4181661605835,3370.0358250141144,3370.035842180252,3429.610605955124
11,1.4068880081176758,592.4089260101318,592.4089450836182,635.6982569694519
11,635.6982569694519,995.8974981307983,995.8975119590759,1026.4543211460114
11,1026.4543211460114,1386.641538143158,1386.6415519714355,1418.9389200210571
11,1418.9389200210571,1779.205670118332,1779.205684185028,1811.5629830360413
11,1811.5629830360413,2172.4499180316925,2172.449933052063,2211.827353000641
11,2211.827353000641,2573.9827551841736,2573.982769012451,2613.287316083908
11,2613.287316083908,2974.5155630111694,2974.5155851840973,3030.377501964569
11,3030.377501964569,3398.823611974716,3398.8236269950867,3457.813838005066
12,1.6140789985656738,608.4297080039978,608.4297230243683,656.9101459980011
12,656.9101459980011,1018.570433139801,1018.5704481601715,1048.7867059707642
12,1048.7867059707642,1408.9654099941254,1408.9654240608215,1438.9591369628906
12,1438.9591369628906,1799.0845329761505,1799.0845470428467,1834.687705039978
12,1834.687705039978,2194.8953001499176,2194.895313024521,2236.922451019287
12,2236.922451019287,2599.4400939941406,2599.440108060837,2642.002508163452
12,2642.002508163452,3002.4944710731506,3002.4944880008698,3059.3095750808716
12,3059.3095750808716,3424.3675701618195,3424.3675861358643,3487.437654018402
13,1.3264310359954834,374.50538897514343,374.5054121017456,678.7462561130524
13,678.7462561130524,1044.2672011852264,1044.2672181129456,1070.089464187622
13,1070.089464187622,1430.288151025772,1430.288164138794,1463.5570631027222
13,1463.5570631027222,1823.7705550193787,1823.7705690860748,1857.3594839572906
13,1857.3594839572906,2217.569516181946,2217.5695309638977,2263.3995921611786
13,2263.3995921611786,2624.504513025284,2624.50452709198,2671.8667891025543
13,2671.8667891025543,3032.0528571605682,3032.0528700351715,3087.095149040222
13,3087.095149040222,3455.3791551589966,3455.37917304039,3514.3822140693665
14,1.474395990371704,381.04545998573303,381.045480966568,700.462170124054
14,700.462170124054,1060.6453940868378,1060.6454110145569,1089.9068710803986
14,1089.9068710803986,1450.0918550491333,1450.0918691158295,1486.1029560565948
14,1486.1029560565948,1846.292575120926,1846.2925879955292,1882.943067073822
14,1882.943067073822,2243.1697611808777,2243.1697759628296,2289.2625019550323
14,2289.2625019550323,2651.278345108032,2651.2783591747284,2697.450860977173
14,2697.450860977173,3058.3298201560974,3058.3298370838165,3115.549479007721
14,3115.549479007721,3481.7337880134583,3481.7338061332703,3542.3812069892883
15,1.4140770435333252,672.3276510238647,672.3276660442352,719.9419629573822
15,719.9419629573822,1080.1300621032715,1080.1300749778748,1111.006548166275
15,1111.006548166275,1471.1932821273804,1471.193295955658,1509.7705430984497
15,1509.7705430984497,1870.0206701755524,1870.02068400383,1906.8111190795898
15,1906.8111190795898,2267.030769109726,2267.030783176422,2315.6943809986115
15,2315.6943809986115,2675.9448771476746,2675.944892168045,2726.2347180843353
15,2726.2347180843353,3086.4406430721283,3086.440659046173,3145.1053891181946
15,3145.1053891181946,3510.539041996002,3510.539057970047,3574.661185979843
1,0.0,360.0121901035309,360.01220297813416,406.83990001678467
1,406.83990001678467,766.8664870262146,766.8665001392365,789.6148910522461
1,789.6148910522461,1149.781856060028,1149.7818701267242,1173.599300146103
1,1173.599300146103,1533.8188259601593,1533.8188400268555,1560.0401821136475
1,1560.0401821136475,1920.208752155304,1920.2087650299072,1945.791599035263
1,1945.791599035263,2306.0337450504303,2306.033761024475,2342.4638969898224
1,2342.4638969898224,2705.458569049835,2705.45858502388,2755.2698061466217
1,2755.2698061466217,3115.4690129756927,3115.469027042389,3173.2869081497192
1,3173.2869081497192,3541.8859961032867,3541.8860161304474,3598.0336170196533
2,1.6380810737609863,387.8773910999298,387.8774230480194,454.40922808647156
2,454.40922808647156,814.4706101417542,814.4706230163574,837.2031290531158
2,837.2031290531158,1197.405168056488,1197.4051821231842,1220.975769996643
2,1220.975769996643,1581.2367560863495,1581.23677110672,1606.387048959732
2,1606.387048959732,1966.5399081707,1966.5399219989777,1994.5831770896912
2,1994.5831770896912,2354.765501022339,2354.765515089035,2394.1790380477905
2,2394.1790380477905,2754.39523601532,2754.3952519893646,2809.401421070099
2,2809.401421070099,3169.6173491477966,3169.617362976074,3227.288011074066
2,3227.288011074066,3590.322473049164,3590.3224890232086,3651.865453004837
3,0.13278508186340332,360.14744305610657,360.14745807647705,431.1684889793396
3,431.1684889793396,791.1974291801453,791.1974430084229,813.7830519676208
3,813.7830519676208,1173.977035999298,1173.97704911232,1197.0511100292206
3,1197.0511100292206,1557.2037160396576,1557.2037301063538,1581.967131137848
3,1581.967131137848,1942.1643781661987,1942.1643919944763,1971.9291050434113
3,1971.9291050434113,2332.185254096985,2332.1852691173553,2368.580075979233
3,2368.580075979233,2728.9434521198273,2728.9434690475464,2788.0493631362915
3,2788.0493631362915,3148.2454931735992,3148.2455060482025,3210.9617261886597
3,3210.9617261886597,3571.575299024582,3571.5753161907196,3649.9450681209564
4,0.17534399032592773,360.3991961479187,360.3992130756378,492.60280108451843
4,492.60280108451843,852.6876101493835,852.6876230239868,875.3559970855713
4,875.3559970855713,1235.5734961032867,1235.573510169983,1258.7115621566772
4,1258.7115621566772,1618.8697621822357,1618.869775056839,1645.6233270168304
4,1645.6233270168304,2005.883005142212,2005.8830189704895,2031.9025430679321
4,2031.9025430679321,2392.18585395813,2392.1858780384064,2420.845030069351
4,2420.845030069351,2781.04962515831,2781.0496430397034,2838.129935026169
4,2838.129935026169,3198.843001127243,3198.8430161476135,3257.24871301651
4,3257.24871301651,3628.199877977371,3628.199895143509,3680.674905061722
5,1.2821331024169922,362.1628601551056,362.16287899017334,514.0576059818268
5,514.0576059818268,874.2116811275482,874.2116940021515,897.2159199714661
5,897.2159199714661,1257.4003810882568,1257.40039396286,1280.6615500450134
5,1280.6615500450134,1640.8513779640198,1640.8513901233673,1669.2872440814972
5,1669.2872440814972,2029.5171320438385,2029.5171451568604,2056.5571739673615
5,2056.5571739673615,2416.816167116165,2416.8161811828613,2448.019133090973
5,2448.019133090973,2808.9827921390533,2808.982807159424,2863.946072101593
5,2863.946072101593,3224.7288870811462,3224.7289011478424,3285.5698821544647
5,3285.5698821544647,3651.5534710884094,3651.55348610878,3709.841572999954
6,1.2460739612579346,369.96571612358093,369.96573400497437,534.0930361747742
6,534.0930361747742,894.2321090698242,894.2321240901947,920.2713220119476
6,920.2713220119476,1280.4896981716156,1280.4897110462189,1303.7698390483856
6,1303.7698390483856,1664.0131011009216,1664.0131151676178,1693.158331155777
6,1693.158331155777,2053.300649166107,2053.3006629943848,2082.1567480564117
6,2082.1567480564117,2443.328122138977,2443.328139066696,2474.6556301116943
6,2474.6556301116943,2835.960751056671,2835.960769176483,2891.389079093933
6,2891.389079093933,3253.5378930568695,3253.537912130356,3315.361298084259
6,3315.361298084259,3680.1592659950256,3680.1592841148376,3738.0201971530914
7,1.1944301128387451,361.46099305152893,361.4610171318054,553.3887071609497
7,553.3887071609497,913.5305800437927,913.5305941104889,943.0842881202698
7,943.0842881202698,1303.3488941192627,1303.348906993866,1327.791097164154
7,1327.791097164154,1688.0205750465393,1688.0205891132355,1716.827105998993
7,1716.827105998993,2077.0883660316467,2077.0883820056915,2108.333599090576
7,2108.333599090576,2468.5123031139374,2468.5123159885406,2502.4073481559753
7,2502.4073481559753,2863.473538160324,2863.473555088043,2919.8455760478973
7,2919.8455760478973,3281.746206998825,3281.746225118637,3343.947412967682
7,3343.947412967682,3708.3174080848694,3708.3174250125885,3766.5745429992676
8,0.6008350849151611,360.65208101272583,360.6520981788635,573.4747459888458
8,573.4747459888458,933.5770571231842,933.577073097229,961.3724510669708
8,961.3724510669708,1325.449520111084,1325.4495351314545,1349.6432890892029
8,1349.6432890892029,1711.7460911273956,1711.7461049556732,1740.6593000888824
8,1740.6593000888824,2104.1528911590576,2104.152904033661,2134.1024560928345
8,2134.1024560928345,2495.4416501522064,2495.441666126251,2529.559156179428
8,2529.559156179428,2890.475362062454,2890.4753801822662,2947.5895280838013
8,2947.5895280838013,3311.819580078125,3311.81959605217,3374.6815071105957
8,3374.6815071105957,3736.3270111083984,3736.3270270824432,3795.989089012146
9,1.4540700912475586,382.6656379699707,382.6656560897827,598.5581681728363
9,598.5581681728363,958.71706199646,958.7170751094818,984.4810481071472
9,984.4810481071472,1344.6814830303192,1344.681496143341,1372.535278081894
9,1372.535278081894,1735.4303150177002,1735.4303290843964,1763.8950440883636
9,1763.8950440883636,2124.0693941116333,2124.0694069862366,2159.7632150650024
9,2159.7632150650024,2520.4348051548004,2520.434818983078,2557.3189079761505
9,2557.3189079761505,2918.883803129196,2918.8838210105896,2975.9454951286316
9,2975.9454951286316,3342.6363201141357,3342.636337041855,3401.3674969673157
