app_id,start_exec,end_exec,start_io,end_io
0,0.31470298767089844,18.328431129455566,18.328453063964844,19.795330047607422
0,19.795330047607422,38.15001201629639,38.15003299713135,39.55514097213745
0,39.55514097213745,57.753705978393555,57.75372815132141,59.36312508583069
0,59.36312508583069,77.552011013031,77.55203104019165,79.07516813278198
0,79.07516813278198,97.3532190322876,97.35324001312256,98.64336800575256
0,98.64336800575256,116.93690514564514,116.93692398071289,118.49513411521912
0,118.49513411521912,136.77684116363525,136.77686214447021,138.31352496147156
0,138.31352496147156,156.60175609588623,156.60177612304688,157.99115014076233
0,157.99115014076233,176.17150211334229,176.17152214050293,177.5871479511261
0,177.5871479511261,195.78968501091003,195.7897081375122,197.28726410865784
0,197.28726410865784,215.47426104545593,215.4742820262909,216.89516711235046
0,216.89516711235046,235.11134099960327,235.11136102676392,236.63916397094727
0,236.63916397094727,254.839910030365,254.83993196487427,256.31913208961487
0,256.31913208961487,274.5258860588074,274.52590703964233,275.9341530799866
0,275.9341530799866,294.18842816352844,294.1884479522705,295.91519594192505
0,295.91519594192505,314.1967601776123,314.19677996635437,315.7512011528015
0,315.7512011528015,333.9770121574402,333.97703313827515,335.3753550052643
0,335.3753550052643,353.6769781112671,353.67700004577637,355.20346212387085
0,355.20346212387085,513.3515529632568,513.3515779972076,568.7991659641266
0,568.7991659641266,603.1321361064911,603.132159948349,612.2070209980011
0,612.2070209980011,688.7668030261993,688.7668211460114,694.7231450080872
0,694.7231450080872,712.9613420963287,712.9613630771637,714.3472249507904
0,714.3472249507904,732.562334060669,732.5623550415039,734.1553270816803
0,734.1553270816803,752.4007170200348,752.4007389545441,753.7951281070709
0,753.7951281070709,772.0375089645386,772.0375311374664,773.4872431755066
0,773.4872431755066,791.7540800571442,791.7541029453278,793.1951720714569
0,793.1951720714569,811.4721779823303,811.4721989631653,813.0330741405487
0,813.0330741405487,831.2256691455841,831.2256891727448,832.679151058197
0,832.679151058197,850.9097590446472,850.9097800254822,858.4352099895477
0,858.4352099895477,892.3802111148834,892.3802361488342,897.8341720104218
0,897.8341720104218,931.3284060955048,931.3284289836884,951.0470099449158
0,951.0470099449158,969.2453141212463,969.245334148407,975.4271709918976
0,975.4271709918976,993.6455800533295,993.6456000804901,1001.8992049694061
0,1001.8992049694061,1074.2688190937042,1074.2688410282135,1118.6272871494293
0,1118.6272871494293,1234.8731560707092,1234.8731770515442,1241.1912121772766
0,1241.1912121772766,1262.1619880199432,1262.1620111465454,1270.603157043457
0,1270.603157043457,1288.8127710819244,1288.8127930164337,1297.031347990036
0,1297.031347990036,1315.26877617836,1315.2687950134277,1324.4153089523315
0,1324.4153089523315,1346.0135440826416,1346.0135660171509,1355.4031851291656
0,1355.4031851291656,1373.5411500930786,1373.541169166565,1384.2672040462494
0,1384.2672040462494,1402.5054881572723,1402.50550699234,1412.4071061611176
0,1412.4071061611176,1430.5605399608612,1430.5605609416962,1431.9891901016235
0,1431.9891901016235,1450.3677561283112,1450.3677780628204,1452.243126153946
0,1452.243126153946,1470.5325000286102,1470.5325200557709,1478.5271580219269
0,1478.5271580219269,1496.6962320804596,1496.6962530612946,1498.2351880073547
0,1498.2351880073547,1521.9419159889221,1521.94193816185,1530.8791620731354
0,1530.8791620731354,1551.4378881454468,1551.4379091262817,1560.987004995346
0,1560.987004995346,1579.1337370872498,1579.1337580680847,1589.8031480312347
0,1589.8031480312347,1613.3702330589294,1613.3702540397644,1624.8630599975586
0,1624.8630599975586,1665.6995191574097,1665.6995401382446,1680.5961410999298
0,1680.5961410999298,1707.1383111476898,1707.1383340358734,1714.3797290325165
0,1714.3797290325165,1745.8184070587158,1745.8184299468994,1750.8749959468842
0,1750.8749959468842,1774.2344160079956,1774.2344379425049,1781.1909999847412
0,1781.1909999847412,1803.9384429454803,1803.9384651184082,1813.1874001026154
0,1813.1874001026154,1833.4069521427155,1833.4069740772247,1843.255126953125
0,1843.255126953125,1863.6625831127167,1863.6626060009003,1869.4191551208496
0,1869.4191551208496,1896.3223249912262,1896.3223481178284,1904.1431760787964
0,1904.1431760787964,1924.0336010456085,1924.0336210727692,1932.1030571460724
0,1932.1030571460724,1952.582260131836,1952.5822839736938,1960.515072107315
0,1960.515072107315,1980.7794909477234,1980.7795131206512,1988.4950830936432
0,1988.4950830936432,2012.0303061008453,2012.0303299427032,2017.7271010875702
0,2017.7271010875702,2035.9376180171967,2035.9376440048218,2047.4510929584503
0,2047.4510929584503,2066.4232790470123,2066.4233009815216,2073.767126083374
0,2073.767126083374,2102.7492921352386,2102.749314069748,2108.195111989975
0,2108.195111989975,2136.4148790836334,2136.414899110794,2165.559112071991
0,2165.559112071991,2186.5092799663544,2186.5093030929565,2194.6751379966736
0,2194.6751379966736,2227.745486974716,2227.7455101013184,2234.855327129364
0,2234.855327129364,2253.2034890651703,2253.203511953354,2258.1672689914703
0,2258.1672689914703,2284.812036037445,2284.8120579719543,2309.207009077072
0,2309.207009077072,2343.66797208786,2343.6679921150208,2370.996917963028
0,2370.996917963028,2404.6082770824432,2404.6083011627197,2428.14697098732
0,2428.14697098732,2455.1520631313324,2455.1520841121674,2469.5470831394196
0,2469.5470831394196,2494.7805280685425,2494.7805449962616,2516.610980987549
0,2516.610980987549,2552.1270270347595,2552.127051115036,2558.699005126953
0,2558.699005126953,2582.6407260894775,2582.640748023987,2591.9437630176544
0,2591.9437630176544,2624.2326691150665,2624.232691049576,2631.599002122879
0,2631.599002122879,2655.7733199596405,2655.7733409404755,2677.1710081100464
0,2677.1710081100464,2720.5367171764374,2720.5367410182953,2751.5110080242157
0,2751.5110080242157,2775.729145050049,2775.729168176651,2789.8067491054535
0,2789.8067491054535,2812.665227174759,2812.665249109268,2818.2509751319885
0,2818.2509751319885,2845.01948094368,2845.0195050239563,2863.525048971176
0,2863.525048971176,2883.789453983307,2883.7894761562347,2901.9309899806976
0,2901.9309899806976,2960.5819339752197,2960.581957101822,2984.4350521564484
0,2984.4350521564484,3008.901535987854,3008.9015600681305,3020.9942359924316
0,3020.9942359924316,3044.3266949653625,3044.3267171382904,3054.2751109600067
0,3054.2751109600067,3077.425868988037,3077.4258921146393,3090.5351469516754
0,3090.5351469516754,3113.8978741168976,3113.897896051407,3121.890993118286
0,3121.890993118286,3167.6701259613037,3167.67015004158,3174.7870111465454
0,3174.7870111465454,3196.034234046936,3196.034259080887,3204.8991730213165
0,3204.8991730213165,3226.586181163788,3226.5862040519714,3235.3791110515594
0,3235.3791110515594,3259.2781369686127,3259.278167963028,3271.639109134674
0,3271.639109134674,3311.7491941452026,3311.7492179870605,3319.395038127899
0,3319.395038127899,3370.09872508049,3370.0987479686737,3380.094969034195
0,3380.094969034195,3405.103044986725,3405.103068113327,3414.507145166397
0,3414.507145166397,3451.166522026062,3451.1665489673615,3457.0550060272217
0,3457.0550060272217,3480.0548100471497,3480.054834127426,3493.2189750671387
0,3493.2189750671387,3515.3546030521393,3515.354625940323,3531.8385181427
0,3531.8385181427,3557.067190170288,3557.067214012146,3565.4469740390778
0,3565.4469740390778,3588.434839963913,3588.434863090515,3597.287439107895
0,3597.287439107895,3618.284162044525,3618.2841851711273,3624.127017021179
0,3624.127017021179,3663.8800201416016,3663.8800411224365,3692.639230966568
0,3692.639230966568,3734.9360389709473,3734.9360630512238,3761.195018053055
10,1.358001947402954,447.39171409606934,447.3917360305786,688.7472281455994
10,688.7472281455994,1090.67258810997,1090.672611951828,1154.329978942871
10,1154.329978942871,1521.0943381786346,1521.0943610668182,1589.3458840847015
10,1589.3458840847015,1949.5694711208344,1949.5694930553436,1989.4480390548706
10,1989.4480390548706,2370.955423116684,2370.9554431438446,2434.743824005127
10,2434.743824005127,2803.384847164154,2803.3848700523376,2985.8820130825043
10,2985.8820130825043,3374.334552049637,3374.334575176239,3451.841185092926
11,1.4421570301055908,498.7998220920563,498.79984402656555,688.8392431735992
11,688.8392431735992,1129.7573130130768,1129.7573370933533,1249.5167260169983
11,1249.5167260169983,1620.9702880382538,1620.9703130722046,1851.237550020218
11,1851.237550020218,2224.893419981003,2224.8934440612793,2284.8406031131744
11,2284.8406031131744,2647.512902021408,2647.512927055359,2724.632858991623
11,2724.632858991623,3090.087754011154,3090.0877780914307,3167.2660150527954
11,3167.2660150527954,3555.3750801086426,3555.3751039505005,3768.1729781627655
12,0.4797821044921875,361.3799510002136,361.37997698783875,544.6106929779053
12,544.6106929779053,904.7612509727478,904.7612719535828,958.0573351383209
12,958.0573351383209,1321.4861130714417,1321.4861381053925,1367.7146201133728
12,1367.7146201133728,1745.1745810508728,1745.174604177475,1904.3903090953827
12,1904.3903090953827,2284.4518649578094,2284.4518909454346,2345.813838005066
12,2345.813838005066,2721.3967950344086,2721.3968181610107,2795.6367421150208
12,2795.6367421150208,3173.4221279621124,3173.4221539497375,3367.216634988785
13,0.9938149452209473,426.2278399467468,426.22786116600037,667.9833040237427
13,667.9833040237427,1083.2905299663544,1083.2905530929565,1259.1385011672974
13,1259.1385011672974,1623.4753041267395,1623.4753279685974,1682.8255310058594
13,1682.8255310058594,2047.20272397995,2047.2027440071106,2108.4760570526123
13,2108.4760570526123,2494.139726161957,2494.139748096466,2561.5938291549683
13,2561.5938291549683,2963.529529094696,2963.529555082321,3038.8095710277557
13,3038.8095710277557,3409.626837015152,3409.626860141754,3562.5741391181946
14,1.1102111339569092,409.1432020664215,409.14322304725647,640.6110920906067
14,640.6110920906067,1001.8881411552429,1001.8881630897522,1118.3256030082703
14,1118.3256030082703,1511.952721118927,1511.9527430534363,1594.4065301418304
14,1594.4065301418304,1959.123130083084,1959.1231529712677,2019.825087070465
14,2019.825087070465,2411.4252059459686,2411.4252321720123,2524.675129175186
14,2524.675129175186,2895.025144100189,2895.02516913414,2995.0973041057587
15,0.8778271675109863,402.8435709476471,402.84359097480774,624.4075951576233
15,624.4075951576233,984.6453011035919,984.6453220844269,1015.8189520835876
15,1015.8189520835876,1379.9296021461487,1379.9296259880066,1427.6784889698029
15,1427.6784889698029,1871.0388941764832,1871.0389189720154,1959.609277009964
15,1959.609277009964,2343.668636083603,2343.6686511039734,2424.1939220428467
15,2424.1939220428467,2784.4343659877777,2784.4343860149384,2869.295418024063
1,0.02268695831298828,360.1297459602356,360.12976694107056,501.27948808670044
1,501.27948808670044,861.8962640762329,861.8962831497192,898.1427640914917
1,898.1427640914917,1258.3320920467377,1258.3321120738983,1309.3702111244202
1,1309.3702111244202,1675.6367881298065,1675.6368119716644,1726.673728942871
1,1726.673728942871,2086.905007123947,2086.9050290584564,2137.95596408844
1,2137.95596408844,2517.482335090637,2517.482356071472,2618.85649394989
1,2618.85649394989,2985.6669631004333,2985.666990041733,3063.5093791484833
1,3063.5093791484833,3430.5348160266876,3430.53483915329,3507.2683651447296
2,0.0,360.02142214775085,360.02144408226013,476.80042695999146
2,476.80042695999146,836.8211221694946,836.8211431503296,869.6707670688629
2,869.6707670688629,1238.9224841594696,1238.9225080013275,1280.0746140480042
2,1280.0746140480042,1654.627324104309,1654.627347946167,1739.4620161056519
2,1739.4620161056519,2104.479411125183,2104.479434967041,2168.2503440380096
2,2168.2503440380096,2530.316468000412,2530.3164920806885,2607.9292571544647
2,2607.9292571544647,2985.642075061798,2985.6421041488647,3098.529543161392
2,3098.529543161392,3465.6666231155396,3465.6666469573975,3555.5609891414642
3,0.14201903343200684,360.2054741382599,360.2054979801178,503.5395209789276
3,503.5395209789276,874.0715730190277,874.071594953537,931.0460550785065
3,931.0460550785065,1292.735701084137,1292.735722064972,1338.634642124176
3,1338.634642124176,1708.0622420310974,1708.062266111374,1773.9599521160126
3,1773.9599521160126,2137.696144104004,2137.696170091629,2196.1149740219116
3,2196.1149740219116,2562.39257311821,2562.3925969600677,2684.607807159424
3,2684.607807159424,3061.03280210495,3061.032825946808,3159.656310081482
3,3159.656310081482,3531.8872561454773,3531.887279987335,3598.6008751392365
4,0.9458150863647461,405.48387598991394,405.4839050769806,635.9271709918976
4,635.9271709918976,1000.6107771396637,1000.6107971668243,1120.8736500740051
4,1120.8736500740051,1507.5251240730286,1507.5251441001892,1538.206642150879
4,1538.206642150879,1902.111876964569,1902.1119000911713,1958.8533761501312
4,1958.8533761501312,2319.0556399822235,2319.055660009384,2376.9894001483917
4,2376.9894001483917,2756.1591250896454,2756.159147977829,2845.3001639842987
4,2845.3001639842987,3210.6632421016693,3210.663265943527,3283.0860471725464
4,3283.0860471725464,3674.7090060710907,3674.7090270519257,3746.740200996399
5,1.413999080657959,503.06349897384644,503.06352400779724,695.367879152298
5,695.367879152298,1149.6249930858612,1149.6250171661377,1236.0879299640656
5,1236.0879299640656,1596.256649017334,1596.2566680908203,1628.4110281467438
5,1628.4110281467438,1988.5919699668884,1988.591994047165,2047.6233439445496
5,2047.6233439445496,2430.212270975113,2430.2122950553894,2494.6772689819336
5,2494.6772689819336,2863.771080970764,2863.771106004715,2924.0537831783295
5,2924.0537831783295,3288.3861980438232,3288.3862211704254,3368.631940126419
6,0.4318859577178955,360.99233198165894,360.9923560619354,546.1434440612793
6,546.1434440612793,922.1260681152344,922.1260900497437,980.0047121047974
6,980.0047121047974,1340.2406301498413,1340.2406511306763,1397.8981959819794
6,1397.8981959819794,1760.635344028473,1760.635367155075,1828.5370190143585
6,1828.5370190143585,2193.4185049533844,2193.4185280799866,2254.25759601593
6,2254.25759601593,2625.172574043274,2625.172597169876,2869.420286178589
6,2869.420286178589,3234.2425310611725,3234.2425570487976,3313.0582370758057
6,3313.0582370758057,3677.1103110313416,3677.110335111618,3772.9784829616547
7,1.4577901363372803,502.555349111557,502.5553729534149,695.5954530239105
7,695.5954530239105,1159.5930161476135,1159.5930531024933,1239.221836090088
7,1239.221836090088,1599.4805719852448,1599.4805920124054,1675.5725359916687
7,1675.5725359916687,2035.762542963028,2035.7625629901886,2077.434326171875
7,2077.434326171875,2460.904163122177,2460.904188156128,2524.9039990901947
7,2524.9039990901947,2898.069211959839,2898.069260120392,2972.052875995636
7,2972.052875995636,3351.3408591747284,3351.3408839702606,3416.7494881153107
8,1.4138100147247314,454.0395109653473,454.0395300388336,681.9392781257629
8,681.9392781257629,1088.1422419548035,1088.1422669887543,1244.5244750976562
8,1244.5244750976562,1608.014286994934,1608.0143101215363,1797.1699891090393
8,1797.1699891090393,2165.496412038803,2165.496433019638,2234.8128819465637
8,2234.8128819465637,2604.6879620552063,2604.68798494339,2659.1582610607147
8,2659.1582610607147,3061.468321084976,3061.46834397316,3235.240513086319
8,3235.240513086319,3597.0395431518555,3597.0395679473877,3676.991842031479
9,1.0741820335388184,413.16710209846497,413.16712713241577,640.7627429962158
9,640.7627429962158,1013.6238660812378,1013.6238901615143,1088.109141111374
9,1088.109141111374,1450.1293361186981,1450.1293590068817,1481.4671440124512
9,1481.4671440124512,1843.389083147049,1843.3891079425812,1902.0256350040436
9,1902.0256350040436,2262.1926679611206,2262.1926889419556,2318.1261241436005
9,2318.1261241436005,2684.408970117569,2684.4089930057526,2753.797264099121
9,2753.797264099121,3122.3818900585175,3122.381914138794,3205.887894153595
9,3205.887894153595,3574.054981946945,3574.055006980896,3676.951204061508
