app_id,start_exec,end_exec,start_io,end_io
0,0.07010102272033691,18.08173394203186,18.08175802230835,19.807163953781128
0,19.807163953781128,38.093843936920166,38.09386396408081,39.80011200904846
0,39.80011200904846,58.08218502998352,58.08221483230591,59.915956020355225
0,59.915956020355225,78.16405296325684,78.16407489776611,80.16697382926941
0,80.16697382926941,98.43396282196045,98.43398404121399,100.20792198181152
0,100.20792198181152,118.4440848827362,118.44410705566406,120.25682091712952
0,120.25682091712952,138.56952500343323,138.5695459842682,140.47596287727356
0,140.47596287727356,158.77787399291992,158.77789497375488,160.53590893745422
0,160.53590893745422,178.74849200248718,178.74851489067078,180.67601704597473
0,180.67601704597473,198.96211791038513,198.9621398448944,200.904541015625
0,200.904541015625,219.19024300575256,219.19026494026184,221.04394602775574
0,221.04394602775574,239.27803993225098,239.27806186676025,241.18795204162598
0,241.18795204162598,259.4992690086365,259.4992949962616,261.24792098999023
0,261.24792098999023,279.4777579307556,279.4777798652649,281.2719449996948
0,281.2719449996948,299.56759691238403,299.567617893219,301.35203886032104
0,301.35203886032104,319.54544591903687,319.54546785354614,321.3318979740143
0,321.3318979740143,339.60933899879456,339.60936093330383,341.4119508266449
0,341.4119508266449,359.72286891937256,359.72292494773865,364.84693002700806
0,364.84693002700806,655.8418760299683,655.841903924942,668.4078118801117
0,668.4078118801117,706.7258050441742,706.7258279323578,719.103521823883
0,719.103521823883,766.0398190021515,766.0398428440094,813.9717798233032
0,813.9717798233032,832.2256579399109,832.2256798744202,834.2159519195557
0,834.2159519195557,852.4621298313141,852.462152004242,854.5038969516754
0,854.5038969516754,872.7139248847961,872.7139468193054,874.7198150157928
0,874.7198150157928,892.9907808303833,892.9908030033112,894.9696190357208
0,894.9696190357208,934.661062002182,934.6610848903656,939.9637598991394
0,939.9637598991394,977.7465479373932,977.7465708255768,1047.1285090446472
0,1047.1285090446472,1066.7428448200226,1066.7428698539734,1077.763846874237
0,1077.763846874237,1095.9787719249725,1095.9787919521332,1101.1999049186707
0,1101.1999049186707,1119.5137820243835,1119.5138030052185,1130.9160130023956
0,1130.9160130023956,1158.6441679000854,1158.644201040268,1167.9957249164581
0,1167.9957249164581,1284.2089400291443,1284.2089648246765,1316.2357759475708
0,1316.2357759475708,1341.4675509929657,1341.4675738811493,1351.7678928375244
0,1351.7678928375244,1371.6913290023804,1371.6913578510284,1377.0670850276947
0,1377.0670850276947,1396.249722957611,1396.2497448921204,1405.6531128883362
0,1405.6531128883362,1424.188244819641,1424.1882679462433,1430.1718978881836
0,1430.1718978881836,1448.3572909832,1448.357311964035,1450.768002986908
0,1450.768002986908,1469.0933768749237,1469.0933978557587,1474.6359598636627
0,1474.6359598636627,1492.8017678260803,1492.8017909526825,1493.9279210567474
0,1493.9279210567474,1512.2257969379425,1512.2258179187775,1518.412003993988
0,1518.412003993988,1536.6426730155945,1536.6426939964294,1537.8494138717651
0,1537.8494138717651,1556.0580580234528,1556.0580790042877,1557.1839530467987
0,1557.1839530467987,1575.3622620105743,1575.362284898758,1576.4999558925629
0,1576.4999558925629,1594.7624819278717,1594.7625029087067,1600.307991027832
0,1600.307991027832,1618.4761469364166,1618.476168870926,1620.8134288787842
0,1620.8134288787842,1639.0655510425568,1639.065572977066,1641.1839678287506
0,1641.1839678287506,1659.4312789440155,1659.4313008785248,1664.6559598445892
0,1664.6559598445892,1685.2956578731537,1685.2956838607788,1690.9199650287628
0,1690.9199650287628,1714.5856249332428,1714.5856478214264,1722.8118999004364
0,1722.8118999004364,1742.580734014511,1742.5807650089264,1745.9160828590393
0,1745.9160828590393,1769.0587229728699,1769.058748960495,1771.7204089164734
0,1771.7204089164734,1794.0479929447174,1794.048017024994,1799.423898935318
0,1799.423898935318,1818.3359768390656,1818.3359990119934,1821.8118088245392
0,1821.8118088245392,1850.2671020030975,1850.2671248912811,1857.2260780334473
0,1857.2260780334473,1888.2048239707947,1888.2048439979553,1891.8639340400696
0,1891.8639340400696,1910.193482875824,1910.193503856659,1914.5758829116821
0,1914.5758829116821,1932.7860238552094,1932.7860448360443,1934.1239728927612
0,1934.1239728927612,1952.345713853836,1952.345734834671,1953.659924030304
0,1953.659924030304,1971.8700218200684,1971.870043039322,1980.5239720344543
0,1980.5239720344543,1998.7617979049683,1998.7618198394775,2000.0359399318695
0,2000.0359399318695,2018.282408952713,2018.282429933548,2025.0039339065552
0,2025.0039339065552,2043.3108999729156,2043.310921907425,2049.3999528884888
0,2049.3999528884888,2067.6178328990936,2067.6178529262543,2075.591948032379
0,2075.591948032379,2093.7967178821564,2093.7967400550842,2101.3800098896027
0,2101.3800098896027,2119.6346938610077,2119.6347160339355,2120.8679718971252
0,2120.8679718971252,2141.1486690044403,2141.148691892624,2145.2273399829865
0,2145.2273399829865,2165.0019710063934,2165.0019948482513,2171.9918959140778
0,2171.9918959140778,2191.980721950531,2191.980746984482,2200.17125082016
0,2200.17125082016,2229.025085926056,2229.025111913681,2236.531975030899
0,2236.531975030899,2259.721072912216,2259.7210960388184,2264.8918240070343
0,2264.8918240070343,2287.648376941681,2287.6484010219574,2297.819841861725
0,2297.819841861725,2317.972645044327,2317.9726729393005,2326.16019487381
0,2326.16019487381,2344.4421360492706,2344.4421570301056,2348.4227459430695
0,2348.4227459430695,2366.6652269363403,2366.6652479171753,2372.427939891815
0,2372.427939891815,2390.673727989197,2390.6737489700317,2397.9199550151825
0,2397.9199550151825,2416.093425989151,2416.0934488773346,2417.7224419116974
0,2417.7224419116974,2435.9824879169464,2435.982507944107,2441.1719558238983
0,2441.1719558238983,2459.4539120197296,2459.453933954239,2465.6959788799286
0,2465.6959788799286,2483.963697910309,2483.963718891144,2491.223918914795
0,2491.223918914795,2509.4751420021057,2509.475163936615,2510.887388944626
0,2510.887388944626,2529.1819360256195,2529.1819570064545,2536.947954893112
0,2536.947954893112,2555.145630836487,2555.1456520557404,2562.183931827545
0,2562.183931827545,2580.4618859291077,2580.4619069099426,2589.7599618434906
0,2589.7599618434906,2609.8775918483734,2609.877616882324,2614.13573884964
0,2614.13573884964,2633.89337682724,2633.893401861191,2642.8479659557343
0,2642.8479659557343,2663.700350046158,2663.7003729343414,2668.69194483757
0,2668.69194483757,2686.949331998825,2686.9493589401245,2691.5439069271088
0,2691.5439069271088,2712.408535003662,2712.408560037613,2715.455929994583
0,2715.455929994583,2737.451159954071,2737.4511840343475,2740.027930021286
0,2740.027930021286,2760.6783118247986,2760.6783368587494,2764.092185020447
0,2764.092185020447,2783.9735050201416,2783.9735300540924,2786.9838860034943
0,2786.9838860034943,2807.743561029434,2807.7435908317566,2810.514662027359
0,2810.514662027359,2829.7737588882446,2829.7737848758698,2836.2879338264465
0,2836.2879338264465,2854.568832874298,2854.568855047226,2859.619964838028
0,2859.619964838028,2877.813854932785,2877.81387591362,2884.147985935211
0,2884.147985935211,2902.417717933655,2902.4177408218384,2911.61195397377
0,2911.61195397377,2929.7858769893646,2929.785898923874,2937.9519629478455
0,2937.9519629478455,2956.2011799812317,2956.2012038230896,2959.171900033951
0,2959.171900033951,2977.402799844742,2977.402822971344,2982.572011947632
0,2982.572011947632,3000.7717230319977,3000.771744966507,3002.2319388389587
0,3002.2319388389587,3022.865732908249,3022.865756034851,3030.2637419700623
0,3030.2637419700623,3050.932235956192,3050.9322769641876,3058.351963996887
0,3058.351963996887,3083.102730035782,3083.102756023407,3092.411854028702
0,3092.411854028702,3114.4260008335114,3114.426025867462,3124.2876720428467
0,3124.2876720428467,3144.4177508354187,3144.417776823044,3152.2677998542786
0,3152.2677998542786,3174.298450946808,3174.298472881317,3182.7318320274353
0,3182.7318320274353,3203.990732908249,3203.9907579421997,3213.3838028907776
0,3213.3838028907776,3248.6068098545074,3248.6068329811096,3254.423894882202
0,3254.423894882202,3274.771721839905,3274.7717459201813,3277.439913034439
0,3277.439913034439,3297.990821838379,3297.990847826004,3302.8599138259888
0,3302.8599138259888,3328.8372049331665,3328.837229013443,3331.2239780426025
0,3331.2239780426025,3356.5447838306427,3356.5448110103607,3359.4079298973083
0,3359.4079298973083,3377.6387009620667,3377.6387219429016,3384.4439709186554
0,3384.4439709186554,3402.7179539203644,3402.7179770469666,3404.167953014374
0,3404.167953014374,3422.486795902252,3422.4868218898773,3430.187996864319
0,3430.187996864319,3450.3387479782104,3450.338770866394,3455.071799993515
0,3455.071799993515,3478.0853168964386,3478.0853378772736,3494.719913005829
0,3494.719913005829,3525.266480922699,3525.26651096344,3528.5998709201813
0,3528.5998709201813,3549.094857931137,3549.094883918762,3553.3078620433807
0,3553.3078620433807,3573.978576898575,3573.9786019325256,3580.7080318927765
0,3580.7080318927765,3603.8185198307037,3603.8185470104218,3612.7158720493317
0,3612.7158720493317,3632.834995985031,3632.835024833679,3639.235775947571
0,3639.235775947571,3658.911635875702,3658.9116599559784,3667.8479199409485
0,3667.8479199409485,3689.215833902359,3689.215859889984,3697.09939289093
0,3697.09939289093,3719.8843359947205,3719.884363889694,3730.848846912384
0,3730.848846912384,3776.3353400230408,3776.335364818573,3783.4317770004272
10,1.6265809535980225,507.63792991638184,507.6379499435425,814.2355349063873
10,814.2355349063873,1220.8808150291443,1220.8808398246765,1349.3967559337616
10,1349.3967559337616,1715.3033609390259,1715.3033828735352,1768.8260128498077
10,1768.8260128498077,2129.050189971924,2129.050211906433,2151.9910979270935
10,2151.9910979270935,2512.2096338272095,2512.209655046463,2537.253762960434
10,2537.253762960434,2897.510999917984,2897.511020898819,2924.0483169555664
10,2924.0483169555664,3284.23446893692,3284.234489917755,3329.531363964081
10,3329.531363964081,3697.0924718379974,3697.092495918274,3776.184898853302
11,1.386598825454712,362.7484109401703,362.7484359741211,459.6631660461426
11,459.6631660461426,894.3505530357361,894.350574016571,935.9400160312653
11,935.9400160312653,1330.0876739025116,1330.087697982788,1406.0502309799194
11,1406.0502309799194,1771.4536669254303,1771.4536910057068,1818.3945138454437
11,1818.3945138454437,2180.540531873703,2180.540555000305,2236.682426929474
11,2236.682426929474,2596.885838031769,2596.885857820511,2642.8594229221344
11,2642.8594229221344,3003.1131749153137,3003.113196849823,3055.321683883667
11,3055.321683883667,3415.5463750362396,3415.546396970749,3446.301455974579
12,1.4509398937225342,371.51719093322754,371.517217874527,493.9556670188904
12,493.9556670188904,934.6476628780365,934.6476898193359,1047.4886269569397
12,1047.4886269569397,1407.681429862976,1407.681450843811,1429.8360269069672
12,1429.8360269069672,1798.2501418590546,1798.2501649856567,1858.0539920330048
12,1858.0539920330048,2228.8828949928284,2228.882920026779,2284.97399187088
12,2284.97399187088,2645.165864944458,2645.1658878326416,2691.9439709186554
12,2691.9439709186554,3056.9654269218445,3056.965453863144,3106.3674490451813
12,3106.3674490451813,3485.8814108371735,3485.8814380168915,3526.091544866562
13,1.4745838642120361,484.7293908596039,484.7294099330902,772.9316029548645
13,772.9316029548645,1174.3346478939056,1174.3346738815308,1316.760973930359
13,1316.760973930359,1681.134260892868,1681.134281873703,1772.0664339065552
13,1772.0664339065552,2133.8202769756317,2133.8203020095825,2237.4420280456543
13,2237.4420280456543,2597.687472820282,2597.6874990463257,2643.278188943863
13,2643.278188943863,3003.4755849838257,3003.4756078720093,3064.0815720558167
13,3064.0815720558167,3429.083216905594,3429.083237886429,3480.9748768806458
14,1.3548250198364258,367.4773669242859,367.47739005088806,602.3397128582001
14,602.3397128582001,1033.4122848510742,1033.4123139381409,1096.3418219089508
14,1096.3418219089508,1456.5745749473572,1456.5745959281921,1479.2520530223846
14,1479.2520530223846,1850.2281708717346,1850.2281968593597,1892.201201915741
14,1892.201201915741,2254.2675268650055,2254.2675490379333,2305.1144099235535
14,2305.1144099235535,2667.725924015045,2667.7259500026703,2714.3586859703064
14,2714.3586859703064,3074.6221890449524,3074.6222138404846,3127.813001871109
14,3127.813001871109,3498.0982258319855,3498.098249912262,3552.9232308864594
15,1.7145719528198242,515.081652879715,515.0816738605499,823.0316638946533
15,823.0316638946533,1250.1226918697357,1250.1227169036865,1365.0919148921967
15,1365.0919148921967,1727.363648891449,1727.3636729717255,1891.8351459503174
15,1891.8351459503174,2257.0165679454803,2257.016592979431,2348.690127849579
15,2348.690127849579,2713.93376994133,2713.933795928955,2775.0764858722687
15,2775.0764858722687,3135.2941858768463,3135.294208049774,3197.274363040924
15,3197.274363040924,3557.478001832962,3557.478024959564,3782.605943918228
1,0.0,360.012699842453,360.01272082328796,479.6563320159912
1,479.6563320159912,899.0977430343628,899.0977649688721,981.2203550338745
1,981.2203550338745,1353.035425901413,1353.0354490280151,1403.6829478740692
1,1403.6829478740692,1768.9906158447266,1768.990639925003,1809.415493965149
1,1809.415493965149,2172.0695898532867,2172.069612979889,2209.879026889801
1,2209.879026889801,2570.0621988773346,2570.0622198581696,2595.708081007004
1,2595.708081007004,2955.941766023636,2955.9417848587036,2982.9879570007324
1,2982.9879570007324,3343.249655008316,3343.2496769428253,3385.483542919159
2,0.15108299255371094,360.16837191581726,360.16839385032654,584.2052938938141
2,584.2052938938141,968.0965049266815,968.0965390205383,1062.7607049942017
2,1062.7607049942017,1422.953644990921,1422.9536669254303,1451.2101588249207
2,1451.2101588249207,1813.1364510059357,1813.1364760398865,1857.3506269454956
2,1857.3506269454956,2228.8426039218903,2228.8426270484924,2262.2920229434967
2,2262.2920229434967,2630.8611450195312,2630.861166000366,2668.116001844406
2,2668.116001844406,3030.170513868332,3030.170534849167,3078.511041879654
2,3078.511041879654,3440.7310659885406,3440.7310919761658,3498.8657279014587
3,1.4750888347625732,493.55372881889343,493.553750038147,772.3596658706665
3,772.3596658706665,1134.134486913681,1134.1345109939575,1257.2093319892883
3,1257.2093319892883,1617.3070769309998,1617.307098865509,1641.560101032257
3,1641.560101032257,2001.803855895996,2001.803876876831,2025.4114120006561
3,2025.4114120006561,2385.669277906418,2385.669298887253,2410.924422979355
3,2410.924422979355,2771.1537170410156,2771.153738975525,2810.643304824829
3,2810.643304824829,3175.9583220481873,3175.9583439826965,3238.6107120513916
3,3238.6107120513916,3603.2587089538574,3603.2587349414825,3664.058478832245
4,1.6526098251342773,528.8296480178833,528.8296699523926,817.6639819145203
4,817.6639819145203,1220.1427419185638,1220.142765045166,1288.8045308589935
4,1288.8045308589935,1648.974310874939,1648.9743330478668,1672.0002100467682
4,1672.0002100467682,2032.261929988861,2032.261950969696,2055.507390022278
4,2055.507390022278,2415.749447822571,2415.7494690418243,2441.5825049877167
4,2441.5825049877167,2801.8026649951935,2801.8026869297028,2834.5714190006256
4,2834.5714190006256,3194.842491865158,3194.842512845993,3250.4705748558044
4,3250.4705748558044,3613.5504858493805,3613.550509929657,3677.134265899658
5,1.5149219036102295,526.2496149539948,526.2496349811554,822.2957179546356
5,822.2957179546356,1236.5831608772278,1236.58318400383,1312.9060089588165
5,1312.9060089588165,1673.0659818649292,1673.0660049915314,1696.6717789173126
5,1696.6717789173126,2056.921732902527,2056.921754837036,2079.8558559417725
5,2079.8558559417725,2440.070128917694,2440.070149898529,2466.0600130558014
5,2466.0600130558014,2826.237454891205,2826.23747587204,2860.179911851883
5,2860.179911851883,3222.7109549045563,3222.7109808921814,3275.5750019550323
5,3275.5750019550323,3648.898934841156,3648.898959875107,3704.943506002426
6,1.5065770149230957,482.66955304145813,482.6695718765259,766.1595578193665
6,766.1595578193665,1126.417445898056,1126.4174659252167,1217.0873148441315
6,1217.0873148441315,1581.2674028873444,1581.267422914505,1604.2119479179382
6,1604.2119479179382,1964.4779200553894,1964.4779398441315,1988.2319300174713
6,1988.2319300174713,2348.48414683342,2348.4841680526733,2372.8838410377502
6,2372.8838410377502,2736.954833984375,2736.954857826233,2785.6606879234314
6,2785.6606879234314,3150.4707720279694,3150.470794916153,3200.5426568984985
6,3200.5426568984985,3563.226905822754,3563.2269308567047,3613.874848842621
7,0.6946120262145996,362.30752396583557,362.3075489997864,602.6318469047546
7,602.6318469047546,1047.8114650249481,1047.811488866806,1137.6860070228577
7,1137.6860070228577,1497.9580879211426,1497.9581110477448,1521.1720869541168
7,1521.1720869541168,1889.3358998298645,1889.335923910141,1915.240075826645
7,1915.240075826645,2283.3009538650513,2283.3009769916534,2335.342960834503
7,2335.342960834503,2695.5380358695984,2695.538055896759,2738.42378783226
7,2738.42378783226,3098.779440879822,3098.7794630527496,3154.670639038086
7,3154.670639038086,3525.8023710250854,3525.8023958206177,3581.130357980728
8,1.6389050483703613,554.3377959728241,554.3378219604492,825.1407828330994
8,825.1407828330994,1265.1130878925323,1265.1131148338318,1361.8849139213562
8,1361.8849139213562,1723.1405358314514,1723.140559911728,1771.788822889328
8,1771.788822889328,2132.141433954239,2132.141454935074,2177.129103899002
8,2177.129103899002,2537.386169910431,2537.3861889839172,2562.5920169353485
8,2562.5920169353485,2922.8106548786163,2922.8106758594513,2949.4839358329773
8,2949.4839358329773,3309.7016179561615,3309.701639890671,3356.967221021652
8,3356.967221021652,3727.631737947464,3727.6317608356476,3784.7810850143433
9,1.427008867263794,497.62150287628174,497.6215229034424,814.2277579307556
9,814.2277579307556,1220.1283168792725,1220.128340959549,1317.6306519508362
9,1317.6306519508362,1684.135658979416,1684.1356828212738,1723.4869890213013
9,1723.4869890213013,2083.6705379486084,2083.670562028885,2107.8358829021454
9,2107.8358829021454,2468.029443025589,2468.029464006424,2493.387923002243
9,2493.387923002243,2853.5400660037994,2853.5400879383087,2884.843997001648
9,2884.843997001648,3249.5184149742126,3249.5184428691864,3302.762781858444
9,3302.762781858444,3667.084406852722,3667.0844309329987,3733.006366968155
