app_id,start_exec,end_exec,start_io,end_io
0,0.0,18.012766122817993,18.01278805732727,20.03146004676819
0,20.03146004676819,38.272353172302246,38.27236318588257,40.23986005783081
0,40.23986005783081,58.48079299926758,58.48081111907959,60.59929418563843
0,60.59929418563843,78.79585218429565,78.79586219787598,80.77930498123169
0,80.77930498123169,99.04578399658203,99.0457980632782,101.00329208374023
0,101.00329208374023,119.33723711967468,119.33724808692932,121.3393189907074
0,121.3393189907074,139.58486104011536,139.58487200737,141.59536218643188
0,141.59536218643188,159.83403205871582,159.83404397964478,161.87928915023804
0,161.87928915023804,180.07720518112183,180.07721519470215,181.98402214050293
0,181.98402214050293,200.24553799629211,200.24554896354675,202.21931099891663
0,202.21931099891663,220.46065211296082,220.46066617965698,222.52732300758362
0,222.52732300758362,240.86846208572388,240.86847305297852,242.91526818275452
0,242.91526818275452,261.12917017936707,261.129182100296,263.01944398880005
0,263.01944398880005,281.27192902565,281.27193999290466,283.3153111934662
0,283.3153111934662,301.5967001914978,301.59671115875244,303.53940320014954
0,303.53940320014954,321.7972741127014,321.79728412628174,323.7872841358185
0,323.7872841358185,342.0681040287018,342.06811714172363,344.0553500652313
0,344.0553500652313,380.2239429950714,380.2239730358124,385.4037220478058
0,385.4037220478058,423.8158869743347,423.81590700149536,436.81891918182373
0,436.81891918182373,458.45603108406067,458.45605301856995,466.13755917549133
0,466.13755917549133,487.0643939971924,487.0644111633301,506.67494106292725
0,506.67494106292725,530.0776610374451,530.0776810646057,544.7113230228424
0,544.7113230228424,567.2481889724731,567.2482249736786,581.0431351661682
0,581.0431351661682,606.0404939651489,606.0405170917511,619.1671750545502
0,619.1671750545502,642.3203291893005,642.320347070694,652.3151321411133
0,652.3151321411133,673.5921440124512,673.5921621322632,681.2791621685028
0,681.2791621685028,703.5970330238342,703.5970511436462,715.9905071258545
0,715.9905071258545,739.0843541622162,739.0843720436096,753.4979040622711
0,753.4979040622711,777.69655418396,777.6965770721436,790.8591780662537
0,790.8591780662537,812.2045931816101,812.2046129703522,820.6871039867401
0,820.6871039867401,840.2687640190125,840.2687861919403,843.3992609977722
0,843.3992609977722,862.8216061592102,862.821622133255,868.9073061943054
0,868.9073061943054,888.8844890594482,888.8845121860504,895.1593129634857
0,895.1593129634857,916.6247689723969,916.624783039093,922.1385490894318
0,922.1385490894318,943.157870054245,943.1578919887543,947.2607080936432
0,947.2607080936432,967.6139121055603,967.6139349937439,971.1031801700592
0,971.1031801700592,990.7899241447449,990.7899470329285,999.6673171520233
0,999.6673171520233,1019.5217471122742,1019.5217680931091,1023.0936679840088
0,1023.0936679840088,1041.304454088211,1041.30446600914,1043.1873281002045
0,1043.1873281002045,1061.3888070583344,1061.3888230323792,1064.7873361110687
0,1064.7873361110687,1083.0216801166534,1083.021691083908,1084.1910150051117
0,1084.1910150051117,1102.4084861278534,1102.4084980487823,1110.9115619659424
0,1110.9115619659424,1129.1609241962433,1129.1609380245209,1135.3638231754303
0,1135.3638231754303,1153.5886821746826,1153.5886931419373,1154.7908639907837
0,1154.7908639907837,1172.9615490436554,1172.9615609645844,1175.1234521865845
0,1175.1234521865845,1193.3771011829376,1193.3771150112152,1195.8913459777832
0,1195.8913459777832,1214.1685531139374,1214.168564081192,1215.3433890342712
0,1215.3433890342712,1235.24893116951,1235.2489461898804,1243.4633541107178
0,1243.4633541107178,1263.1326310634613,1263.1326520442963,1265.411357164383
0,1265.411357164383,1297.514631986618,1297.5146570205688,1302.0193991661072
0,1302.0193991661072,1321.6580781936646,1321.6580941677094,1325.0622351169586
0,1325.0622351169586,1344.0294551849365,1344.0294749736786,1348.0793430805206
0,1348.0793430805206,1368.3566851615906,1368.356700181961,1374.4713771343231
0,1374.4713771343231,1392.689171075821,1392.6891841888428,1399.3593580722809
0,1399.3593580722809,1418.9187860488892,1418.918802022934,1428.4072670936584
0,1428.4072670936584,1454.604660987854,1454.6046831607819,1465.7153160572052
0,1465.7153160572052,1483.9335579872131,1483.9335720539093,1489.1473531723022
0,1489.1473531723022,1507.3731451034546,1507.3731560707092,1508.5205240249634
0,1508.5205240249634,1526.780906200409,1526.780918121338,1532.6433300971985
0,1532.6433300971985,1550.8303480148315,1550.8303589820862,1551.9481689929962
0,1551.9481689929962,1570.1969549655914,1570.1969680786133,1576.2633800506592
0,1576.2633800506592,1594.5011451244354,1594.50115609169,1595.8033421039581
0,1595.8033421039581,1614.008507013321,1614.0085201263428,1620.7473220825195
0,1620.7473220825195,1638.9185860157013,1638.9185991287231,1646.923350095749
0,1646.923350095749,1665.5653290748596,1665.5653522014618,1668.87531208992
0,1668.87531208992,1689.5575330257416,1689.5575511455536,1696.8472621440887
0,1696.8472621440887,1716.9224150180817,1716.9224300384521,1724.7816081047058
0,1724.7816081047058,1744.1195061206818,1744.119525194168,1748.5713031291962
0,1748.5713031291962,1767.8497891426086,1767.849811077118,1771.319346189499
0,1771.319346189499,1789.5557460784912,1789.5557689666748,1793.4512901306152
0,1793.4512901306152,1813.2092220783234,1813.2092440128326,1815.8993611335754
0,1815.8993611335754,1835.5422251224518,1835.5422430038452,1839.4473249912262
0,1839.4473249912262,1860.9260020256042,1860.926022052765,1869.2261199951172
0,1869.2261199951172,1887.4128170013428,1887.4128301143646,1894.613851070404
0,1894.613851070404,1912.822228193283,1912.8222410678864,1921.3153400421143
0,1921.3153400421143,1939.558093070984,1939.5581061840057,1940.812786102295
0,1940.812786102295,1959.0484840869904,1959.0484972000122,1964.5873310565948
0,1964.5873310565948,1982.7889151573181,1982.788927078247,1984.0913300514221
0,1984.0913300514221,2002.2702341079712,2002.2702491283417,2008.8993101119995
0,2008.8993101119995,2027.1250231266022,2027.1250350475311,2034.9993150234222
0,2034.9993150234222,2053.2206041812897,2053.2206151485443,2054.55930018425
0,2054.55930018425,2073.744453191757,2073.744467020035,2079.571312189102
0,2079.571312189102,2099.690211057663,2099.6902301311493,2103.8192541599274
0,2103.8192541599274,2124.7699801921844,2124.7699949741364,2128.9273240566254
0,2128.9273240566254,2149.4151680469513,2149.415184020996,2154.2512550354004
0,2154.2512550354004,2174.7174739837646,2174.7174940109253,2178.7912871837616
0,2178.7912871837616,2197.713795185089,2197.7138171195984,2200.6673171520233
0,2200.6673171520233,2221.049668073654,2221.0496912002563,2227.40328001976
0,2227.40328001976,2246.9333469867706,2246.933361053467,2249.8033010959625
0,2249.8033010959625,2270.4863200187683,2270.486335992813,2274.5593140125275
0,2274.5593140125275,2295.48206615448,2295.4820840358734,2300.0076110363007
0,2300.0076110363007,2318.1849970817566,2318.1850101947784,2324.647166967392
0,2324.647166967392,2342.879753112793,2342.879765033722,2351.9712290763855
0,2351.9712290763855,2370.200594186783,2370.2006051540375,2371.615303993225
0,2371.615303993225,2389.8143010139465,2389.8143169879913,2396.286791086197
0,2396.286791086197,2414.4166951179504,2414.4167070388794,2423.3501040935516
0,2423.3501040935516,2441.6306080818176,2441.630625963211,2443.6908299922943
0,2443.6908299922943,2461.817981004715,2461.8179931640625,2468.37571310997
0,2468.37571310997,2486.689239025116,2486.689257144928,2494.275382041931
0,2494.275382041931,2512.424993991852,2512.4250071048737,2519.839354991913
0,2519.839354991913,2538.0197081565857,2538.0197219848633,2543.779340028763
0,2543.779340028763,2561.9104211330414,2561.9104330539703,2568.1313140392303
0,2568.1313140392303,2586.324737071991,2586.324751138687,2598.611349105835
0,2598.611349105835,2618.9222190380096,2618.92223405838,2627.711326122284
0,2627.711326122284,2648.3869771957397,2648.3869919776917,2654.927155017853
0,2654.927155017853,2673.181286096573,2673.1813011169434,2681.1514151096344
0,2681.1514151096344,2702.2693819999695,2702.2694051265717,2708.715219974518
0,2708.715219974518,2726.9587490558624,2726.958773136139,2732.899624109268
0,2732.899624109268,2753.2500669956207,2753.2500879764557,2758.1753311157227
0,2758.1753311157227,2778.7742750644684,2778.774291038513,2785.12735414505
0,2785.12735414505,2805.9943401813507,2805.99435710907,2813.5793340206146
0,2813.5793340206146,2834.0138959884644,2834.013911008835,2839.6913080215454
0,2839.6913080215454,2859.338863134384,2859.3388781547546,2867.263324022293
0,2867.263324022293,2887.390196084976,2887.3902111053467,2894.563238143921
0,2894.563238143921,2914.866259098053,2914.8662741184235,2923.167345046997
0,2923.167345046997,2944.549118041992,2944.5491330623627,2950.967318058014
0,2950.967318058014,2971.0148541927338,2971.0148689746857,2978.815304040909
0,2978.815304040909,2999.4492580890656,2999.449273109436,3007.0633070468903
0,3007.0633070468903,3027.630362033844,3027.630380153656,3034.431257009506
0,3034.431257009506,3055.190229177475,3055.19024515152,3062.923222064972
0,3062.923222064972,3083.6105210781097,3083.61053609848,3091.6199140548706
0,3091.6199140548706,3112.6930680274963,3112.693088054657,3120.0673010349274
0,3120.0673010349274,3141.338175058365,3141.338198184967,3148.839250087738
0,3148.839250087738,3169.330197095871,3169.3302099704742,3174.9392890930176
0,3174.9392890930176,3196.3947830200195,3196.3948051929474,3201.486499071121
0,3201.486499071121,3222.3543570041656,3222.354372024536,3228.6793100833893
0,3228.6793100833893,3249.5673751831055,3249.5673971176147,3256.3392810821533
0,3256.3392810821533,3275.4068369865417,3275.4068591594696,3281.8993310928345
0,3281.8993310928345,3300.5864930152893,3300.586517095566,3305.699203968048
0,3305.699203968048,3326.058333158493,3326.058354139328,3334.3752801418304
0,3334.3752801418304,3355.2877271175385,3355.287747144699,3360.4112470149994
0,3360.4112470149994,3381.1586470603943,3381.1586639881134,3389.819347143173
0,3389.819347143173,3410.8264470100403,3410.826462984085,3418.735244035721
0,3418.735244035721,3440.0126881599426,3440.0127069950104,3449.891235113144
0,3449.891235113144,3469.9031829833984,3469.9032020568848,3477.0472609996796
0,3477.0472609996796,3498.88853597641,3498.888554096222,3506.7234251499176
0,3506.7234251499176,3524.893848180771,3524.8938670158386,3533.7913579940796
0,3533.7913579940796,3553.954810142517,3553.9548330307007,3558.0392479896545
0,3558.0392479896545,3582.9699201583862,3582.969940185547,3586.76731801033
0,3586.76731801033,3606.566635131836,3606.5666580200195,3610.6792051792145
0,3610.6792051792145,3633.3738770484924,3633.373897075653,3641.889041185379
0,3641.889041185379,3663.0359151363373,3663.035933971405,3669.979338169098
0,3669.979338169098,3691.154909133911,3691.154927968979,3699.9152550697327
0,3699.9152550697327,3721.2031450271606,3721.203168153763,3727.3672699928284
0,3727.3672699928284,3749.511080980301,3749.5110981464386,3755.9953479766846
0,3755.9953479766846,3777.0747430324554,3777.074763059616,3783.443281173706
10,1.477971076965332,379.31612610816956,379.31615018844604,766.1732909679413
10,766.1732909679413,1126.3211500644684,1126.3211641311646,1149.0232701301575
10,1149.0232701301575,1509.2330191135406,1509.2330331802368,1532.922698020935
10,1532.922698020935,1894.5390181541443,1894.5390319824219,1928.862666130066
10,1928.862666130066,2291.446456193924,2291.4464781284332,2342.178745985031
10,2342.178745985031,2708.6433680057526,2708.6433930397034,2758.2594900131226
10,2758.2594900131226,3119.9832639694214,3119.983298063278,3175.245376110077
10,3175.245376110077,3535.4193711280823,3535.4193861484528,3586.9497389793396
11,1.4379751682281494,716.1964790821075,716.1964950561523,811.9542450904846
11,811.9542450904846,1172.128317117691,1172.1283299922943,1196.2552921772003
11,1196.2552921772003,1556.4894151687622,1556.4894280433655,1579.6749939918518
11,1579.6749939918518,1939.8769800662994,1939.8769931793213,1965.0791630744934
11,1965.0791630744934,2325.3041729927063,2325.3041870594025,2366.910758972168
11,2366.910758972168,2731.552762031555,2731.5527851581573,2785.538745164871
11,2785.538745164871,3148.095686197281,3148.09570813179,3209.6375641822815
11,3209.6375641822815,3588.437126159668,3588.4371390342712,3642.295958042145
12,1.294152021408081,374.2158010005951,374.2158260345459,896.3730089664459
12,896.3730089664459,1256.4969851970673,1256.4969990253448,1302.1299619674683
12,1302.1299619674683,1662.4965159893036,1662.4965319633484,1706.3497631549835
12,1706.3497631549835,2067.0516221523285,2067.0516459941864,2103.710762023926
12,2103.710762023926,2467.13751912117,2467.137535095215,2495.3755140304565
12,2495.3755140304565,2855.529261112213,2855.5292761325836,2895.7235350608826
12,2895.7235350608826,3256.286115169525,3256.2861380577087,3312.8421289920807
12,3312.8421289920807,3673.0732719898224,3673.0732860565186,3745.6317620277405
13,1.2583200931549072,366.8642590045929,366.8642840385437,957.5639581680298
13,957.5639581680298,1317.7892451286316,1317.7892670631409,1348.446503162384
13,1348.446503162384,1708.65483212471,1708.6548480987549,1750.686329126358
13,1750.686329126358,2110.8851850032806,2110.8852009773254,2153.7507309913635
13,2153.7507309913635,2519.640319108963,2519.6403341293335,2547.207184076309
13,2547.207184076309,2907.351032972336,2907.351047039032,2951.542806148529
13,2951.542806148529,3311.728613138199,3311.7286269664764,3366.885758161545
13,3366.885758161545,3727.276519060135,3727.2765390872955,3800.2647981643677
14,1.4739680290222168,378.64827013015747,378.64829301834106,996.5735290050507
14,996.5735290050507,1356.8574512004852,1356.8574659824371,1388.374948978424
14,1388.374948978424,1748.5904791355133,1748.5904920101166,1794.2218580245972
14,1794.2218580245972,2154.4349780082703,2154.4349920749664,2202.7981600761414
14,2202.7981600761414,2567.5355021953583,2567.535518169403,2605.3351550102234
14,2605.3351550102234,2965.5732231140137,2965.573235988617,3007.8390140533447
14,3007.8390140533447,3368.0800909996033,3368.0801050662994,3424.10089302063
15,0.9499750137329102,361.8388919830322,361.83891916275024,1043.1892261505127
15,1043.1892261505127,1403.6830270290375,1403.683042049408,1467.465457201004
15,1467.465457201004,1827.6794049739838,1827.6794199943542,1886.2015681266785
15,1886.2015681266785,2248.1849031448364,2248.18492102623,2318.0692250728607
15,2318.0692250728607,2680.591964006424,2680.59197807312,2732.1929080486298
15,2732.1929080486298,3092.4050691127777,3092.4050810337067,3164.5371420383453
15,3164.5371420383453,3534.4649419784546,3534.4649550914764,3590.0015761852264
1,0.15292906761169434,360.1974790096283,360.19749307632446,434.9786570072174
1,434.9786570072174,804.784597158432,804.7846140861511,859.5450260639191
1,859.5450260639191,1219.6965689659119,1219.6965820789337,1243.9070110321045
1,1243.9070110321045,1604.1005342006683,1604.1005470752716,1627.838777065277
1,1627.838777065277,1988.0640490055084,1988.0640621185303,2016.0750710964203
1,2016.0750710964203,2376.2729921340942,2376.273004055023,2403.1832880973816
1,2403.1832880973816,2763.339668035507,2763.3396830558777,2813.950453042984
1,2813.950453042984,3174.38959813118,3174.389611005783,3229.0815761089325
1,3229.0815761089325,3589.3494851589203,3589.3494980335236,3642.2706019878387
2,0.053266048431396484,360.064138174057,360.0641510486603,436.83956003189087
2,436.83956003189087,806.1162669658661,806.1162841320038,870.3301410675049
2,870.3301410675049,1230.49791097641,1230.4979259967804,1263.5252850055695
2,1263.5252850055695,1623.7195761203766,1623.7195889949799,1649.9508950710297
2,1649.9508950710297,2010.1447801589966,2010.1447939872742,2037.030673980713
2,2037.030673980713,2397.2932171821594,2397.2932300567627,2428.4211161136627
2,2428.4211161136627,2788.6134300231934,2788.613445043564,2840.0225369930267
2,2840.0225369930267,3201.4904770851135,3201.4904911518097,3256.9048960208893
2,3256.9048960208893,3633.2948110103607,3633.294834136963,3672.027312040329
3,0.1607041358947754,360.24814915657043,360.24816513061523,498.7262501716614
3,498.7262501716614,859.2593231201172,859.2593450546265,897.6856751441956
3,897.6856751441956,1257.8212580680847,1257.8212740421295,1302.095113992691
3,1302.095113992691,1662.3861720561981,1662.386188030243,1694.3905019760132
3,1694.3905019760132,2054.553146123886,2054.5531589984894,2079.8823351860046
3,2079.8823351860046,2440.08127117157,2440.081284046173,2468.4940700531006
3,2468.4940700531006,2828.709923028946,2828.7099421024323,2867.3896901607513
3,2867.3896901607513,3228.6232311725616,3228.6232481002808,3284.2330281734467
3,3284.2330281734467,3644.416449069977,3644.4164690971375,3701.497546195984
4,0.4090251922607422,361.1344051361084,361.13443207740784,513.5035681724548
4,513.5035681724548,875.4373359680176,875.4373610019684,923.6513671875
4,923.6513671875,1297.5147609710693,1297.5147790908813,1324.674842119217
4,1324.674842119217,1685.1735219955444,1685.1735479831696,1728.620952129364
4,1728.620952129364,2088.800963163376,2088.8009791374207,2129.0265460014343
4,2129.0265460014343,2489.858330965042,2489.8583459854126,2520.93670797348
4,2520.93670797348,2881.1766641139984,2881.176679134369,2923.7109880447388
4,2923.7109880447388,3283.9073061943054,3283.9073209762573,3339.6998879909515
4,3339.6998879909515,3699.863564968109,3699.86358499527,3757.8376410007477
5,0.23929905891418457,360.39160203933716,360.39162707328796,552.8460140228271
5,552.8460140228271,916.0485861301422,916.0486090183258,962.5896370410919
5,962.5896370410919,1324.1088659763336,1324.1088860034943,1366.7195901870728
5,1366.7195901870728,1726.8861510753632,1726.886164188385,1771.3132960796356
5,1771.3132960796356,2131.473179101944,2131.4731919765472,2178.290121078491
5,2178.290121078491,2540.4419009685516,2540.441915988922,2575.618970155716
5,2575.618970155716,2935.7851061820984,2935.785120010376,2979.1226739883423
5,2979.1226739883423,3339.3245329856873,3339.3245480060577,3395.151938199997
6,0.2407681941986084,361.0569670200348,361.0569989681244,597.8567991256714
6,597.8567991256714,960.096498966217,960.0965139865875,1004.7525460720062
6,1004.7525460720062,1364.925525188446,1364.9255390167236,1409.4783871173859
6,1409.4783871173859,1770.91051197052,1770.9105381965637,1815.65576505661
6,1815.65576505661,2178.0462770462036,2178.0462980270386,2225.599165201187
6,2225.599165201187,2585.8371250629425,2585.8371391296387,2628.4588890075684
6,2628.4588890075684,2988.615977048874,2988.61599111557,3036.1265749931335
6,3036.1265749931335,3396.305836200714,3396.3058500289917,3454.2019181251526
7,1.2459871768951416,371.96809005737305,371.96811604499817,637.8890821933746
7,637.8890821933746,999.4557650089264,999.455785036087,1041.2448921203613
7,1041.2448921203613,1401.4495570659637,1401.44957113266,1429.998812198639
7,1429.998812198639,1792.7914860248566,1792.791505098343,1839.0261039733887
7,1839.0261039733887,2200.285816192627,2200.285835981369,2249.939798116684
7,2249.939798116684,2610.132349014282,2610.1323630809784,2655.3148021698
7,2655.3148021698,3015.530932188034,3015.530948162079,3063.749819993973
7,3063.749819993973,3423.988881111145,3423.988895177841,3482.769777059555
8,1.149954080581665,362.0641679763794,362.0642080307007,681.8768920898438
8,681.8768920898438,1042.8396100997925,1042.8396260738373,1065.6986200809479
8,1065.6986200809479,1427.0323700904846,1427.0323901176453,1468.074068069458
8,1468.074068069458,1828.2372641563416,1828.237282037735,1870.4782509803772
8,1870.4782509803772,2230.738177061081,2230.738190174103,2274.7202010154724
8,2274.7202010154724,2634.8967821598053,2634.8967950344086,2681.7445361614227
8,2681.7445361614227,3041.9928081035614,3041.9928209781647,3092.404623031616
8,3092.404623031616,3452.6385231018066,3452.638538122177,3511.070015192032
9,1.4825420379638672,377.1998941898346,377.1999201774597,730.3927299976349
9,730.3927299976349,1090.545026063919,1090.545039176941,1112.5790321826935
9,1112.5790321826935,1472.7340161800385,1472.7340290546417,1495.7473130226135
9,1495.7473130226135,1859.4652440547943,1859.4652681350708,1905.1492149829865
9,1905.1492149829865,2267.7189371585846,2267.718959093094,2314.829339027405
9,2314.829339027405,2680.2148230075836,2680.2148361206055,2712.1743371486664
9,2712.1743371486664,3072.3455731868744,3072.345587015152,3121.0830969810486
9,3121.0830969810486,3481.659173965454,3481.659191131592,3540.153289079666
