app_id,start_exec,end_exec,start_io,end_io
0,0.003796100616455078,18.020700931549072,18.02072310447693,20.18986701965332
0,20.18986701965332,38.441505908966064,38.4415180683136,40.65958094596863
0,40.65958094596863,58.87285804748535,58.87286996841431,61.035589933395386
0,61.035589933395386,79.28876209259033,79.28877305984497,81.53559994697571
0,81.53559994697571,99.79732394218445,99.79733490943909,101.97159194946289
0,101.97159194946289,120.1895010471344,120.18951201438904,122.33560490608215
0,122.33560490608215,140.64987206459045,140.64988207817078,142.7878921031952
0,142.7878921031952,161.05341506004333,161.05342602729797,163.2276270389557
0,163.2276270389557,181.46561002731323,181.46562099456787,183.66364097595215
0,183.66364097595215,201.8420181274414,201.842031955719,203.97569108009338
0,203.97569108009338,222.209125995636,222.20913696289062,224.31965112686157
0,224.31965112686157,242.5020730495453,242.5020830631256,244.83963012695312
0,244.83963012695312,263.03731203079224,263.0373229980469,265.2396719455719
0,265.2396719455719,283.4456341266632,283.44564509391785,285.5596640110016
0,285.5596640110016,303.7771050930023,303.77711510658264,305.9236149787903
0,305.9236149787903,324.18282890319824,324.1828410625458,326.4036741256714
0,326.4036741256714,344.58097791671753,344.5809910297394,346.68722891807556
0,346.68722891807556,380.45875692367554,380.4587769508362,386.89151310920715
0,386.89151310920715,407.10888290405273,407.1089029312134,413.65030908584595
0,413.65030908584595,433.1771960258484,433.17721009254456,441.9940309524536
0,441.9940309524536,461.5589511394501,461.55897402763367,463.8357379436493
0,463.8357379436493,483.1263289451599,483.1263539791107,485.6598539352417
0,485.6598539352417,507.34299492836,507.3430199623108,517.2654190063477
0,517.2654190063477,537.3914470672607,537.3914699554443,542.727842092514
0,542.727842092514,562.4153890609741,562.415412902832,568.3083839416504
0,568.3083839416504,588.005136013031,588.0051629543304,591.3276309967041
0,591.3276309967041,612.139053106308,612.139074087143,621.2992429733276
0,621.2992429733276,641.4771609306335,641.47718501091,647.8837959766388
0,647.8837959766388,667.8319690227509,667.8319909572601,671.2742190361023
0,671.2742190361023,690.7635960578918,690.7636170387268,695.4356091022491
0,695.4356091022491,713.6684739589691,713.6684861183167,714.895653963089
0,714.895653963089,733.1326839923859,733.1326959133148,734.3436551094055
0,734.3436551094055,752.6295239925385,752.6295349597931,753.855623960495
0,753.855623960495,772.0981171131134,772.098128080368,773.3281829357147
0,773.3281829357147,791.6909430027008,791.690966129303,793.3398320674896
0,793.3398320674896,813.7714869976044,813.7715089321136,817.8595199584961
0,817.8595199584961,840.5034980773926,840.503515958786,849.9436600208282
0,849.9436600208282,870.0648260116577,870.064847946167,876.4276340007782
0,876.4276340007782,896.3995559215546,896.3995759487152,900.8796210289001
0,900.8796210289001,919.0529980659485,919.0530149936676,923.9236209392548
0,923.9236209392548,942.1409831047058,942.1409969329834,952.2615180015564
0,952.2615180015564,972.0211379528046,972.0211520195007,980.9396939277649
0,980.9396939277649,1000.3235769271851,1000.3235919475555,1005.4315631389618
0,1005.4315631389618,1025.2125980854034,1025.2126190662384,1027.6532900333405
0,1027.6532900333405,1046.275414943695,1046.2754321098328,1049.2556760311127
0,1049.2556760311127,1068.713870048523,1068.7138919830322,1071.6836321353912
0,1071.6836321353912,1090.2632520198822,1090.2632689476013,1093.1796391010284
0,1093.1796391010284,1111.369313955307,1111.3693299293518,1114.063754081726
0,1114.063754081726,1132.2936730384827,1132.2936840057373,1133.5196850299835
0,1133.5196850299835,1151.721321105957,1151.7213320732117,1152.9276881217957
0,1152.9276881217957,1171.2013099193573,1171.2013211250305,1172.3996939659119
0,1172.3996939659119,1190.6051590442657,1190.605171918869,1196.775661945343
0,1196.775661945343,1214.9289801120758,1214.928992986679,1221.3796710968018
0,1221.3796710968018,1240.5187799930573,1240.518795967102,1245.5316400527954
0,1245.5316400527954,1264.2139599323273,1264.2139730453491,1268.4985520839691
0,1268.4985520839691,1287.8105709552765,1287.8105900287628,1290.847676038742
0,1290.847676038742,1309.3520319461823,1309.352047920227,1312.9396541118622
0,1312.9396541118622,1331.6272840499878,1331.6273019313812,1335.3550651073456
0,1335.3550651073456,1355.084578037262,1355.0845940113068,1358.3076720237732
0,1358.3076720237732,1378.9604759216309,1378.9604909420013,1381.8357191085815
0,1381.8357191085815,1401.584084033966,1401.5841009616852,1404.3037810325623
0,1404.3037810325623,1423.4163889884949,1423.416405916214,1427.4276809692383
0,1427.4276809692383,1447.800437927246,1447.8004541397095,1451.3156299591064
0,1451.3156299591064,1471.7611529827118,1471.7611711025238,1474.9931049346924
0,1474.9931049346924,1495.0693650245667,1495.069386959076,1498.4301159381866
0,1498.4301159381866,1516.7248730659485,1516.7248859405518,1520.5756680965424
0,1520.5756680965424,1538.818041086197,1538.8180530071259,1540.0716841220856
0,1540.0716841220856,1558.3696041107178,1558.3696150779724,1559.7836680412292
0,1559.7836680412292,1578.0179901123047,1578.0180039405823,1584.2276709079742
0,1584.2276709079742,1602.4131200313568,1602.413134098053,1607.135703086853
0,1607.135703086853,1625.3291790485382,1625.3291919231415,1632.3836870193481
0,1632.3836870193481,1650.5651280879974,1650.565143108368,1658.967698097229
0,1658.967698097229,1678.9971270561218,1678.9971430301666,1683.9276311397552
0,1683.9276311397552,1703.7811079025269,1703.7811260223389,1708.0316729545593
0,1708.0316729545593,1727.9981639385223,1727.9981830120087,1731.7016470432281
0,1731.7016470432281,1751.9704160690308,1751.9704310894012,1755.8996670246124
0,1755.8996670246124,1776.1494009494781,1776.1494159698486,1779.361356973648
0,1779.361356973648,1799.3540029525757,1799.3540201187134,1804.4797279834747
0,1804.4797279834747,1824.7785260677338,1824.7785410881042,1828.6716239452362
0,1828.6716239452362,1849.1507999897003,1849.1508181095123,1853.4276669025421
0,1853.4276669025421,1873.9421191215515,1873.9421360492706,1878.3076031208038
0,1878.3076031208038,1899.1004009246826,1899.1004180908203,1902.6316349506378
0,1902.6316349506378,1920.8493049144745,1920.849319934845,1926.6716599464417
0,1926.6716599464417,1944.9331040382385,1944.9331159591675,1946.2276871204376
0,1946.2276871204376,1964.4775941371918,1964.4776079654694,1972.8796560764313
0,1972.8796560764313,1991.0935111045837,1991.0935261249542,1997.5917630195618
0,1997.5917630195618,2015.7455489635468,2015.7455639839172,2024.0917329788208
0,2024.0917329788208,2042.3534569740295,2042.3534729480743,2048.851670026779
0,2048.851670026779,2067.0573539733887,2067.0573670864105,2074.1198179721832
0,2074.1198179721832,2093.1580259799957,2093.158041000366,2100.156268119812
0,2100.156268119812,2120.0897710323334,2120.089786052704,2127.011719942093
0,2127.011719942093,2148.647346973419,2148.6473619937897,2153.139643907547
0,2153.139643907547,2173.7383460998535,2173.738359928131,2181.411651134491
0,2181.411651134491,2201.8906779289246,2201.8906939029694,2208.419661998749
0,2208.419661998749,2229.214469909668,2229.214492082596,2235.419610977173
0,2235.419610977173,2256.107321023941,2256.107336997986,2261.783620119095
0,2261.783620119095,2282.6667399406433,2282.6667580604553,2289.5152490139008
0,2289.5152490139008,2310.3262901306152,2310.32631111145,2316.7115869522095
0,2316.7115869522095,2336.1703860759735,2336.170401096344,2343.927675008774
0,2343.927675008774,2363.199474096298,2363.1994891166687,2371.232985973358
0,2371.232985973358,2391.6025869846344,2391.602602005005,2400.3436620235443
0,2400.3436620235443,2421.426954984665,2421.426973104477,2428.519590139389
0,2428.519590139389,2449.3996419906616,2449.399657011032,2457.3037950992584
0,2457.3037950992584,2478.3671119213104,2478.367128133774,2484.9115641117096
0,2484.9115641117096,2505.8951790332794,2505.895196914673,2513.267508983612
0,2513.267508983612,2534.2428789138794,2534.2428970336914,2540.6996619701385
0,2540.6996619701385,2561.0833740234375,2561.083389043808,2567.907644033432
0,2567.907644033432,2588.693125963211,2588.6931450366974,2595.3715929985046
0,2595.3715929985046,2616.2072961330414,2616.207314014435,2622.829847097397
0,2622.829847097397,2643.599123954773,2643.599144935608,2649.5276429653168
0,2649.5276429653168,2670.5074079036713,2670.507429122925,2677.1277239322662
0,2677.1277239322662,2698.291224002838,2698.2912459373474,2704.5476801395416
0,2704.5476801395416,2725.583106994629,2725.5831260681152,2733.2231159210205
0,2733.2231159210205,2754.702901124954,2754.702924013138,2759.603585958481
0,2759.603585958481,2777.823228120804,2777.8232419490814,2784.1676740646362
0,2784.1676740646362,2804.7634460926056,2804.7634649276733,2813.063642024994
0,2813.063642024994,2834.1471359729767,2834.1471519470215,2842.655914068222
0,2842.655914068222,2863.7553141117096,2863.7553300857544,2872.831633090973
0,2872.831633090973,2893.7116780281067,2893.711697101593,2901.3463020324707
0,2901.3463020324707,2922.159908056259,2922.1599309444427,2929.27734708786
0,2929.27734708786,2950.047684907913,2950.0477089881897,2956.6036179065704
0,2956.6036179065704,2977.004529953003,2977.004553079605,2984.711683034897
0,2984.711683034897,3005.3929641246796,3005.3929851055145,3011.427645921707
0,3011.427645921707,3032.5518679618835,3032.5518889427185,3040.6515510082245
0,3040.6515510082245,3061.6158089637756,3061.6158289909363,3069.451648950577
0,3069.451648950577,3090.3673770427704,3090.3673980236053,3097.0036199092865
0,3097.0036199092865,3117.826498031616,3117.8265199661255,3124.3036670684814
0,3124.3036670684814,3144.8843240737915,3144.884339094162,3153.5836849212646
0,3153.5836849212646,3174.9960730075836,3174.996094942093,3183.1235690116882
0,3183.1235690116882,3201.504961013794,3201.504982948303,3205.847676038742
0,3205.847676038742,3224.03035902977,3224.030380010605,3233.699630022049
0,3233.699630022049,3254.540036916733,3254.5400590896606,3261.423640012741
0,3261.423640012741,3282.2496349811554,3282.249655008316,3289.515636920929
0,3289.515636920929,3310.361342906952,3310.3613629341125,3319.4076130390167
0,3319.4076130390167,3340.192662000656,3340.1926851272583,3347.6116831302643
0,3347.6116831302643,3368.6285259723663,3368.6285479068756,3376.8116331100464
0,3376.8116331100464,3397.5005989074707,3397.5006210803986,3405.439640045166
0,3405.439640045166,3426.441080093384,3426.441106081009,3434.4148149490356
0,3434.4148149490356,3455.7725241184235,3455.7725450992584,3464.975676059723
0,3464.975676059723,3486.265566110611,3486.265587091446,3491.811621904373
0,3491.811621904373,3513.2834520339966,3513.2834730148315,3519.919748067856
0,3519.919748067856,3540.5570731163025,3540.5570950508118,3547.29967212677
0,3547.29967212677,3565.517457962036,3565.5174720287323,3574.3116800785065
0,3574.3116800785065,3597.6453120708466,3597.6453330516815,3605.1103150844574
0,3605.1103150844574,3626.7332220077515,3626.733246088028,3630.987543106079
0,3630.987543106079,3651.8290700912476,3651.8290910720825,3660.2075641155243
0,3660.2075641155243,3681.0050621032715,3681.0050840377808,3688.9516859054565
0,3688.9516859054565,3709.9453070163727,3709.945331096649,3717.891613960266
0,3717.891613960266,3739.697217941284,3739.6972439289093,3746.3156299591064
0,3746.3156299591064,3768.1530210971832,3768.1530430316925,3775.3196139335632
10,1.3630931377410889,547.5510060787201,547.5510249137878,609.3065519332886
10,609.3065519332886,969.4232311248779,969.4232459068298,1005.415244102478
10,1005.415244102478,1365.6175599098206,1365.6175739765167,1404.6786160469055
10,1404.6786160469055,1764.8653450012207,1764.8653581142426,1804.8760950565338
10,1804.8760950565338,2165.065216064453,2165.0652301311493,2208.5276420116425
10,2208.5276420116425,2568.8420951366425,2568.84210896492,2624.058876991272
10,2624.058876991272,2984.763664007187,2984.763678073883,3042.4822149276733
10,3042.4822149276733,3403.658527135849,3403.6585540771484,3465.117984056473
11,1.2983341217041016,375.92281699180603,375.9228401184082,629.9346160888672
11,629.9346160888672,990.0737729072571,990.0737869739532,1026.8545019626617
11,1026.8545019626617,1387.0207569599152,1387.0207710266113,1427.6541769504547
11,1427.6541769504547,1787.806587934494,1787.8066010475159,1829.1388471126556
11,1829.1388471126556,2189.2926709651947,2189.292685031891,2235.7388870716095
11,2235.7388870716095,2595.911700963974,2595.91171503067,2650.2700979709625
11,2650.2700979709625,3011.4524149894714,3011.4524290561676,3069.8118031024933
11,3069.8118031024933,3433.2329070568085,3433.232927083969,3492.0098209381104
12,1.2480199337005615,373.9105739593506,373.91060304641724,651.2626180648804
12,651.2626180648804,1011.4580819606781,1011.4581000804901,1049.3419370651245
12,1049.3419370651245,1409.5212321281433,1409.521245956421,1451.702625989914
12,1451.702625989914,1811.913603067398,1811.9136180877686,1853.5229189395905
12,1853.5229189395905,2213.7450580596924,2213.7450721263885,2262.20653796196
12,2262.20653796196,2622.682806968689,2622.6828269958496,2677.479206085205
12,2677.479206085205,3039.8241279125214,3039.8241460323334,3096.449424982071
12,3096.449424982071,3462.749165058136,3462.7491841316223,3520.1296150684357
13,1.4943420886993408,626.2115650177002,626.2115819454193,671.5544650554657
13,671.5544650554657,1031.7588500976562,1031.7588620185852,1070.9797630310059
13,1070.9797630310059,1431.1605911254883,1431.1606049537659,1475.0114381313324
13,1475.0114381313324,1835.2377619743347,1835.2377750873566,1878.4885590076447
13,1878.4885590076447,2238.6505720615387,2238.650586128235,2289.864671945572
13,2289.864671945572,2650.109538078308,2650.1095519065857,2705.0103120803833
13,2705.0103120803833,3068.191607952118,3068.1916320323944,3125.397582054138
13,3125.397582054138,3490.8704249858856,3490.8704450130463,3548.6077439785004
14,1.3062999248504639,378.7948639392853,378.79488611221313,692.0738589763641
14,692.0738589763641,1052.304680109024,1052.3046951293945,1093.514699935913
14,1093.514699935913,1453.752816915512,1453.7528319358826,1497.5627040863037
14,1497.5627040863037,1857.7437679767609,1857.743782043457,1903.006863117218
14,1903.006863117218,2263.208962917328,2263.2089779376984,2316.685408115387
14,2316.685408115387,2676.923146009445,2676.923164129257,2733.5816719532013
14,2733.5816719532013,3095.3673610687256,3095.367383003235,3154.149908065796
14,3154.149908065796,3519.424674987793,3519.4246969223022,3577.8063049316406
15,1.338690996170044,650.8229460716248,650.8229711055756,712.278459072113
15,712.278459072113,1072.4619181156158,1072.4619309902191,1114.3625121116638
15,1114.3625121116638,1474.8528649806976,1474.8528859615326,1521.4623699188232
15,1521.4623699188232,1881.629651069641,1881.6296651363373,1927.6429929733276
15,1927.6429929733276,2289.0627830028534,2289.0628209114075,2344.790192127228
15,2344.790192127228,2705.0129070281982,2705.0129199028015,2769.665791988373
15,2769.665791988373,3136.033518075943,3136.033534049988,3208.67435503006
15,3208.67435503006,3570.01394200325,3570.0139560699463,3689.126585006714
1,0.9422380924224854,361.098669052124,361.0986931324005,433.0768721103668
1,433.0768721103668,793.1012399196625,793.1012570858002,837.5296220779419
1,837.5296220779419,1197.748950958252,1197.7489640712738,1223.8875029087067
1,1223.8875029087067,1584.0326929092407,1584.032709121704,1612.7989220619202
1,1612.7989220619202,1972.9966220855713,1972.9966340065002,1999.835510969162
1,1999.835510969162,2360.004900932312,2360.004914999008,2400.6653230190277
1,2400.6653230190277,2760.8731529712677,2760.873167037964,2815.9504539966583
1,2815.9504539966583,3181.09272313118,3181.0927441120148,3234.462439060211
1,3234.462439060211,3602.6918489933014,3602.6918721199036,3648.5173909664154
2,0.0,360.01177191734314,360.011785030365,430.2700459957123
2,430.2700459957123,790.2911441326141,790.2911570072174,816.5224690437317
2,816.5224690437317,1177.841027021408,1177.84104013443,1201.5337069034576
2,1201.5337069034576,1561.6630320549011,1561.6630449295044,1587.2917470932007
2,1587.2917470932007,1947.4887340068817,1947.4887480735779,1973.3900890350342
2,1973.3900890350342,2333.5979359149933,2333.5979540348053,2371.9034910202026
2,2371.9034910202026,2732.102543115616,2732.102560043335,2787.593812942505
2,2787.593812942505,3152.281254053116,3152.281273126602,3208.7251739501953
2,3208.7251739501953,3569.9912440776825,3569.991259098053,3610.1599700450897
3,0.006783008575439453,360.0219659805298,360.02197909355164,442.59682607650757
3,442.59682607650757,804.8639271259308,804.8639659881592,856.7177169322968
3,856.7177169322968,1218.041778087616,1218.0417940616608,1245.9356570243835
3,1245.9356570243835,1606.2848899364471,1606.2849040031433,1635.3581809997559
3,1635.3581809997559,1995.5489389896393,1995.5489530563354,2024.2881240844727
3,2024.2881240844727,2384.549101114273,2384.5491139888763,2428.8271470069885
3,2428.8271470069885,2789.0444490909576,2789.044461965561,2844.526426076889
3,2844.526426076889,3205.789570093155,3205.7895879745483,3262.382066965103
3,3262.382066965103,3625.6129019260406,3625.6129269599915,3688.9379029273987
4,0.9903609752655029,361.98988604545593,361.98991298675537,463.8303611278534
4,463.8303611278534,825.7194740772247,825.7194941043854,877.4920990467072
4,877.4920990467072,1237.7218239307404,1237.7218389511108,1268.6475269794464
4,1268.6475269794464,1629.0385789871216,1629.0385921001434,1659.5034370422363
4,1659.5034370422363,2023.3336210250854,2023.3336369991302,2049.7964899539948
4,2049.7964899539948,2409.938369989395,2409.93838596344,2457.631155014038
4,2457.631155014038,2817.8155131340027,2817.8155279159546,2873.6704280376434
4,2873.6704280376434,3234.1078679561615,3234.1078929901123,3291.4501869678497
4,3291.4501869678497,3657.8890249729156,3657.8890500068665,3717.8298449516296
5,1.12233304977417,368.23840403556824,368.2384181022644,483.177344083786
5,483.177344083786,850.9352970123291,850.9353129863739,900.8264620304108
5,900.8264620304108,1261.050094127655,1261.0501070022583,1290.807461977005
5,1290.807461977005,1655.644956111908,1655.6449689865112,1683.958799123764
5,1683.958799123764,2046.65824508667,2046.658262014389,2075.6473269462585
5,2075.6473269462585,2435.885530948639,2435.885545015335,2485.3189170360565
5,2485.3189170360565,2845.5487020015717,2845.548716068268,2902.1501479148865
5,2902.1501479148865,3262.4364681243896,3262.436480998993,3320.5221071243286
5,3320.5221071243286,3686.9095919132233,3686.909618139267,3746.7333059310913
6,0.5305531024932861,360.7537200450897,360.7537429332733,520.6582770347595
6,520.6582770347595,880.8212389945984,880.8212530612946,920.6463439464569
6,920.6463439464569,1280.86190700531,1280.8619220256805,1313.50874209404
6,1313.50874209404,1673.7053050994873,1673.705318927765,1708.023157119751
6,1708.023157119751,2071.6562650203705,2071.6562809944153,2101.7990560531616
6,2101.7990560531616,2462.012542963028,2462.012557029724,2513.667074918747
6,2513.667074918747,2873.88707113266,2873.8870849609375,2930.0382459163666
6,2930.0382459163666,3290.3364849090576,3290.336499929428,3349.5493199825287
6,3349.5493199825287,3716.1686589717865,3716.1686820983887,3775.7822449207306
7,0.40763401985168457,360.4386639595032,360.43868613243103,550.6411259174347
7,550.6411259174347,910.8214371204376,910.8214509487152,940.3743989467621
7,940.3743989467621,1300.5854279994965,1300.5854420661926,1336.0946810245514
7,1336.0946810245514,1696.2315430641174,1696.231558084488,1731.2498841285706
7,1731.2498841285706,2091.386739015579,2091.3867530822754,2127.4751601219177
7,2127.4751601219177,2487.6770861148834,2487.677099943161,2540.2065761089325
7,2540.2065761089325,2901.30343914032,2901.3034579753876,2958.0791339874268
7,2958.0791339874268,3319.307348012924,3319.3073670864105,3377.5483179092407
8,1.1266460418701172,367.96680307388306,367.9668231010437,567.7539999485016
8,567.7539999485016,927.9415640830994,927.941577911377,962.9387559890747
8,962.9387559890747,1323.1696009635925,1323.169615983963,1358.8599479198456
8,1358.8599479198456,1719.075875043869,1719.0758929252625,1755.4391589164734
8,1755.4391589164734,2115.5852360725403,2115.585252046585,2154.483407974243
8,2154.483407974243,2514.680932044983,2514.680946111679,2568.6347711086273
8,2568.6347711086273,2929.2205040454865,2929.220528125763,2985.238671064377
8,2985.238671064377,3347.5945451259613,3347.594568967819,3406.2537829875946
9,1.314650058746338,547.3734850883484,547.3735039234161,588.1550679206848
9,588.1550679206848,950.6517629623413,950.6517789363861,987.0500240325928
9,987.0500240325928,1347.2781250476837,1347.2781400680542,1382.095377922058
9,1382.095377922058,1742.346048116684,1742.3460631370544,1779.7352221012115
9,1779.7352221012115,2139.9488480091095,2139.9488620758057,2181.6469480991364
9,2181.6469480991364,2541.9414551258087,2541.9414689540863,2595.6905879974365
9,2595.6905879974365,2956.1078140735626,2956.1078350543976,3012.8880689144135
9,3012.8880689144135,3374.808212041855,3374.808233976364,3434.571412086487
