app_id,start_exec,end_exec,start_io,end_io
0,0.008723020553588867,18.027910947799683,18.027933835983276,20.168746948242188
0,20.168746948242188,38.41369581222534,38.413715839385986,40.548582792282104
0,40.548582792282104,58.750279903411865,58.7502977848053,60.90476393699646
0,60.90476393699646,79.23185086250305,79.23187184333801,81.41657280921936
0,81.41657280921936,99.6592288017273,99.65925097465515,101.74453783035278
0,101.74453783035278,119.97863984107971,119.97866082191467,122.14757680892944
0,122.14757680892944,140.3946988582611,140.39471983909607,142.5525939464569
0,142.5525939464569,160.78203797340393,160.78205680847168,162.95650386810303
0,162.95650386810303,181.1429100036621,181.14293384552002,183.35654592514038
0,183.35654592514038,201.5951328277588,201.59515500068665,203.84049892425537
0,203.84049892425537,222.04366493225098,222.04368686676025,224.32051801681519
0,224.32051801681519,242.58235788345337,242.58237981796265,244.81255793571472
0,244.81255793571472,263.1768479347229,263.1768708229065,265.4045498371124
0,265.4045498371124,283.6181209087372,283.61814284324646,285.76056385040283
0,285.76056385040283,303.9542248249054,303.95424485206604,306.1487708091736
0,306.1487708091736,324.41044092178345,324.4104619026184,326.5486509799957
0,326.5486509799957,344.77199482917786,344.7720148563385,346.9726688861847
0,346.9726688861847,560.3682107925415,560.3682539463043,587.5805599689484
0,587.5805599689484,638.9488399028778,638.9488639831543,645.308403968811
0,645.308403968811,663.494815826416,663.494836807251,668.6645460128784
0,668.6645460128784,686.8069298267365,686.8069529533386,687.9405529499054
0,687.9405529499054,706.1465158462524,706.1465349197388,707.31258893013
0,707.31258893013,725.5219337940216,725.5219519138336,726.5205788612366
0,726.5205788612366,744.6944139003754,744.6944358348846,745.8996069431305
0,745.8996069431305,764.1130549907684,764.1130759716034,765.3885388374329
0,765.3885388374329,783.6253747940063,783.6253960132599,784.845116853714
0,784.845116853714,803.1668148040771,803.166836977005,804.3845679759979
0,804.3845679759979,822.6721529960632,822.6721739768982,823.964656829834
0,823.964656829834,842.2723770141602,842.2723979949951,843.4770138263702
0,843.4770138263702,861.758574962616,861.7585959434509,867.3925499916077
0,867.3925499916077,885.5830028057098,885.5830249786377,886.8525719642639
0,886.8525719642639,905.0632929801941,905.063313961029,911.2526078224182
0,911.2526078224182,929.4814398288727,929.481458902359,945.0725018978119
0,945.0725018978119,969.8106269836426,969.8106470108032,983.3685328960419
0,983.3685328960419,1072.0932610034943,1072.0932939052582,1089.3644638061523
0,1089.3644638061523,1148.6061849594116,1148.606206893921,1154.1818678379059
0,1154.1818678379059,1172.447284936905,1172.4473178386688,1176.336604833603
0,1176.336604833603,1194.5583169460297,1194.5583369731903,1195.808623790741
0,1195.808623790741,1214.0467998981476,1214.0468208789825,1215.2645959854126
0,1215.2645959854126,1233.5953810214996,1233.5954070091248,1235.3965439796448
0,1235.3965439796448,1253.5895688533783,1253.5895907878876,1257.0005779266357
0,1257.0005779266357,1275.2840659618378,1275.2840859889984,1282.3885719776154
0,1282.3885719776154,1300.5426528453827,1300.5426738262177,1308.7284989356995
0,1308.7284989356995,1326.9381308555603,1326.9381518363953,1333.6046249866486
0,1333.6046249866486,1351.7669208049774,1351.7669417858124,1360.2246639728546
0,1360.2246639728546,1378.4507629871368,1378.4507839679718,1379.616585969925
0,1379.616585969925,1397.8278169631958,1397.8278379440308,1404.212590932846
0,1404.212590932846,1422.4445419311523,1422.4445638656616,1423.764708995819
0,1423.764708995819,1442.0223908424377,1442.02241396904,1447.6888020038605
0,1447.6888020038605,1466.1398229599,1466.1398439407349,1469.7165338993073
0,1469.7165338993073,1489.666034936905,1489.6660578250885,1491.732561826706
0,1491.732561826706,1510.0474529266357,1510.0474758148193,1514.4445378780365
0,1514.4445378780365,1534.2901020050049,1534.2901258468628,1537.8805220127106
0,1537.8805220127106,1557.6944279670715,1557.6944539546967,1561.9845488071442
0,1561.9845488071442,1581.7066929340363,1581.7067170143127,1584.5518748760223
0,1584.5518748760223,1603.4304349422455,1603.4304599761963,1609.0405399799347
0,1609.0405399799347,1629.3397510051727,1629.3397738933563,1632.3525528907776
0,1632.3525528907776,1650.5505049228668,1650.5505239963531,1655.1326417922974
0,1655.1326417922974,1673.3384399414062,1673.3384609222412,1682.5407688617706
0,1682.5407688617706,1700.794589996338,1700.7946088314056,1705.83749294281
0,1705.83749294281,1724.3416979312897,1724.3417220115662,1730.3726048469543
0,1730.3726048469543,1748.6029229164124,1748.6029438972473,1754.6566607952118
0,1754.6566607952118,1772.8826949596405,1772.8827159404755,1776.8685448169708
0,1776.8685448169708,1795.0858969688416,1795.0859189033508,1797.4326269626617
0,1797.4326269626617,1815.682737827301,1815.682758808136,1821.5685739517212
0,1821.5685739517212,1839.8424379825592,1839.8424589633942,1850.7645828723907
0,1850.7645828723907,1869.024365901947,1869.0243899822235,1876.4286239147186
0,1876.4286239147186,1894.6382308006287,1894.638249874115,1904.69269490242
0,1904.69269490242,1922.9995188713074,1922.9995429515839,1930.6711509227753
0,1930.6711509227753,1951.015499830246,1951.0155248641968,1959.5645759105682
0,1959.5645759105682,1979.9964089393616,1979.9964339733124,1983.792387008667
0,1983.792387008667,2004.28479886055,2004.2848238945007,2008.9165008068085
0,2008.9165008068085,2029.978101015091,2029.9781239032745,2034.4445238113403
0,2034.4445238113403,2054.9481308460236,2054.9481539726257,2059.4645018577576
0,2059.4645018577576,2079.959567785263,2079.9595918655396,2085.4805488586426
0,2085.4805488586426,2106.151999950409,2106.152025938034,2111.0684769153595
0,2111.0684769153595,2131.438760995865,2131.4387907981873,2134.5884969234467
0,2134.5884969234467,2152.8519339561462,2152.8519558906555,2159.4686138629913
0,2159.4686138629913,2177.6669549942017,2177.6669738292694,2185.4006588459015
0,2185.4006588459015,2203.6269359588623,2203.62695479393,2211.132563829422
0,2211.132563829422,2229.3785820007324,2229.3786029815674,2238.4965789318085
0,2238.4965789318085,2256.714136838913,2256.714157819748,2263.3527359962463
0,2263.3527359962463,2281.6622610092163,2281.6622819900513,2291.984232902527
0,2291.984232902527,2310.2499299049377,2310.249948978424,2319.5885338783264
0,2319.5885338783264,2337.8342678546906,2337.8342888355255,2347.0605018138885
0,2347.0605018138885,2365.287659883499,2365.28767991066,2375.8765540122986
0,2375.8765540122986,2394.118959903717,2394.118980884552,2402.5433700084686
0,2402.5433700084686,2423.4320998191833,2423.4321229457855,2432.640517950058
0,2432.640517950058,2453.0605788230896,2453.0606019496918,2463.3124969005585
0,2463.3124969005585,2484.592566013336,2484.59258890152,2494.1205739974976
0,2494.1205739974976,2515.137363910675,2515.1373867988586,2525.2724947929382
0,2525.2724947929382,2546.048697948456,2546.0487217903137,2553.7996718883514
0,2553.7996718883514,2574.460433959961,2574.4604589939117,2583.1525049209595
0,2583.1525049209595,2601.857141971588,2601.857165813446,2606.5045177936554
0,2606.5045177936554,2633.7845318317413,2633.7845578193665,2639.464560985565
0,2639.464560985565,2660.1340827941895,2660.134106874466,2664.0845408439636
0,2664.0845408439636,2688.320734977722,2688.320760011673,2691.90793800354
0,2691.90793800354,2712.968803882599,2712.9688289165497,2719.8486828804016
0,2719.8486828804016,2740.8732109069824,2740.873233795166,2748.192528963089
0,2748.192528963089,2769.2370088100433,2769.2370319366455,2776.3645029067993
0,2776.3645029067993,2797.4168298244476,2797.41685295105,2803.9805228710175
0,2803.9805228710175,2825.2377409934998,2825.2377648353577,2832.684523820877
0,2832.684523820877,2853.785272836685,2853.7852959632874,2861.8165159225464
0,2861.8165159225464,2882.7211649417877,2882.721186876297,2890.231022834778
0,2890.231022834778,2910.999221801758,2910.99924492836,2917.228500843048
0,2917.228500843048,2937.7297208309174,2937.729744911194,2945.6565799713135
0,2945.6565799713135,2967.0822529792786,2967.0822780132294,2973.2885580062866
0,2973.2885580062866,2993.8859119415283,2993.885934829712,3002.2965388298035
0,3002.2965388298035,3024.1307678222656,3024.130791902542,3029.5364718437195
0,3029.5364718437195,3048.838045835495,3048.838068962097,3054.884507894516
0,3054.884507894516,3078.5153369903564,3078.51535987854,3083.1444759368896
0,3083.1444759368896,3105.922931909561,3105.9229538440704,3112.6844539642334
0,3112.6844539642334,3132.285834789276,3132.2858579158783,3137.4434008598328
0,3137.4434008598328,3163.220398902893,3163.2204217910767,3169.28053689003
0,3169.28053689003,3189.6584169864655,3189.658439874649,3194.6205608844757
0,3194.6205608844757,3215.407238006592,3215.4072618484497,3221.7179098129272
0,3221.7179098129272,3242.170210838318,3242.1702330112457,3249.0205748081207
0,3249.0205748081207,3268.7982239723206,3268.7982478141785,3274.082785844803
0,3274.082785844803,3294.9226458072662,3294.9226698875427,3304.7245569229126
0,3304.7245569229126,3325.3824858665466,3325.382509946823,3333.888606786728
0,3333.888606786728,3354.5945019721985,3354.5945258140564,3362.280566930771
0,3362.280566930771,3383.0743379592896,3383.0743658542633,3390.4645478725433
0,3390.4645478725433,3410.6663978099823,3410.666422843933,3420.308606863022
0,3420.308606863022,3447.923048019409,3447.9230768680573,3451.788540840149
0,3451.788540840149,3470.8361718654633,3470.836196899414,3490.600462913513
0,3490.600462913513,3526.1671237945557,3526.167147874832,3531.492590904236
0,3531.492590904236,3552.194876909256,3552.1948997974396,3558.9805748462677
0,3558.9805748462677,3587.306459903717,3587.3064839839935,3596.684502840042
0,3596.684502840042,3617.851385831833,3617.8514080047607,3627.5164058208466
0,3627.5164058208466,3651.3108608722687,3651.310883998871,3661.2406067848206
0,3661.2406067848206,3682.23242688179,3682.2324509620667,3688.216398000717
0,3688.216398000717,3709.963199853897,3709.963225841522,3719.19256401062
0,3719.19256401062,3741.259749889374,3741.259771823883,3750.836550951004
0,3750.836550951004,3772.3112168312073,3772.3112409114838,3782.036520957947
10,1.6872148513793945,561.2283968925476,561.2284209728241,669.4935410022736
10,669.4935410022736,1088.1495900154114,1088.1496148109436,1154.3836379051208
10,1154.3836379051208,1514.5540778636932,1514.5540969371796,1562.5475778579712
10,1562.5475778579712,1922.7312150001526,1922.7312359809875,1959.8695018291473
10,1959.8695018291473,2320.1141769886017,2320.1141970157623,2361.0725247859955
10,2361.0725247859955,2721.250016927719,2721.250037908554,2776.6314589977264
10,2776.6314589977264,3136.9540820121765,3136.954103946686,3195.577507019043
10,3195.577507019043,3558.2049198150635,3558.2049419879913,3614.036106824875
11,1.631971836090088,472.46889185905457,472.4689109325409,550.6966278553009
11,550.6966278553009,929.4770238399506,929.4770488739014,971.1952369213104
11,971.1952369213104,1332.325012922287,1332.3250379562378,1363.2764868736267
11,1363.2764868736267,1723.4544899463654,1723.4545109272003,1756.1284267902374
11,1756.1284267902374,2116.3629829883575,2116.363004922867,2159.916925907135
11,2159.916925907135,2525.207489967346,2525.2075119018555,2583.8961617946625
11,2583.8961617946625,2945.1910858154297,2945.191108942032,3002.8069789409637
11,3002.8069789409637,3363.0102479457855,3363.010269880295,3423.478504896164
12,1.6472198963165283,473.1036868095398,473.1037118434906,587.4565858840942
12,587.4565858840942,950.6965599060059,950.6965849399567,1011.9786269664764
12,1011.9786269664764,1386.45436501503,1386.4543888568878,1410.16091299057
12,1410.16091299057,1770.3465259075165,1770.3465468883514,1797.7641139030457
12,1797.7641139030457,2157.9984238147736,2157.9984447956085,2185.8647289276123
12,2185.8647289276123,2552.551120996475,2552.5511469841003,2611.6302149295807
12,2611.6302149295807,2973.2110958099365,2973.211119890213,3029.790254831314
12,3029.790254831314,3390.0683419704437,3390.0683629512787,3457.1021308898926
13,1.5752158164978027,432.0715458393097,432.07156586647034,624.3566029071808
13,624.3566029071808,993.4488408565521,993.4488708972931,1154.456417798996
13,1154.456417798996,1516.8062918186188,1516.8063139915466,1583.2671937942505
13,1583.2671937942505,1943.458349943161,1943.4583728313446,1983.6364479064941
13,1983.6364479064941,2345.2383728027344,2345.2383949756622,2388.739949941635
13,2388.739949941635,2749.0021739006042,2749.002194881439,2805.1606788635254
13,2805.1606788635254,3168.7119019031525,3168.711924791336,3223.393628835678
13,3223.393628835678,3587.4466898441315,3587.4467148780823,3644.771948814392
14,1.5272328853607178,446.935546875,446.9355659484863,624.3845558166504
14,624.3845558166504,1001.0333108901978,1001.0333468914032,1154.649181842804
14,1154.649181842804,1517.2940487861633,1517.2940719127655,1609.3671429157257
14,1609.3671429157257,1969.558765888214,1969.558786869049,2009.088238954544
14,2009.088238954544,2373.2798149585724,2373.279837846756,2416.40008187294
14,2416.40008187294,2776.602064847946,2776.602082014084,2833.1073207855225
14,2833.1073207855225,3193.8251609802246,3193.8251810073853,3250.984310865402
14,3250.984310865402,3611.512410879135,3611.5124349594116,3672.5033860206604
15,1.8482558727264404,562.5609529018402,562.5609769821167,669.3336429595947
15,669.3336429595947,1088.4293978214264,1088.4294219017029,1176.6716639995575
15,1176.6716639995575,1539.7139828205109,1539.7140049934387,1631.0314319133759
15,1631.0314319133759,1991.1554248332977,1991.155443906784,2034.663890838623
15,2034.663890838623,2400.4509279727936,2400.4509630203247,2446.1002588272095
15,2446.1002588272095,2806.298472881317,2806.298492908478,2862.4637699127197
15,2862.4637699127197,3222.6627328395844,3222.662752866745,3278.5352640151978
15,3278.5352640151978,3641.6897180080414,3641.6897389888763,3705.90687084198
1,0.0,360.0449969768524,360.0450189113617,476.8048930168152
1,476.8048930168152,850.611387014389,850.6114118099213,872.9883708953857
1,872.9883708953857,1233.1541929244995,1233.1542129516602,1257.2808640003204
1,1257.2808640003204,1617.4346709251404,1617.4346899986267,1655.7922558784485
1,1655.7922558784485,2016.0272278785706,2016.0272479057312,2059.143597841263
1,2059.143597841263,2419.4174168109894,2419.4174399375916,2475.6799869537354
1,2475.6799869537354,2835.8892619609833,2835.889281988144,2890.897476911545
1,2890.897476911545,3251.1205599308014,3251.1205809116364,3307.619278907776
1,3307.619278907776,3669.8509788513184,3669.851002931595,3730.4605770111084
2,1.6071999073028564,450.65947699546814,450.6594958305359,625.4771058559418
2,625.4771058559418,1013.809770822525,1013.8097939491272,1085.57159781456
2,1085.57159781456,1447.653137922287,1447.6531629562378,1491.4959659576416
2,1491.4959659576416,1851.6620678901672,1851.6620898246765,1884.3845138549805
2,1884.3845138549805,2244.638365983963,2244.6383860111237,2278.900645017624
2,2278.900645017624,2639.3778648376465,2639.3778879642487,2691.9517109394073
2,2691.9517109394073,3053.242855787277,3053.2428998947144,3110.2311079502106
2,3110.2311079502106,3474.3511028289795,3474.3511300086975,3530.9946978092194
3,0.1579909324645996,360.2012448310852,360.2012689113617,512.7233409881592
3,512.7233409881592,887.0453448295593,887.0453698635101,912.0882709026337
3,912.0882709026337,1272.2581939697266,1272.2582149505615,1296.7088270187378
3,1296.7088270187378,1656.8979198932648,1656.8979408740997,1682.9008538722992
3,1682.9008538722992,2043.058599948883,2043.0586218833923,2085.581981897354
3,2085.581981897354,2445.7734990119934,2445.7735188007355,2500.33110499382
3,2500.33110499382,2861.727595806122,2861.727616786957,2917.72314786911
3,2917.72314786911,3277.931083917618,3277.9311068058014,3335.8071868419647
3,3335.8071868419647,3696.0310440063477,3696.0310668945312,3758.4608538150787
4,1.487259864807129,405.03180599212646,405.0318429470062,618.4688119888306
4,618.4688119888306,989.8866798877716,989.8867039680481,1062.9152178764343
4,1062.9152178764343,1426.6535248756409,1426.6535458564758,1470.5235497951508
4,1470.5235497951508,1830.7060480117798,1830.7060689926147,1859.3640689849854
4,1859.3640689849854,2219.586557865143,2219.5865778923035,2254.208582878113
4,2254.208582878113,2614.376165866852,2614.3761909008026,2664.599813938141
4,2664.599813938141,3029.0043568611145,3029.004378795624,3090.968953847885
4,3090.968953847885,3451.7231769561768,3451.723198890686,3527.3386487960815
5,1.6111929416656494,447.5875840187073,447.5876109600067,632.4283919334412
5,632.4283919334412,1066.9745938777924,1066.9746220111847,1122.4666769504547
5,1122.4666769504547,1482.7160229682922,1482.7160439491272,1514.6150228977203
5,1514.6150228977203,1875.7186889648438,1875.7187149524689,1909.9124109745026
5,1909.9124109745026,2270.101817846298,2270.1018369197845,2305.7152938842773
5,2305.7152938842773,2665.9386398792267,2665.9386608600616,2720.13174700737
5,2720.13174700737,3083.1035208702087,3083.1035418510437,3138.518939971924
5,3138.518939971924,3498.782527923584,3498.782548904419,3559.2439119815826
6,0.3060948848724365,360.4471309185028,360.4471549987793,523.0766639709473
6,523.0766639709473,907.7063598632812,907.7063808441162,932.8320608139038
6,932.8320608139038,1293.0420758724213,1293.0420968532562,1318.2901718616486
6,1318.2901718616486,1678.518266916275,1678.51828789711,1705.9768958091736
6,1705.9768958091736,2066.2107779979706,2066.2107977867126,2108.275908946991
6,2108.275908946991,2470.931562900543,2470.9315898418427,2529.223368883133
6,2529.223368883133,2889.838362932205,2889.838385820389,2946.519630908966
6,2946.519630908966,3306.7132749557495,3306.7132959365845,3363.811143875122
6,3363.811143875122,3726.463045835495,3726.463068962097,3788.215292930603
7,1.7552039623260498,503.37189388275146,503.37191700935364,642.3525948524475
7,642.3525948524475,1079.9652359485626,1079.9652597904205,1148.8429408073425
7,1148.8429408073425,1509.0429379940033,1509.042958021164,1538.0320348739624
7,1538.0320348739624,1899.340744972229,1899.340765953064,1934.444091796875
7,1934.444091796875,2294.625898838043,2294.625919818878,2332.9311299324036
7,2332.9311299324036,2693.1465837955475,2693.1466059684753,2747.8154850006104
7,2747.8154850006104,3109.9580760002136,3109.9580969810486,3169.3981568813324
7,3169.3981568813324,3530.326658964157,3530.3266808986664,3589.6099758148193
8,1.3952298164367676,405.8802399635315,405.8802628517151,604.6096489429474
8,604.6096489429474,970.5989758968353,970.5990028381348,1034.1903598308563
8,1034.1903598308563,1424.3666758537292,1424.3666968345642,1448.5926468372345
8,1448.5926468372345,1808.758488893509,1808.7585098743439,1835.0565378665924
8,1835.0565378665924,2195.2672209739685,2195.267241001129,2223.796502828598
8,2223.796502828598,2584.013065814972,2584.013088941574,2639.919457912445
8,2639.919457912445,3000.690619945526,3000.6906428337097,3056.7865228652954
8,3056.7865228652954,3418.9487178325653,3418.9487459659576,3475.1063129901886
9,0.5309867858886719,360.58706188201904,360.58712697029114,532.889163017273
9,532.889163017273,912.3412358760834,912.3412618637085,952.5040049552917
9,952.5040049552917,1312.6737978458405,1312.6738188266754,1340.6646428108215
9,1340.6646428108215,1700.8574528694153,1700.8574748039246,1731.03342294693
9,1731.03342294693,2091.2597308158875,2091.2597517967224,2134.523585796356
9,2134.523585796356,2496.0815918445587,2496.081614971161,2556.724140882492
9,2556.724140882492,2917.1530408859253,2917.1530668735504,2973.643241882324
9,2973.643241882324,3334.8539049625397,3334.8539259433746,3392.762878894806
