app_id,start_exec,end_exec,start_io,end_io
0,0.17640995979309082,18.18678307533264,18.186804056167603,19.807081937789917
0,19.807081937789917,38.03610801696777,38.03611993789673,39.49874806404114
0,39.49874806404114,57.747206926345825,57.747220039367676,59.406758069992065
0,59.406758069992065,77.64812088012695,77.64813303947449,79.35073590278625
0,79.35073590278625,97.52393293380737,97.5239429473877,99.2649130821228
0,99.2649130821228,117.55387306213379,117.55388402938843,119.1268630027771
0,119.1268630027771,137.38098907470703,137.38100004196167,138.93963408470154
0,138.93963408470154,157.13633704185486,157.1363480091095,158.67477107048035
0,158.67477107048035,176.99366688728333,176.99367690086365,178.5057499408722
0,178.5057499408722,196.79763293266296,196.7976429462433,198.30880093574524
0,198.30880093574524,216.51649403572083,216.51650500297546,218.0827600955963
0,218.0827600955963,236.35674500465393,236.35675597190857,238.0587830543518
0,238.0587830543518,256.181480884552,256.1814920902252,257.83826088905334
0,257.83826088905334,276.0803020000458,276.08031392097473,277.7747859954834
0,277.7747859954834,296.0006880760193,296.0006980895996,297.686753988266
0,297.686753988266,315.89747190475464,315.89748311042786,317.5787510871887
0,317.5787510871887,335.8160870075226,335.8160970211029,337.35475492477417
0,337.35475492477417,355.5200901031494,355.52010202407837,357.02680110931396
0,357.02680110931396,378.9456090927124,378.9456379413605,400.2345929145813
0,400.2345929145813,421.9817759990692,421.98180890083313,443.12698793411255
0,443.12698793411255,465.1415638923645,465.14159989356995,487.77480602264404
0,487.77480602264404,509.7980229854584,509.79806089401245,531.2960510253906
0,531.2960510253906,553.4299530982971,553.4299728870392,576.3666501045227
0,576.3666501045227,598.0182659626007,598.0183000564575,620.1427519321442
0,620.1427519321442,641.6139430999756,641.6139690876007,661.371603012085
0,661.371603012085,682.1259660720825,682.1259899139404,700.8506619930267
0,700.8506619930267,729.2644588947296,729.264475107193,733.5255570411682
0,733.5255570411682,751.820837020874,751.8208498954773,753.394937992096
0,753.394937992096,771.6246449947357,771.6246559619904,773.2668120861053
0,773.2668120861053,791.5119640827179,791.5119750499725,793.1747550964355
0,793.1747550964355,811.3879110813141,811.3879210948944,813.0907258987427
0,813.0907258987427,831.2886610031128,831.2886719703674,832.956878900528
0,832.956878900528,851.228385925293,851.2283968925476,852.7146439552307
0,852.7146439552307,870.9325768947601,870.9325881004333,872.626727104187
0,872.626727104187,890.8448240756989,890.8448350429535,892.2987360954285
0,892.2987360954285,910.5205080509186,910.5205190181732,912.1826980113983
0,912.1826980113983,930.420089006424,930.4201009273529,932.0187261104584
0,932.0187261104584,950.2162449359894,950.216255903244,951.800714969635
0,951.800714969635,970.0822920799255,970.0823030471802,971.7547578811646
0,971.7547578811646,990.0120100975037,990.0120220184326,998.8627510070801
0,998.8627510070801,1017.0762848854065,1017.0762960910797,1018.4976890087128
0,1018.4976890087128,1036.9670939445496,1036.967113018036,1047.1306369304657
0,1047.1306369304657,1065.7594780921936,1065.7594950199127,1078.7376868724823
0,1078.7376868724823,1099.2791600227356,1099.279184103012,1117.0931930541992
0,1117.0931930541992,1138.6072590351105,1138.607281923294,1158.8210599422455
0,1158.8210599422455,1180.275554895401,1180.2755799293518,1199.7171840667725
0,1199.7171840667725,1221.1154749393463,1221.1155080795288,1240.9849410057068
0,1240.9849410057068,1262.22331905365,1262.2233550548553,1280.8555529117584
0,1280.8555529117584,1301.6518249511719,1301.6518490314484,1317.7107229232788
0,1317.7107229232788,1338.287712097168,1338.2877440452576,1352.2009890079498
0,1352.2009890079498,1377.4463679790497,1377.446387052536,1390.7387759685516
0,1390.7387759685516,1409.0330200195312,1409.0330350399017,1417.5229649543762
0,1417.5229649543762,1435.684798002243,1435.6848130226135,1445.0212969779968
0,1445.0212969779968,1463.180428981781,1463.1804440021515,1471.8988020420074
0,1471.8988020420074,1490.1000430583954,1490.1000549793243,1491.7389409542084
0,1491.7389409542084,1510.0157239437103,1510.0157339572906,1511.6307408809662
0,1511.6307408809662,1529.8145170211792,1529.8145279884338,1531.5787949562073
0,1531.5787949562073,1549.7482080459595,1549.748219013214,1551.4428160190582
0,1551.4428160190582,1569.649983882904,1569.6499950885773,1571.259085893631
0,1571.259085893631,1589.4320108890533,1589.4320209026337,1591.0187890529633
0,1591.0187890529633,1609.2402579784393,1609.2402698993683,1612.9027528762817
0,1612.9027528762817,1631.0922060012817,1631.0922169685364,1638.6267929077148
0,1638.6267929077148,1657.1649799346924,1657.1650040149689,1664.9908061027527
0,1664.9908061027527,1683.2304470539093,1683.2304649353027,1686.378837108612
0,1686.378837108612,1704.7242290973663,1704.724247932434,1713.486892938614
0,1713.486892938614,1736.030622959137,1736.0306470394135,1741.5668280124664
0,1741.5668280124664,1761.9404799938202,1761.940505027771,1776.2826340198517
0,1776.2826340198517,1796.9050569534302,1796.9050829410553,1813.0706551074982
0,1813.0706551074982,1833.9086530208588,1833.9087131023407,1850.92866396904
0,1850.92866396904,1871.760761976242,1871.760792016983,1890.6226379871368
0,1890.6226379871368,1911.7049849033356,1911.7050340175629,1930.7826249599457
0,1930.7826249599457,1951.904834985733,1951.9048600196838,1967.834664106369
0,1967.834664106369,1987.4973430633545,1987.4973690509796,2006.5666890144348
0,2006.5666890144348,2025.1452040672302,2025.1452250480652,2041.2626249790192
0,2041.2626249790192,2059.649288892746,2059.649307012558,2066.2249019145966
0,2066.2249019145966,2084.6223800182343,2084.6223978996277,2095.938628911972
0,2095.938628911972,2114.535640001297,2114.5356600284576,2119.350688934326
0,2119.350688934326,2137.8095428943634,2137.809562921524,2144.2546210289
0,2144.2546210289,2164.056925058365,2164.0569429397583,2179.0587639808655
0,2179.0587639808655,2197.2886159420013,2197.288626909256,2199.1067819595337
0,2199.1067819595337,2217.3242950439453,2217.3243050575256,2219.142795085907
0,2219.142795085907,2237.360543012619,2237.3605539798737,2239.226751089096
0,2239.226751089096,2257.460124015808,2257.4601349830627,2259.2827780246735
0,2259.2827780246735,2277.496512889862,2277.4965240955353,2279.2387959957123
0,2279.2387959957123,2297.4279589653015,2297.4279708862305,2299.1947798728943
0,2299.1947798728943,2317.6221449375153,2317.6221599578857,2327.91104888916
0,2327.91104888916,2347.2021429538727,2347.2021639347076,2356.4026548862457
0,2356.4026548862457,2376.114196062088,2376.114233016968,2390.326658964157
0,2390.326658964157,2410.3943190574646,2410.3943490982056,2427.975178003311
0,2427.975178003311,2449.130928993225,2449.130954027176,2468.015805006027
0,2468.015805006027,2489.518368959427,2489.518443107605,2510.762804031372
0,2510.762804031372,2532.162332057953,2532.162355899811,2553.984153032303
0,2553.984153032303,2575.0625519752502,2575.062577009201,2593.715754032135
0,2593.715754032135,2614.958534002304,2614.9585580825806,2634.167762041092
0,2634.167762041092,2654.326868057251,2654.326894044876,2670.750060081482
0,2670.750060081482,2690.0507979393005,2690.0508189201355,2703.8866300582886
0,2703.8866300582886,2723.371267080307,2723.3712890148163,2739.8922910690308
0,2739.8922910690308,2771.5880210399628,2771.5880410671234,2779.2227330207825
0,2779.2227330207825,2797.4405810832977,2797.4405949115753,2806.4788110256195
0,2806.4788110256195,2824.728240966797,2824.7282519340515,2826.750787973404
0,2826.750787973404,2844.932548046112,2844.9325590133667,2846.763578891754
0,2846.763578891754,2865.012762069702,2865.0127749443054,2873.978786945343
0,2873.978786945343,2892.195389986038,2892.195400953293,2894.1354598999023
0,2894.1354598999023,2912.5281341075897,2912.5281460285187,2914.4782490730286
0,2914.4782490730286,2933.745871067047,2933.745889902115,2944.5266098976135
0,2944.5266098976135,2962.923558950424,2962.923577070236,2969.938596010208
0,2969.938596010208,2988.411418914795,2988.4114379882812,3000.1986129283905
0,3000.1986129283905,3018.551906108856,3018.551920890808,3025.174707889557
0,3025.174707889557,3044.007556915283,3044.0075800418854,3054.125811100006
0,3054.125811100006,3073.3755350112915,3073.3755559921265,3084.266091108322
0,3084.266091108322,3104.2394909858704,3104.2395129203796,3118.4986000061035
0,3118.4986000061035,3138.5920810699463,3138.592104911804,3156.7827229499817
0,3156.7827229499817,3177.868161916733,3177.8681960105896,3198.82301402092
0,3198.82301402092,3218.140785932541,3218.1408100128174,3232.525981903076
0,3232.525981903076,3253.2719728946686,3253.271996974945,3276.566750049591
0,3276.566750049591,3297.0275349617004,3297.027559041977,3314.26659989357
0,3314.26659989357,3333.92018198967,3333.9202060699463,3349.578994989395
0,3349.578994989395,3369.704381942749,3369.704407930374,3388.097533941269
0,3388.097533941269,3409.3859260082245,3409.385955095291,3425.5082280635834
0,3425.5082280635834,3444.780695915222,3444.7807219028473,3456.8066880702972
0,3456.8066880702972,3476.400372028351,3476.400393009186,3490.1858179569244
0,3490.1858179569244,3509.264913082123,3509.264955997467,3528.7946310043335
0,3528.7946310043335,3551.5731110572815,3551.5731298923492,3565.790822982788
0,3565.790822982788,3584.4050130844116,3584.4050290584564,3594.954601049423
0,3594.954601049423,3613.3453109264374,3613.345330953598,3623.090621948242
0,3623.090621948242,3641.640820980072,3641.640836954117,3660.6706569194794
0,3660.6706569194794,3678.896926879883,3678.896943092346,3687.5386080741882
0,3687.5386080741882,3706.5371930599213,3706.537211894989,3721.978614091873
0,3721.978614091873,3740.9497458934784,3740.9498388767242,3751.2986109256744
0,3751.2986109256744,3770.1217370033264,3770.1217629909515,3777.315633058548
10,1.613461971282959,362.70520091056824,362.7052400112152,727.3542330265045
10,727.3542330265045,1090.3157050609589,1090.3157229423523,1377.7666959762573
10,1377.7666959762573,1741.1207358837128,1741.120749950409,1963.8081560134888
10,1963.8081560134888,2325.722780942917,2325.7228050231934,2554.1482400894165
10,2554.1482400894165,2914.523027896881,2914.523041009903,2957.5184440612793
10,2957.5184440612793,3319.4489901065826,3319.449023962021,3529.3628129959106
11,1.717461109161377,363.30142188072205,363.3014440536499,733.7344720363617
11,733.7344720363617,1095.727098941803,1095.7271239757538,1390.533138036728
11,1390.533138036728,1751.932298898697,1751.932324886322,2008.1305830478668
11,2008.1305830478668,2369.2899329662323,2369.2899549007416,2665.4271709918976
11,2665.4271709918976,3025.9397139549255,3025.9397299289703,3219.8904490470886
11,3219.8904490470886,3580.129266023636,3580.129280090332,3678.5636110305786
12,1.5578079223632812,362.4116380214691,362.4116680622101,724.9626040458679
12,724.9626040458679,1088.9915630817413,1088.9915869235992,1370.242821931839
12,1370.242821931839,1736.0999720096588,1736.0999898910522,1952.5677800178528
12,1952.5677800178528,2312.69211602211,2312.692130088806,2488.740546941757
12,2488.740546941757,2848.760796070099,2848.760808944702,2887.834538936615
12,2887.834538936615,3250.312238931656,3250.312262058258,3486.743316888809
13,1.6654589176177979,363.16156005859375,363.1615788936615,733.9420011043549
13,733.9420011043549,1096.011477947235,1096.0115010738373,1390.6182420253754
13,1390.6182420253754,1752.128345966339,1752.1283650398254,2008.0320150852203
13,2008.0320150852203,2369.1742420196533,2369.174264907837,2665.4086508750916
13,2665.4086508750916,3025.724294900894,3025.7243089675903,3217.5468900203705
13,3217.5468900203705,3577.78902387619,3577.7890388965607,3652.552841901779
14,1.1374809741973877,361.47139501571655,361.47141695022583,694.4208500385284
14,694.4208500385284,1054.9292809963226,1054.9292960166931,1246.9879961013794
14,1246.9879961013794,1607.078612089157,1607.0786259174347,1641.362272977829
14,1641.362272977829,2006.6379599571228,2006.6379759311676,2097.4552319049835
14,2097.4552319049835,2460.642590045929,2460.6426179409027,2738.1644580364227
14,2738.1644580364227,3099.807771921158,3099.807797908783,3370.5547699928284
15,1.4774670600891113,361.855642080307,361.8556659221649,706.2107100486755
15,706.2107100486755,1067.2830600738525,1067.2830760478973,1321.763247013092
15,1321.763247013092,1681.931962966919,1681.9319760799408,1741.3171260356903
15,1741.3171260356903,2101.4898688793182,2101.48988199234,2174.1236939430237
15,2174.1236939430237,2539.8505580425262,2539.8505840301514,2776.686640024185
15,2776.686640024185,3138.787889957428,3138.7879099845886,3417.8829588890076
1,0.0,360.01494097709656,360.0149550437927,621.8710930347443
1,621.8710930347443,981.8971560001373,981.8971688747406,1013.8900148868561
1,1013.8900148868561,1377.4284119606018,1377.4284329414368,1422.5776879787445
1,1422.5776879787445,1784.200758934021,1784.2007820606232,2022.6109058856964
1,2022.6109058856964,2384.8665030002594,2384.86652803421,2683.816890001297
1,2683.816890001297,3045.0069670677185,3045.006989002228,3277.1908209323883
1,3277.1908209323883,3637.561196088791,3637.5612139701843,3731.2619359493256
2,0.2444610595703125,360.31822395324707,360.31823897361755,657.8551080226898
2,657.8551080226898,1018.3160400390625,1018.3160529136658,1050.3824479579926
2,1050.3824479579926,1414.9193959236145,1414.919410943985,1454.2305459976196
2,1454.2305459976196,1816.1124880313873,1816.1125140190125,2041.63520693779
2,2041.63520693779,2403.6663749217987,2403.666400909424,2699.3326139450073
2,2699.3326139450073,3060.4998269081116,3060.4998490810394,3306.0463070869446
2,3306.0463070869446,3666.7296159267426,3666.729630947113,3777.5041420459747
3,1.477466106414795,361.7862010002136,361.78622794151306,706.1900799274445
3,706.1900799274445,1067.2389039993286,1067.238925933838,1321.7908260822296
3,1321.7908260822296,1681.982260942459,1681.9822759628296,1741.6738979816437
3,1741.6738979816437,2102.557473897934,2102.5574889183044,2180.951402902603
3,2180.951402902603,2544.6503899097443,2544.650414943695,2782.8242239952087
3,2782.8242239952087,3145.2558929920197,3145.255918979645,3422.522976875305
4,0.4036369323730469,360.46954798698425,360.46956610679626,664.455118894577
4,664.455118894577,1024.4773089885712,1024.4773240089417,1080.4928500652313
4,1080.4928500652313,1443.73064494133,1443.7306590080261,1484.502660036087
4,1484.502660036087,1847.3530519008636,1847.3530840873718,2056.1839649677277
4,2056.1839649677277,2418.9141929149628,2418.914220094681,2713.4647529125214
4,2713.4647529125214,3074.6279590129852,3074.6279809474945,3331.0893490314484
5,1.5536179542541504,362.5095100402832,362.5095269680023,720.9186179637909
5,720.9186179637909,1089.1991610527039,1089.1991860866547,1377.0167200565338
5,1377.0167200565338,1740.6431560516357,1740.6431798934937,1963.6593289375305
5,1963.6593289375305,2327.422388076782,2327.4224059581757,2555.8909990787506
5,2555.8909990787506,2916.051199913025,2916.0512239933014,3004.119411945343
5,3004.119411945343,3368.340631008148,3368.3406620025635,3563.900242090225
6,1.5694539546966553,362.52633690834045,362.5263509750366,727.0495030879974
6,727.0495030879974,1090.3153328895569,1090.3153579235077,1377.7467029094696
6,1377.7467029094696,1741.1202418804169,1741.120265007019,1967.903291940689
6,1967.903291940689,2328.3903748989105,2328.3903970718384,2562.8947830200195
6,2562.8947830200195,2923.3318090438843,2923.331866979599,3027.066799879074
6,3027.066799879074,3388.153783082962,3388.1538190841675,3567.09499502182
7,1.3817970752716064,361.63874101638794,361.63876509666443,697.7521529197693
7,697.7521529197693,1058.0434091091156,1058.0434229373932,1281.815360069275
7,1281.815360069275,1642.0160019397736,1642.0160150527954,1674.6347279548645
7,1674.6347279548645,2038.305006980896,2038.305027961731,2115.807674884796
7,2115.807674884796,2480.2864320278168,2480.2864570617676,2750.17796087265
7,2750.17796087265,3112.3760089874268,3112.376034975052,3389.3494119644165
8,1.7294740676879883,363.6737940311432,363.67381405830383,733.0504291057587
8,733.0504291057587,1094.8993339538574,1094.8993570804596,1386.3643290996552
8,1386.3643290996552,1747.392942905426,1747.3929669857025,2002.606831073761
8,2002.606831073761,2363.3658390045166,2363.3658618927,2652.5630888938904
8,2652.5630888938904,3012.914295911789,3012.914309978485,3073.3891921043396
8,3073.3891921043396,3434.8005928993225,3434.8006160259247,3593.9480340480804
9,1.5497660636901855,362.5333950519562,362.53340697288513,726.6457788944244
9,726.6457788944244,1087.4712588787079,1087.4712800979614,1366.226289987564
9,1366.226289987564,1736.1003201007843,1736.1003348827362,1949.2713830471039
9,1949.2713830471039,2309.653111934662,2309.6531240940094,2348.146327972412
9,2348.146327972412,2710.5105578899384,2710.5105810165405,2815.436928987503
9,2815.436928987503,3177.8957719802856,3177.8957879543304,3443.7799830436707
