app_id,start_exec,end_exec,start_io,end_io
0,0.0782630443572998,18.089622020721436,18.089641094207764,20.19965100288391
0,20.19965100288391,38.47731900215149,38.47733116149902,40.46349811553955
0,40.46349811553955,58.67891311645508,58.67892408370972,60.7754921913147
0,60.7754921913147,78.97604298591614,78.97605419158936,80.99153304100037
0,80.99153304100037,99.20232820510864,99.20233917236328,101.24747920036316
0,101.24747920036316,119.43291020393372,119.43292212486267,121.48749709129333
0,121.48749709129333,139.68131399154663,139.68132400512695,141.76750111579895
0,141.76750111579895,160.0170681476593,160.01708006858826,162.0794641971588
0,162.0794641971588,180.28696703910828,180.28697800636292,182.33548307418823
0,182.33548307418823,200.56222200393677,200.56223320960999,202.6141061782837
0,202.6141061782837,220.8889410495758,220.88895106315613,222.92759609222412
0,222.92759609222412,241.16955614089966,241.16956615447998,243.25144004821777
0,243.25144004821777,261.4378151893616,261.4378271102905,263.49725103378296
0,263.49725103378296,281.7564551830292,281.7564661502838,283.83551120758057
0,283.83551120758057,302.0331721305847,302.03318309783936,304.1034781932831
0,304.1034781932831,322.2970759868622,322.2970871925354,324.3155200481415
0,324.3155200481415,342.5369040966034,342.53691506385803,344.61553621292114
0,344.61553621292114,368.1248161792755,368.1248450279236,399.74178814888
0,399.74178814888,423.0484809875488,423.04851818084717,453.337877035141
0,453.337877035141,476.9131531715393,476.9131991863251,508.31788206100464
0,508.31788206100464,531.9209411144257,531.9209830760956,562.0742812156677
0,562.0742812156677,585.573163986206,585.5731930732727,611.1071031093597
0,611.1071031093597,632.2259621620178,632.2259941101074,650.4861891269684
0,650.4861891269684,671.8174710273743,671.8174960613251,688.647518157959
0,688.647518157959,709.1051712036133,709.1052072048187,723.8155469894409
0,723.8155469894409,743.433277130127,743.4332931041718,759.323468208313
0,759.323468208313,777.5304191112518,777.5304310321808,778.7716751098633
0,778.7716751098633,797.0110051631927,797.0110170841217,798.1955060958862
0,798.1955060958862,816.4053320884705,816.4053430557251,817.5916590690613
0,817.5916590690613,835.8333451747894,835.8333561420441,837.0195231437683
0,837.0195231437683,855.2658760547638,855.2658870220184,856.5274801254272
0,856.5274801254272,874.7189900875092,874.7190010547638,875.8794870376587
0,875.8794870376587,894.0901160240173,894.0901281833649,895.1641302108765
0,895.1641302108765,913.3807091712952,913.3807201385498,914.5034801959991
0,914.5034801959991,932.7416481971741,932.7416591644287,933.9114780426025
0,933.9114780426025,952.121012210846,952.1210250854492,953.2515320777893
0,953.2515320777893,971.5450220108032,971.5450332164764,972.739541053772
0,972.739541053772,990.9545080661774,990.9545249938965,992.1594650745392
0,992.1594650745392,1010.3307452201843,1010.330756187439,1011.4954710006714
0,1011.4954710006714,1029.7125971317291,1029.7126071453094,1030.9794971942902
0,1030.9794971942902,1049.2095851898193,1049.209596157074,1050.279717206955
0,1050.279717206955,1068.533310174942,1068.5333230495453,1074.9894671440125
0,1074.9894671440125,1093.962630033493,1093.9626531600952,1105.435494184494
0,1105.435494184494,1125.866473197937,1125.866494178772,1142.3318321704865
0,1142.3318321704865,1163.3024611473083,1163.3024921417236,1179.3518869876862
0,1179.3518869876862,1200.1105580329895,1200.1105852127075,1215.3475441932678
0,1215.3475441932678,1235.9475350379944,1235.9475710391998,1251.0213251113892
0,1251.0213251113892,1271.5596330165863,1271.559658050537,1286.8847830295563
0,1286.8847830295563,1307.4390511512756,1307.439078092575,1321.464886188507
0,1321.464886188507,1339.8040761947632,1339.8040931224823,1360.6353690624237
0,1360.6353690624237,1378.909128189087,1378.9091410636902,1380.0755441188812
0,1380.0755441188812,1398.2856040000916,1398.2856152057648,1399.4235110282898
0,1399.4235110282898,1417.6992301940918,1417.6992421150208,1418.9675559997559
0,1418.9675559997559,1437.204516172409,1437.2045271396637,1438.383530139923
0,1438.383530139923,1456.5330321788788,1456.533045053482,1462.835499048233
0,1462.835499048233,1481.1056230068207,1481.1056380271912,1486.8515222072601
0,1486.8515222072601,1505.038066148758,1505.038080215454,1506.15953207016
0,1506.15953207016,1524.3308691978455,1524.3308801651,1525.5315220355988
0,1525.5315220355988,1543.7088260650635,1543.7088360786438,1544.9515180587769
0,1544.9515180587769,1563.1811850070953,1563.1811962127686,1564.4275012016296
0,1564.4275012016296,1582.67719912529,1582.6772100925446,1583.806324005127
0,1583.806324005127,1602.0343902111053,1602.0344030857086,1603.20609998703
0,1603.20609998703,1621.48885512352,1621.4888670444489,1628.7515270709991
0,1628.7515270709991,1646.9249341487885,1646.9249441623688,1648.0988261699677
0,1648.0988261699677,1666.3090131282806,1666.3090240955353,1667.647539138794
0,1667.647539138794,1686.1715841293335,1686.171616077423,1696.1617422103882
0,1696.1617422103882,1715.363923072815,1715.36394906044,1725.299485206604
0,1725.299485206604,1745.492730140686,1745.4927570819855,1760.0693621635437
0,1760.0693621635437,1780.5487411022186,1780.5487830638885,1792.8586390018463
0,1792.8586390018463,1812.4400980472565,1812.4401230812073,1822.9995021820068
0,1822.9995021820068,1843.3564250469208,1843.3564760684967,1854.187360048294
0,1854.187360048294,1873.780834197998,1873.7808589935303,1884.1508920192719
0,1884.1508920192719,1909.2789330482483,1909.2789561748505,1914.1475291252136
0,1914.1475291252136,1938.4856340885162,1938.4856560230255,1946.2395060062408
0,1946.2395060062408,1964.4335091114044,1964.433520078659,1965.6995091438293
0,1965.6995091438293,1984.0089251995087,1984.0089361667633,1985.253046989441
0,1985.253046989441,2003.537649154663,2003.5376620292664,2011.4381330013275
0,2011.4381330013275,2029.652330160141,2029.6523430347443,2030.876391172409
0,2030.876391172409,2049.1464800834656,2049.14649105072,2050.3914852142334
0,2050.3914852142334,2068.5414412021637,2068.541454076767,2073.6475150585175
0,2073.6475150585175,2091.8345081806183,2091.834519147873,2093.0914871692657
0,2093.0914871692657,2111.2610380649567,2111.2610490322113,2112.4794931411743
0,2112.4794931411743,2130.648710012436,2130.648721218109,2131.94748210907
0,2131.94748210907,2150.1884241104126,2150.188436985016,2156.003518104553
0,2156.003518104553,2174.23339509964,2174.2334110736847,2178.5715341567993
0,2178.5715341567993,2196.7451322078705,2196.745143175125,2198.035521030426
0,2198.035521030426,2216.244964122772,2216.2449791431427,2223.6115531921387
0,2223.6115531921387,2241.825476169586,2241.825495004654,2250.451519012451
0,2250.451519012451,2269.177029132843,2269.1770532131195,2274.919333219528
0,2274.919333219528,2294.202188014984,2294.2022449970245,2304.06356215477
0,2304.06356215477,2323.442002058029,2323.44202709198,2333.3234062194824
0,2333.3234062194824,2352.4623930454254,2352.4624631404877,2360.8993561267853
0,2360.8993561267853,2379.9457981586456,2379.9458150863647,2389.691462993622
0,2389.691462993622,2408.3462250232697,2408.3462471961975,2414.775356054306
0,2414.775356054306,2433.2473351955414,2433.247355222702,2435.611862182617
0,2435.611862182617,2453.858169078827,2453.8581840991974,2458.916817188263
0,2458.916817188263,2477.4196321964264,2477.419643163681,2478.8195271492004
0,2478.8195271492004,2497.064712047577,2497.0647251605988,2498.431519985199
0,2498.431519985199,2516.6691591739655,2516.66917014122,2517.9715201854706
0,2517.9715201854706,2536.157243013382,2536.157256126404,2544.57554602623
0,2544.57554602623,2562.742725133896,2562.7427501678467,2568.567560195923
0,2568.567560195923,2586.7696352005005,2586.7696471214294,2588.0795180797577
0,2588.0795180797577,2606.253518104553,2606.253531217575,2612.2315220832825
0,2612.2315220832825,2630.428549051285,2630.4285621643066,2636.395528078079
0,2636.395528078079,2654.636484146118,2654.636496067047,2655.8995730876923
0,2655.8995730876923,2674.109874010086,2674.1098840236664,2675.383558034897
0,2675.383558034897,2693.758196115494,2693.7582161426544,2700.3634231090546
0,2700.3634231090546,2718.78702712059,2718.7870440483093,2729.4074170589447
0,2729.4074170589447,2747.6864800453186,2747.6864972114563,2753.732991218567
0,2753.732991218567,2772.6580681800842,2772.6580970287323,2778.963068008423
0,2778.963068008423,2797.678349018097,2797.678369998932,2805.167615175247
0,2805.167615175247,2824.214591026306,2824.2146151065826,2832.9553651809692
0,2832.9553651809692,2851.7110271453857,2851.711049079895,2858.56360411644
0,2858.56360411644,2877.4985811710358,2877.498603105545,2884.64333319664
0,2884.64333319664,2907.1794772148132,2907.1794970035553,2915.699550151825
0,2915.699550151825,2933.981875181198,2933.9818890094757,2939.6195662021637
0,2939.6195662021637,2957.795750141144,2957.79576420784,2964.239550113678
0,2964.239550113678,2982.4603340625763,2982.460349082947,2990.3914811611176
0,2990.3914811611176,3008.6088950634003,3008.6089091300964,3016.015522003174
0,3016.015522003174,3034.1628761291504,3034.1628880500793,3035.387476205826
0,3035.387476205826,3053.5603470802307,3053.5603590011597,3054.8315060138702
0,3054.8315060138702,3073.0812821388245,3073.0812962055206,3079.4674780368805
0,3079.4674780368805,3097.6536190509796,3097.6536350250244,3106.6874861717224
0,3106.6874861717224,3124.9207711219788,3124.920785188675,3133.651549100876
0,3133.651549100876,3151.856328010559,3151.856341123581,3159.84752202034
0,3159.84752202034,3178.0812821388245,3178.081293106079,3179.475549221039
0,3179.475549221039,3197.697602033615,3197.6976130008698,3199.1435110569
0,3199.1435110569,3217.7274701595306,3217.72749209404,3223.9313402175903
0,3223.9313402175903,3242.361277103424,3242.3612971305847,3253.2873392105103
0,3253.2873392105103,3272.1672739982605,3272.167295217514,3276.731401205063
0,3276.731401205063,3295.3852829933167,3295.385307073593,3302.5953991413116
0,3302.5953991413116,3321.3962070941925,3321.396229028702,3330.0598402023315
0,3330.0598402023315,3348.90647816658,3348.9065001010895,3354.5091021060944
0,3354.5091021060944,3372.9158771038055,3372.915899038315,3377.7873589992523
0,3377.7873589992523,3396.336165189743,3396.3361871242523,3405.286365032196
0,3405.286365032196,3423.640221118927,3423.6402411460876,3429.967418193817
0,3429.967418193817,3448.240576028824,3448.2405881881714,3452.591567993164
0,3452.591567993164,3470.789208173752,3470.789225101471,3477.075534105301
0,3477.075534105301,3495.2975351810455,3495.2975511550903,3503.839541196823
0,3503.839541196823,3522.061513185501,3522.061529159546,3527.6995301246643
0,3527.6995301246643,3545.908282995224,3545.908296108246,3556.4235320091248
0,3556.4235320091248,3574.6299641132355,3574.6299760341644,3576.047579050064
0,3576.047579050064,3594.2877740859985,3594.2877860069275,3595.7835121154785
0,3595.7835121154785,3614.057996034622,3614.058009147644,3618.7395401000977
0,3618.7395401000977,3637.388594150543,3637.3886110782623,3646.667340040207
0,3646.667340040207,3664.832332134247,3664.8323500156403,3667.8115141391754
0,3667.8115141391754,3686.1849780082703,3686.1849961280823,3694.4713361263275
0,3694.4713361263275,3713.2637321949005,3713.2637510299683,3722.239362001419
0,3722.239362001419,3741.4610199928284,3741.461040019989,3754.389479160309
0,3754.389479160309,3773.017065048218,3773.017084121704,3778.1657190322876
10,1.182542085647583,361.81384015083313,361.8138711452484,751.364196062088
10,751.364196062088,1112.8305270671844,1112.8305530548096,1347.251867055893
10,1347.251867055893,1708.2366240024567,1708.2366499900818,1890.3404030799866
10,1890.3404030799866,2250.4898970127106,2250.4899129867554,2350.118480205536
10,2350.118480205536,2710.3722381591797,2710.3722519874573,2754.3039181232452
10,2754.3039181232452,3114.5131180286407,3114.513132095337,3145.3073530197144
10,3145.3073530197144,3505.4532442092896,3505.453258037567,3536.3509089946747
11,1.3942170143127441,362.193852186203,362.1938741207123,759.215008020401
11,759.215008020401,1121.046441078186,1121.0464611053467,1362.8915741443634
11,1362.8915741443634,1725.6410520076752,1725.6410660743713,1913.2893822193146
11,1913.2893822193146,2274.9341011047363,2274.934135198593,2406.559599161148
11,2406.559599161148,2766.891424179077,2766.8914391994476,2841.390431165695
11,2841.390431165695,3201.559949159622,3201.5599629879,3254.6812431812286
11,3254.6812431812286,3614.8943021297455,3614.894320011139,3666.401696205139
12,1.330519199371338,362.0674362182617,362.06745505332947,759.0912530422211
12,759.0912530422211,1120.942612171173,1120.9426341056824,1362.947468996048
12,1362.947468996048,1725.7042961120605,1725.704311132431,1913.7595670223236
12,1913.7595670223236,2275.00159907341,2275.001616001129,2406.7928750514984
12,2406.7928750514984,2767.0986680984497,2767.0986840724945,2846.016288995743
12,2846.016288995743,3206.767403125763,3206.7674221992493,3272.384854078293
12,3272.384854078293,3632.944478034973,3632.944499015808,3695.8939180374146
13,1.30619215965271,362.1216711997986,362.12169003486633,759.15198802948
13,759.15198802948,1120.9430360794067,1120.9430680274963,1362.9815230369568
13,1362.9815230369568,1725.6407001018524,1725.6407260894775,1913.2938060760498
13,1913.2938060760498,2274.934608221054,2274.934624195099,2406.640105009079
13,2406.640105009079,2766.916335105896,2766.916348218918,2841.3255500793457
13,2841.3255500793457,3201.560168027878,3201.5601840019226,3253.59312415123
13,3253.59312415123,3613.805107116699,3613.8051199913025,3646.9586021900177
14,0.5068280696868896,360.6200840473175,360.6201090812683,731.4236311912537
14,731.4236311912537,1091.8875939846039,1091.8876152038574,1317.6638011932373
14,1317.6638011932373,1678.3551230430603,1678.3551440238953,1781.8657670021057
14,1781.8657670021057,2141.9799489974976,2141.9799630641937,2165.6954021453857
14,2165.6954021453857,2525.885402202606,2525.8854150772095,2550.7436530590057
14,2550.7436530590057,2915.631749153137,2915.6317641735077,2947.703399181366
14,2947.703399181366,3308.7517850399017,3308.7518060207367,3387.771695137024
15,1.110525131225586,361.492201089859,361.4922261238098,744.3795042037964
15,744.3795042037964,1105.4951770305634,1105.4952001571655,1339.7035100460052
15,1339.7035100460052,1700.4602980613708,1700.460321187973,1880.5852642059326
15,1880.5852642059326,2240.8484671115875,2240.848479986191,2319.148563146591
15,2319.148563146591,2679.54829120636,2679.5483071804047,2705.2911241054535
15,2705.2911241054535,3065.5280821323395,3065.5281031131744,3091.895297050476
15,3091.895297050476,3452.089924097061,3452.0899381637573,3480.0815670490265
1,0.0,360.0137040615082,360.01371717453003,702.6018211841583
1,702.6018211841583,1062.9664511680603,1062.9664640426636,1086.15225815773
1,1086.15225815773,1446.2682490348816,1446.2682631015778,1469.3836901187897
1,1469.3836901187897,1830.8645401000977,1830.864567041397,1945.4207110404968
1,1945.4207110404968,2306.7136101722717,2306.7136340141296,2433.993991136551
1,2433.993991136551,2794.526276111603,2794.5262970924377,2888.2031841278076
1,2888.2031841278076,3251.7381629943848,3251.738182067871,3313.040359020233
1,3313.040359020233,3673.2402460575104,3673.2402601242065,3722.7859060764313
2,0.23316621780395508,360.2632131576538,360.26323103904724,721.5683131217957
2,721.5683131217957,1081.7143120765686,1081.7143301963806,1251.9857380390167
2,1251.9857380390167,1612.0199871063232,1612.0200011730194,1635.485377073288
2,1635.485377073288,1995.6854372024536,1995.6854500770569,2018.7748641967773
2,2018.7748641967773,2379.8898751735687,2379.889922142029,2455.702686071396
2,2455.702686071396,2816.6114501953125,2816.6114740371704,2909.152266025543
2,2909.152266025543,3269.655919075012,3269.6559410095215,3349.2317140102386
2,3349.2317140102386,3709.6727950572968,3709.6728150844574,3773.787262201309
3,0.027352094650268555,360.1007790565491,360.10080909729004,713.9464321136475
3,713.9464321136475,1074.3498451709747,1074.3498601913452,1110.5484840869904
3,1110.5484840869904,1470.9054911136627,1470.905503988266,1494.0434901714325
3,1494.0434901714325,1855.351998090744,1855.3520340919495,1947.8170030117035
3,1947.8170030117035,2309.3338720798492,2309.3338961601257,2437.6275701522827
3,2437.6275701522827,2798.5105500221252,2798.51057100296,2894.9156210422516
3,2894.9156210422516,3255.192023038864,3255.192040205002,3335.3675541877747
3,3335.3675541877747,3695.5092701911926,3695.509285211563,3756.0688891410828
4,0.8545291423797607,361.2057480812073,361.2057740688324,738.2799370288849
4,738.2799370288849,1099.9069330692291,1099.9069590568542,1328.5916121006012
4,1328.5916121006012,1693.1574440002441,1693.1574652194977,1846.160061120987
4,1846.160061120987,2206.297618150711,2206.2976310253143,2230.367091178894
4,2230.367091178894,2590.5569081306458,2590.556921005249,2616.387067079544
4,2616.387067079544,2976.5977790355682,2976.5977931022644,3002.9715411663055
4,3002.9715411663055,3363.832183122635,3363.83220410347,3432.2606041431427
5,0.4380381107330322,360.7315502166748,360.7315740585327,730.531336069107
5,730.531336069107,1090.958731174469,1090.9587512016296,1311.8685190677643
5,1311.8685190677643,1671.892007112503,1671.8920221328735,1696.3212242126465
5,1696.3212242126465,2056.479436159134,2056.479449033737,2080.159200191498
5,2080.159200191498,2440.324949026108,2440.324963092804,2479.086876153946
5,2479.086876153946,2840.0435650348663,2840.043599128723,2922.5844161510468
5,2922.5844161510468,3283.0239601135254,3283.0239980220795,3371.473556995392
6,0.36253905296325684,360.4960000514984,360.4960231781006,731.6409521102905
6,731.6409521102905,1092.2224140167236,1092.2224340438843,1319.4601411819458
6,1319.4601411819458,1679.6943001747131,1679.6943180561066,1803.7709381580353
6,1803.7709381580353,2164.1191070079803,2164.119120121002,2188.515528202057
6,2188.515528202057,2548.6974890232086,2548.6975021362305,2574.0353569984436
6,2574.0353569984436,2936.643240213394,2936.6432540416718,2971.7871601581573
6,2971.7871601581573,3332.499752998352,3332.49977517128,3405.4149680137634
7,1.2061810493469238,361.93133521080017,361.93135619163513,753.0079481601715
7,753.0079481601715,1119.0549612045288,1119.0549881458282,1354.9634261131287
7,1354.9634261131287,1719.1999521255493,1719.1999762058258,1901.827674150467
7,1901.827674150467,2262.3256452083588,2262.3256661891937,2386.2609000205994
7,2386.2609000205994,2746.4293642044067,2746.429381132126,2778.115530014038
7,2778.115530014038,3138.7336661815643,3138.733680009842,3169.6032240390778
7,3169.6032240390778,3529.792682170868,3529.792695045471,3562.535346031189
8,0.9741990566253662,361.4009521007538,361.4009790420532,742.0574781894684
8,742.0574781894684,1103.89124417305,1103.8912692070007,1335.6886830329895
8,1335.6886830329895,1696.0494821071625,1696.049504995346,1866.6194970607758
8,1866.6194970607758,2226.974625110626,2226.9746391773224,2253.2203240394592
8,2253.2203240394592,2613.4490411281586,2613.449054002762,2639.54753613472
8,2639.54753613472,2999.734013080597,2999.734025001526,3028.0145411491394
8,3028.0145411491394,3388.344011068344,3388.3440310955048,3452.937548160553
9,1.2425570487976074,361.6031370162964,361.6031630039215,744.4075150489807
9,744.4075150489807,1105.5082650184631,1105.50829911232,1339.8500890731812
9,1339.8500890731812,1700.552071094513,1700.5520911216736,1880.6157970428467
9,1880.6157970428467,2241.2936491966248,2241.293673992157,2321.0489270687103
9,2321.0489270687103,2681.2083830833435,2681.208398103714,2729.8674051761627
9,2729.8674051761627,3090.0652980804443,3090.065311193466,3117.694367170334
9,3117.694367170334,3477.84965801239,3477.8496730327606,3507.511885166168
