app_id,start_exec,end_exec,start_io,end_io
0,0.0037429332733154297,18.02289891242981,18.022918939590454,19.349669933319092
0,19.349669933319092,37.59146189689636,37.59147596359253,38.79431700706482
0,38.79431700706482,57.02735495567322,57.02736687660217,58.24387001991272
0,58.24387001991272,76.48323202133179,76.48324394226074,77.77739691734314
0,77.77739691734314,95.98700904846191,95.98702096939087,97.22541189193726
0,97.22541189193726,115.4616060256958,115.46161699295044,116.76248407363892
0,116.76248407363892,135.020840883255,135.02085089683533,136.39749002456665
0,136.39749002456665,154.69590497016907,154.69591689109802,156.05266690254211
0,156.05266690254211,174.30321192741394,174.30322194099426,175.65342688560486
0,175.65342688560486,193.87448000907898,193.8744900226593,195.08548593521118
0,195.08548593521118,213.29124093055725,213.29125094413757,214.64547896385193
0,214.64547896385193,232.8914189338684,232.89142990112305,234.24149799346924
0,234.24149799346924,252.4918658733368,252.49188494682312,253.82521605491638
0,253.82521605491638,272.06268787384033,272.06269907951355,273.34549498558044
0,273.34549498558044,291.5629560947418,291.56296706199646,292.8174960613251
0,292.8174960613251,311.0590579509735,311.05906891822815,312.5495979785919
0,312.5495979785919,330.8175230026245,330.81753396987915,332.2414438724518
0,332.2414438724518,350.4989769458771,350.4989879131317,351.90940499305725
0,351.90940499305725,373.5802118778229,373.5802369117737,392.7094750404358
0,392.7094750404358,414.39226508140564,414.392294883728,434.393187046051
0,434.393187046051,455.76437401771545,455.7643949985504,474.86159896850586
0,474.86159896850586,496.4203610420227,496.4203860759735,515.189425945282
0,515.189425945282,536.6290020942688,536.6290230751038,557.2895860671997
0,557.2895860671997,578.6287250518799,578.6287560462952,597.9865601062775
0,597.9865601062775,619.2009840011597,619.2010090351105,636.2134430408478
0,636.2134430408478,656.7050859928131,656.7051200866699,681.1573100090027
0,681.1573100090027,705.9220509529114,705.9220678806305,707.369500875473
0,707.369500875473,725.6228311061859,725.6228430271149,727.0519120693207
0,727.0519120693207,745.3062040805817,745.3062150478363,746.7095029354095
0,746.7095029354095,764.9410600662231,764.9410800933838,766.537477016449
0,766.537477016449,784.703852891922,784.7038640975952,786.076798915863
0,786.076798915863,804.2664759159088,804.2664868831635,805.6654040813446
0,805.6654040813446,823.8145339488983,823.8145458698273,825.3574340343475
0,825.3574340343475,843.5769829750061,843.5769948959351,845.0534460544586
0,845.0534460544586,863.2710618972778,863.2710719108582,864.6175410747528
0,864.6175410747528,882.9066529273987,882.9066650867462,884.2895219326019
0,884.2895219326019,902.5687029361725,902.56871509552,903.9014570713043
0,903.9014570713043,922.1311490535736,922.1311600208282,923.5214478969574
0,923.5214478969574,941.7552449703217,941.7552559375763,943.0894210338593
0,943.0894210338593,961.338968038559,961.3389799594879,962.761491060257
0,962.761491060257,980.9603579044342,980.9603688716888,982.3734109401703
0,982.3734109401703,1000.7197830677032,1000.719799041748,1010.5574219226837
0,1010.5574219226837,1029.5578649044037,1029.5578899383545,1039.4093089103699
0,1039.4093089103699,1060.0940489768982,1060.0940730571747,1078.5351660251617
0,1078.5351660251617,1100.230271100998,1100.2303059101105,1119.1036579608917
0,1119.1036579608917,1140.665983915329,1140.6660130023956,1160.962984085083
0,1160.962984085083,1181.4819550514221,1181.4819779396057,1198.7997028827667
0,1198.7997028827667,1219.0220799446106,1219.0221049785614,1233.8532960414886
0,1233.8532960414886,1254.4220180511475,1254.422040939331,1270.5293259620667
0,1270.5293259620667,1294.500186920166,1294.5002119541168,1303.1454010009766
0,1303.1454010009766,1328.311357975006,1328.3113799095154,1342.3785450458527
0,1342.3785450458527,1360.6511058807373,1360.6511189937592,1362.2494750022888
0,1362.2494750022888,1380.4593670368195,1380.459378004074,1382.0015199184418
0,1382.0015199184418,1400.2678310871124,1400.2678439617157,1406.8174550533295
0,1406.8174550533295,1425.0071890354156,1425.0072009563446,1426.477464914322
0,1426.477464914322,1444.675143957138,1444.675155878067,1446.1454920768738
0,1446.1454920768738,1464.4108679294586,1464.4108800888062,1466.111543893814
0,1466.111543893814,1484.3912780284882,1484.3912889957428,1485.9055480957031
0,1485.9055480957031,1504.0903480052948,1504.0903589725494,1505.5864140987396
0,1505.5864140987396,1523.8227128982544,1523.8227241039276,1525.3614919185638
0,1525.3614919185638,1543.7306129932404,1543.7306280136108,1552.0733180046082
0,1552.0733180046082,1570.2868089675903,1570.2868220806122,1577.517548084259
0,1577.517548084259,1595.766774892807,1595.7667870521545,1603.1814839839935
0,1603.1814839839935,1621.3824648857117,1621.3824770450592,1623.0214920043945
0,1623.0214920043945,1641.2379689216614,1641.237981081009,1642.785500049591
0,1642.785500049591,1661.331286907196,1661.331309080124,1668.701350927353
0,1668.701350927353,1687.8362019062042,1687.836236000061,1697.6733949184418
0,1697.6733949184418,1718.3153629302979,1718.3153879642487,1735.321093082428
0,1735.321093082428,1755.9791910648346,1755.9792199134827,1770.0535171031952
0,1770.0535171031952,1789.9471700191498,1789.9472088813782,1802.714756011963
0,1802.714756011963,1822.8872458934784,1822.8872859477997,1836.0534219741821
0,1836.0534219741821,1855.6235110759735,1855.6235358715057,1868.6293380260468
0,1868.6293380260468,1888.111454963684,1888.1114790439606,1906.0134201049805
0,1906.0134201049805,1928.91983294487,1928.919851064682,1939.5693230628967
0,1939.5693230628967,1958.0929329395294,1958.0929470062256,1965.7213070392609
0,1965.7213070392609,1984.3136661052704,1984.3136820793152,1993.8074400424957
0,1993.8074400424957,2012.0475358963013,2012.0475509166718,2019.469435930252
0,2019.469435930252,2037.6713380813599,2037.6713500022888,2039.1854660511017
0,2039.1854660511017,2057.370929002762,2057.370940923691,2058.9814879894257
0,2058.9814879894257,2077.20694899559,2077.206959962845,2078.9187920093536
0,2078.9187920093536,2097.114984035492,2097.1149950027466,2098.8734600543976
0,2098.8734600543976,2117.138705968857,2117.1387169361115,2118.542057991028
0,2118.542057991028,2136.751149892807,2136.75116109848,2138.2734858989716
0,2138.2734858989716,2156.9405748844147,2156.9405920505524,2168.293294906616
0,2168.293294906616,2186.6406280994415,2186.640645980835,2191.7573359012604
0,2191.7573359012604,2212.642965078354,2212.6429829597473,2221.6814498901367
0,2221.6814498901367,2240.064339876175,2240.0643570423126,2250.7813289165497
0,2250.7813289165497,2269.2287271022797,2269.2287430763245,2281.4774329662323
0,2281.4774329662323,2300.864850997925,2300.8648738861084,2312.433312892914
0,2312.433312892914,2332.288754940033,2332.2887790203094,2345.2773580551147
0,2345.2773580551147,2366.2768619060516,2366.2768869400024,2379.309305906296
0,2379.309305906296,2399.3650529384613,2399.3650789260864,2412.986072063446
0,2412.986072063446,2433.297245979309,2433.29727101326,2447.5253150463104
0,2447.5253150463104,2469.952101945877,2469.952131986618,2473.467225074768
0,2473.467225074768,2492.180974006653,2492.180995941162,2501.382733106613
0,2501.382733106613,2519.6115040779114,2519.611517906189,2526.6534690856934
0,2526.6534690856934,2544.8548889160156,2544.854902982712,2552.9615230560303
0,2552.9615230560303,2571.184173107147,2571.184184074402,2572.8374938964844
0,2572.8374938964844,2591.2292079925537,2591.229223012924,2602.189176082611
0,2602.189176082611,2621.3904600143433,2621.3904740810394,2632.0684928894043
0,2632.0684928894043,2650.481750011444,2650.4817640781403,2661.3653888702393
0,2661.3653888702393,2679.5426828861237,2679.54269695282,2688.0616478919983
0,2688.0616478919983,2706.2474858760834,2706.2474970817566,2707.7494781017303
0,2707.7494781017303,2726.09725189209,2726.097263097763,2727.6494920253754
0,2727.6494920253754,2745.839562892914,2745.8395779132843,2752.4614820480347
0,2752.4614820480347,2770.674421072006,2770.674432039261,2772.35178399086
0,2772.35178399086,2790.6652269363403,2790.665239095688,2792.261477947235
0,2792.261477947235,2810.4233660697937,2810.423378944397,2817.653506040573
0,2817.653506040573,2836.5900399684906,2836.590061903,2845.405343055725
0,2845.405343055725,2864.737807035446,2864.7378330230713,2875.929375886917
0,2875.929375886917,2895.808799982071,2895.8088278770447,2908.42537689209
0,2908.42537689209,2928.410129070282,2928.41015291214,2944.304843902588
0,2944.304843902588,2963.9861419200897,2963.9861669540405,2976.3933799266815
0,2976.3933799266815,2996.1542949676514,2996.1543328762054,3008.3173429965973
0,3008.3173429965973,3027.6226918697357,3027.622720003128,3038.669310092926
0,3038.669310092926,3058.9021558761597,3058.9021809101105,3069.657289981842
0,3069.657289981842,3088.9945769309998,3088.994602918625,3101.3093099594116
0,3101.3093099594116,3121.1290838718414,3121.129105091095,3127.993344068527
0,3127.993344068527,3146.7585530281067,3146.7585730552673,3158.0457479953766
0,3158.0457479953766,3176.307121992111,3176.3071360588074,3186.0935230255127
0,3186.0935230255127,3204.334888935089,3204.3349030017853,3213.1334331035614
0,3213.1334331035614,3231.3148119449615,3231.314822912216,3232.8415479660034
0,3232.8415479660034,3251.147243976593,3251.147255897522,3252.937484025955
0,3252.937484025955,3271.219444990158,3271.2194559574127,3272.8375029563904
0,3272.8375029563904,3291.043617963791,3291.0436289310455,3292.569503068924
0,3292.569503068924,3310.9450430870056,3310.945060968399,3317.913381099701
0,3317.913381099701,3336.238981962204,3336.2390019893646,3357.8532979488373
0,3357.8532979488373,3376.263360977173,3376.2633769512177,3391.5333819389343
0,3391.5333819389343,3411.0271298885345,3411.027167081833,3423.8414199352264
0,3423.8414199352264,3442.726940870285,3442.726963043213,3458.0213479995728
0,3458.0213479995728,3476.8558440208435,3476.855865955353,3485.389323949814
0,3485.389323949814,3504.875408887863,3504.8754320144653,3515.533324956894
0,3515.533324956894,3534.9792289733887,3534.979252099991,3542.1933760643005
0,3542.1933760643005,3562.071485042572,3562.0714988708496,3574.8413610458374
0,3574.8413610458374,3594.3674199581146,3594.3674449920654,3610.673527956009
0,3610.673527956009,3630.343302965164,3630.3433270454407,3644.520840883255
0,3644.520840883255,3663.311924934387,3663.3119480609894,3671.697345972061
0,3671.697345972061,3690.116152048111,3690.1161708831787,3704.739331007004
0,3704.739331007004,3723.3961329460144,3723.396148920059,3730.3853800296783
0,3730.3853800296783,3748.7798750400543,3748.779893875122,3761.8053538799286
0,3761.8053538799286,3780.4399259090424,3780.439954996109,3796.631212949753
10,1.184161901473999,361.6829800605774,361.6830039024353,670.3694999217987
10,670.3694999217987,1031.7415609359741,1031.741585969925,1302.4571208953857
10,1302.4571208953857,1663.2674810886383,1663.2675020694733,1853.8534610271454
10,1853.8534610271454,2214.703351020813,2214.703366994858,2254.629324913025
10,2254.629324913025,2614.83908700943,2614.839101076126,2670.3046400547028
10,2670.3046400547028,3031.7382650375366,3031.7382888793945,3158.4372560977936
10,3158.4372560977936,3519.3956129550934,3519.39563703537,3680.2015841007233
11,1.33217191696167,362.10340690612793,362.1034269332886,681.0332350730896
11,681.0332350730896,1049.890058040619,1049.8900818824768,1331.980299949646
11,1331.980299949646,1693.1673810482025,1693.1674211025238,1906.2058899402618
11,1906.2058899402618,2270.8652498722076,2270.865266084671,2446.4737820625305
11,2446.4737820625305,2807.1030988693237,2807.10311293602,2838.408916950226
11,2838.408916950226,3198.840698003769,3198.840710878372,3231.4605379104614
11,3231.4605379104614,3592.8359298706055,3592.8359620571136,3729.3780319690704
12,1.440161943435669,362.37693095207214,362.3769519329071,691.0809180736542
12,691.0809180736542,1053.965805053711,1053.965833902359,1342.621237039566
12,1342.621237039566,1704.2072761058807,1704.207300901413,1923.5887129306793
12,1923.5887129306793,2284.2402670383453,2284.240289926529,2473.19718003273
12,2473.19718003273,2833.9144699573517,2833.914500951767,3004.849632024765
12,3004.849632024765,3364.958771944046,3364.958786010742,3432.410810947418
13,1.5321691036224365,362.3705270290375,362.3705461025238,689.5816400051117
13,689.5816400051117,1052.045935869217,1052.0459620952606,1339.673367023468
13,1339.673367023468,1700.903482913971,1700.9035139083862,1914.6495308876038
13,1914.6495308876038,2281.341630935669,2281.341651916504,2455.4416580200195
13,2455.4416580200195,2815.6704239845276,2815.670439004898,2942.160008907318
13,2942.160008907318,3302.3504779338837,3302.3504939079285,3362.455118894577
13,3362.455118894577,3722.995495080948,3722.995512008667,3797.029321908951
14,1.2921929359436035,361.93158888816833,361.9316120147705,681.3561079502106
14,681.3561079502106,1050.009780883789,1050.0098240375519,1335.281574010849
14,1335.281574010849,1700.4270370006561,1700.4270689487457,1913.565640926361
14,1913.565640926361,2281.342724084854,2281.3427600860596,2455.4711439609528
14,2455.4711439609528,2815.706505060196,2815.706517934799,2941.6582350730896
14,2941.6582350730896,3301.749909877777,3301.749922990799,3352.9401609897614
14,3352.9401609897614,3713.0873448848724,3713.0873589515686,3766.672597885132
15,1.4881560802459717,362.3519859313965,362.35200905799866,691.0559229850769
15,691.0559229850769,1053.9816789627075,1053.981693983078,1342.629182100296
15,1342.629182100296,1704.299998998642,1704.3000299930573,1923.3886709213257
15,1923.3886709213257,2283.818141937256,2283.818163871765,2470.079761981964
15,2470.079761981964,2830.729598045349,2830.729619026184,2995.8287360668182
15,2995.8287360668182,3355.918520927429,3355.9185349941254,3393.6108350753784
1,0.0,360.0155539512634,360.0155670642853,630.2737379074097
1,630.2737379074097,990.6910390853882,990.6910529136658,1020.5773899555206
1,1020.5773899555206,1380.77401804924,1380.7740318775177,1410.5009050369263
1,1410.5009050369263,1772.3080399036407,1772.3081049919128,1939.9419338703156
1,1939.9419338703156,2301.1847529411316,2301.184777021408,2486.861051082611
1,2486.861051082611,2847.5056660175323,2847.505691051483,3023.911544084549
1,3023.911544084549,3385.363250017166,3385.3632769584656,3460.2743899822235
2,0.01694202423095703,360.1426010131836,360.1426160335541,639.3551709651947
2,639.3551709651947,999.4865510463715,999.486566066742,1178.724282026291
2,1178.724282026291,1539.0934760570526,1539.093491077423,1589.2285740375519
2,1589.2285740375519,1949.423429965973,1949.4234449863434,1994.8806910514832
2,1994.8806910514832,2356.8164670467377,2356.8164920806885,2518.6218140125275
2,2518.6218140125275,2879.6941039562225,2879.694128036499,3062.029412984848
2,3062.029412984848,3423.817020893097,3423.817051887512,3536.1095900535583
3,0.016273021697998047,360.2807729244232,360.2807950973511,643.3429300785065
3,643.3429300785065,1010.4784939289093,1010.4785149097443,1215.235694885254
3,1215.235694885254,1577.4724440574646,1577.4724600315094,1617.7371900081635
3,1617.7371900081635,1977.9396419525146,1977.9396569728851,2023.048791885376
3,2023.048791885376,2384.781235933304,2384.7812869548798,2531.553785085678
3,2531.553785085678,2893.2138419151306,2893.213870048523,3075.0322771072388
3,3075.0322771072388,3435.763382911682,3435.76340508461,3562.776927947998
4,0.012851953506469727,360.12628698349,360.1263039112091,639.1867380142212
4,639.1867380142212,999.3330199718475,999.3330340385437,1169.7304980754852
4,1169.7304980754852,1529.75013589859,1529.7501499652863,1560.4655339717865
4,1560.4655339717865,1921.290517091751,1921.290533065796,1965.9537189006805
4,1965.9537189006805,2327.468498945236,2327.4685249328613,2499.2697830200195
4,2499.2697830200195,2860.3540980815887,2860.3541219234467,3045.774754047394
4,3045.774754047394,3406.147208929062,3406.147237062454,3509.7253909111023
5,1.3244969844818115,362.0449769496918,362.0449969768524,681.2813169956207
5,681.2813169956207,1049.8574900627136,1049.8575270175934,1328.5514600276947
5,1328.5514600276947,1689.6554040908813,1689.6554288864136,1897.0090939998627
5,1897.0090939998627,2257.1906259059906,2257.1906390190125,2370.126585006714
5,2370.126585006714,2730.5315539836884,2730.5315680503845,2761.2133009433746
5,2761.2133009433746,3121.7785000801086,3121.778522014618,3200.0031650066376
5,3200.0031650066376,3562.036092042923,3562.036115884781,3710.481787919998
6,1.1203389167785645,361.4879560470581,361.4879720211029,666.7974979877472
6,666.7974979877472,1027.4741849899292,1027.474200963974,1295.8527510166168
6,1295.8527510166168,1656.2248380184174,1656.2248530387878,1791.523402929306
6,1791.523402929306,2151.86812210083,2151.868139028549,2225.022533893585
6,2225.022533893585,2585.206335067749,2585.2063500881195,2640.5808758735657
6,2640.5808758735657,3002.8943450450897,3002.8943779468536,3137.773279905319
6,3137.773279905319,3498.8842170238495,3498.8842599391937,3660.6895010471344
7,1.2683498859405518,361.991544008255,361.9915668964386,680.938451051712
7,680.938451051712,1042.2376749515533,1042.2377030849457,1310.0186948776245
7,1310.0186948776245,1670.915783882141,1670.915822982788,1868.3334438800812
7,1868.3334438800812,2228.6387910842896,2228.638804912567,2283.9980568885803
7,2283.9980568885803,2644.2229590415955,2644.222974061966,2699.84091591835
7,2699.84091591835,3061.8574979305267,3061.8575310707092,3175.9177119731903
7,3175.9177119731903,3536.647495985031,3536.647521018982,3689.0416629314423
8,1.068505048751831,361.4866271018982,361.4866499900818,666.8147099018097
8,666.8147099018097,1027.4741621017456,1027.4741809368134,1295.8467869758606
8,1295.8467869758606,1656.1062989234924,1656.1063120365143,1782.43443608284
8,1782.43443608284,2142.8472180366516,2142.847230911255,2174.04150390625
8,2174.04150390625,2534.238173007965,2534.2381858825684,2565.2290539741516
8,2565.2290539741516,2927.2942719459534,2927.294296979904,3101.026347875595
8,3101.026347875595,3461.695431947708,3461.695452928543,3612.330617904663
9,1.032167911529541,361.40196204185486,361.40198802948,666.6453859806061
9,666.6453859806061,1027.3302819728851,1027.3303039073944,1295.8569819927216
9,1295.8569819927216,1656.174642086029,1656.1746580600739,1788.9777989387512
9,1788.9777989387512,2149.143800973892,2149.143819093704,2219.0946350097656
9,2219.0946350097656,2579.307168006897,2579.307182073593,2610.997117996216
9,2610.997117996216,2972.778825044632,2972.7788529396057,3121.853105068207
9,3121.853105068207,3482.9350678920746,3482.9350910186768,3641.7588469982147
