I think I'm working for the application of IOSETS_JOB_ID = 5
I'll open/create the priority file /sys/kernel/config/iosets/5/priority!
Priority = 0.025000 (250)
Now I'll create the log file
Now I'll wait for information from the predictor
I will launch the predictor on file /root/running_ior/5/8.jsonl
101.850000 1.000000
Priority = 0.010000 (100)
632.500000 1.000000
Priority = 0.001000 (10)
528.750000 1.000000
Priority = 0.001000 (10)
476.833333 1.000000
Priority = 0.001000 (10)
202.333333 0.940012
Priority = 0.010000 (100)
203.336364 1.000000
Priority = 0.010000 (100)
205.500000 1.000000
Priority = 0.010000 (100)
206.673333 1.000000
Priority = 0.010000 (100)
