I think I'm working for the application of IOSETS_JOB_ID = 6
I'll open/create the priority file /sys/kernel/config/iosets/6/priority!
Priority = 0.026000 (260)
Now I'll create the log file
Now I'll wait for information from the predictor
I will launch the predictor on file /root/running_ior/6/8.jsonl
63.033333 1.000000
Priority = 0.010000 (100)
659.100000 1.000000
Priority = 0.001000 (10)
528.300000 1.000000
Priority = 0.001000 (10)
-1.000000 1.000000
Priority = 0.001000 (10)
131.642857 1.000000
Priority = 0.010000 (100)
132.835294 1.000000
Priority = 0.010000 (100)
134.170000 0.826700
Priority = 0.010000 (100)
-1.000000 0.826700
Priority = 0.010000 (100)
