I think I'm working for the application of IOSETS_JOB_ID = 1
I'll open/create the priority file /sys/kernel/config/iosets/1/priority!
Priority = 0.030000 (300)
Now I'll create the log file
Now I'll wait for information from the predictor
I will launch the predictor on file /root/running_ior/1/8.jsonl
-1.000000 0.000000
Priority = 0.030000 (300)
-1.000000 0.000000
Priority = 0.030000 (300)
-1.000000 0.000000
Priority = 0.030000 (300)
-1.000000 0.000000
Priority = 0.030000 (300)
-1.000000 0.000000
Priority = 0.030000 (300)
-1.000000 0.000000
Priority = 0.030000 (300)
-1.000000 0.000000
Priority = 0.030000 (300)
-1.000000 0.000000
Priority = 0.030000 (300)
-1.000000 0.000000
Priority = 0.030000 (300)
-1.000000 0.000000
Priority = 0.030000 (300)
-1.000000 0.000000
Priority = 0.030000 (300)
-1.000000 0.000000
Priority = 0.030000 (300)
-1.000000 0.000000
Priority = 0.030000 (300)
-1.000000 0.000000
Priority = 0.030000 (300)
-1.000000 0.000000
Priority = 0.030000 (300)
-1.000000 0.000000
Priority = 0.030000 (300)
-1.000000 0.000000
Priority = 0.030000 (300)
-1.000000 0.000000
Priority = 0.030000 (300)
-1.000000 0.000000
Priority = 0.030000 (300)
-1.000000 0.000000
Priority = 0.030000 (300)
-1.000000 0.000000
Priority = 0.030000 (300)
-1.000000 0.000000
Priority = 0.030000 (300)
20.188889 1.000000
Priority = 0.100000 (1000)
20.167568 1.000000
Priority = 0.100000 (1000)
20.150000 1.000000
Priority = 0.100000 (1000)
20.133333 1.000000
Priority = 0.100000 (1000)
20.117500 1.000000
Priority = 0.100000 (1000)
20.104878 1.000000
Priority = 0.100000 (1000)
20.161905 1.000000
Priority = 0.100000 (1000)
20.176744 1.000000
Priority = 0.100000 (1000)
20.218182 0.800352
Priority = 0.100000 (1000)
20.082609 1.000000
Priority = 0.100000 (1000)
20.817391 1.000000
Priority = 0.100000 (1000)
20.122642 1.000000
Priority = 0.100000 (1000)
20.255357 1.000000
Priority = 0.100000 (1000)
20.660714 1.000000
Priority = 0.100000 (1000)
-1.000000 1.000000
Priority = 0.100000 (1000)
-1.000000 1.000000
Priority = 0.100000 (1000)
20.265000 1.000000
Priority = 0.100000 (1000)
20.262295 1.000000
Priority = 0.100000 (1000)
20.667213 1.000000
Priority = 0.100000 (1000)
20.125000 1.000000
Priority = 0.100000 (1000)
20.184615 1.000000
Priority = 0.100000 (1000)
20.250000 1.000000
Priority = 0.100000 (1000)
-1.000000 1.000000
Priority = 0.100000 (1000)
20.634328 1.000000
Priority = 0.100000 (1000)
20.654412 1.000000
Priority = 0.100000 (1000)
20.673913 1.000000
Priority = 0.100000 (1000)
20.718571 1.000000
Priority = 0.100000 (1000)
-1.000000 1.000000
Priority = 0.100000 (1000)
-1.000000 1.000000
Priority = 0.100000 (1000)
20.242667 1.000000
Priority = 0.100000 (1000)
-1.000000 1.000000
Priority = 0.100000 (1000)
10.228105 1.000000
Priority = 0.100000 (1000)
20.633766 1.000000
Priority = 0.100000 (1000)
20.679487 1.000000
Priority = 0.100000 (1000)
-1.000000 1.000000
Priority = 0.100000 (1000)
-1.000000 1.000000
Priority = 0.100000 (1000)
-1.000000 1.000000
Priority = 0.100000 (1000)
20.120000 0.848764
Priority = 0.100000 (1000)
20.646429 1.000000
Priority = 0.100000 (1000)
20.654118 1.000000
Priority = 0.100000 (1000)
20.686047 1.000000
Priority = 0.100000 (1000)
20.694253 1.000000
Priority = 0.100000 (1000)
10.205587 1.000000
Priority = 0.100000 (1000)
20.152174 1.000000
Priority = 0.100000 (1000)
20.673626 1.000000
Priority = 0.100000 (1000)
-1.000000 1.000000
Priority = 0.100000 (1000)
20.639362 1.000000
Priority = 0.100000 (1000)
20.682105 1.000000
Priority = 0.100000 (1000)
20.730208 1.000000
Priority = 0.100000 (1000)
20.153000 1.000000
Priority = 0.100000 (1000)
-1.000000 1.000000
Priority = 0.100000 (1000)
20.651000 1.000000
Priority = 0.100000 (1000)
20.700990 1.000000
Priority = 0.100000 (1000)
-1.000000 1.000000
Priority = 0.100000 (1000)
20.171698 1.000000
Priority = 0.100000 (1000)
-1.000000 1.000000
Priority = 0.100000 (1000)
20.663208 1.000000
Priority = 0.100000 (1000)
-1.000000 1.000000
Priority = 0.100000 (1000)
-1.000000 1.000000
Priority = 0.100000 (1000)
-1.000000 1.000000
Priority = 0.100000 (1000)
20.694595 1.000000
Priority = 0.100000 (1000)
-1.000000 1.000000
Priority = 0.100000 (1000)
-1.000000 1.000000
Priority = 0.100000 (1000)
-1.000000 1.000000
Priority = 0.100000 (1000)
-1.000000 1.000000
Priority = 0.100000 (1000)
20.687288 1.000000
Priority = 0.100000 (1000)
-1.000000 1.000000
Priority = 0.100000 (1000)
-1.000000 1.000000
Priority = 0.100000 (1000)
-1.000000 1.000000
Priority = 0.100000 (1000)
-1.000000 1.000000
Priority = 0.100000 (1000)
-1.000000 1.000000
Priority = 0.100000 (1000)
2.549951 0.981712
Priority = 1.000000 (10000)
-1.000000 0.981712
Priority = 1.000000 (10000)
20.722481 1.000000
Priority = 0.100000 (1000)
-1.000000 1.000000
Priority = 0.100000 (1000)
20.678030 1.000000
Priority = 0.100000 (1000)
-1.000000 1.000000
Priority = 0.100000 (1000)
-1.000000 1.000000
Priority = 0.100000 (1000)
2.550227 0.908038
Priority = 1.000000 (10000)
2.550269 0.887396
Priority = 1.000000 (10000)
2.550222 0.830533
Priority = 1.000000 (10000)
20.699286 1.000000
Priority = 0.100000 (1000)
2.549782 0.865194
Priority = 1.000000 (10000)
-1.000000 0.865194
Priority = 1.000000 (10000)
-1.000000 0.865194
Priority = 1.000000 (10000)
-1.000000 0.865194
Priority = 1.000000 (10000)
-1.000000 0.865194
Priority = 1.000000 (10000)
-1.000000 0.865194
Priority = 1.000000 (10000)
-1.000000 0.865194
Priority = 1.000000 (10000)
-1.000000 0.865194
Priority = 1.000000 (10000)
-1.000000 0.865194
Priority = 1.000000 (10000)
-1.000000 0.865194
Priority = 1.000000 (10000)
-1.000000 0.865194
Priority = 1.000000 (10000)
-1.000000 0.865194
Priority = 1.000000 (10000)
-1.000000 0.865194
Priority = 1.000000 (10000)
28.067521 1.000000
Priority = 0.100000 (1000)
28.069492 1.000000
Priority = 0.100000 (1000)
28.077311 1.000000
Priority = 0.100000 (1000)
28.084167 1.000000
Priority = 0.100000 (1000)
28.076860 1.000000
Priority = 0.100000 (1000)
28.129508 1.000000
Priority = 0.100000 (1000)
28.189431 1.000000
Priority = 0.100000 (1000)
28.097600 1.000000
Priority = 0.100000 (1000)
28.096825 1.000000
Priority = 0.100000 (1000)
28.148819 1.000000
Priority = 0.100000 (1000)
28.171875 1.000000
Priority = 0.100000 (1000)
28.210078 1.000000
Priority = 0.100000 (1000)
28.212308 1.000000
Priority = 0.100000 (1000)
-1.000000 1.000000
Priority = 0.100000 (1000)
-1.000000 1.000000
Priority = 0.100000 (1000)
28.055970 1.000000
Priority = 0.100000 (1000)
