I think I'm working for the application of IOSETS_JOB_ID = 15
I'll open/create the priority file /sys/kernel/config/iosets/15/priority!
Priority = 0.021500 (215)
Now I'll create the log file
Now I'll wait for information from the predictor
I will launch the predictor on file /root/running_ior/15/8.jsonl
60.766667 1.000000
Priority = 0.010000 (100)
705.800000 1.000000
Priority = 0.001000 (10)
577.000000 1.000000
Priority = 0.001000 (10)
516.700000 1.000000
Priority = 0.001000 (10)
-1.000000 1.000000
Priority = 0.001000 (10)
-1.000000 1.000000
Priority = 0.001000 (10)
-1.000000 1.000000
Priority = 0.001000 (10)
-1.000000 1.000000
Priority = 0.001000 (10)
