I think I'm working for the application of IOSETS_JOB_ID = 8
I'll open/create the priority file /sys/kernel/config/iosets/8/priority!
Priority = 0.028000 (280)
Now I'll create the log file
Now I'll wait for information from the predictor
I will launch the predictor on file /root/running_ior/8/8.jsonl
78.400000 1.000000
Priority = 0.010000 (100)
78.400000 1.000000
Priority = 0.010000 (100)
631.400000 1.000000
Priority = 0.001000 (10)
520.700000 1.000000
Priority = 0.001000 (10)
476.133333 1.000000
Priority = 0.001000 (10)
-1.000000 1.000000
Priority = 0.001000 (10)
-1.000000 1.000000
Priority = 0.001000 (10)
-1.000000 1.000000
Priority = 0.001000 (10)
206.026667 1.000000
Priority = 0.010000 (100)
