I think I'm working for the application of IOSETS_JOB_ID = 12
I'll open/create the priority file /sys/kernel/config/iosets/12/priority!
Priority = 0.021200 (212)
Now I'll create the log file
Now I'll wait for information from the predictor
I will launch the predictor on file /root/running_ior/12/8.jsonl
54.500000 1.000000
Priority = 0.010000 (100)
485.500000 1.000000
Priority = 0.001000 (10)
436.100000 1.000000
Priority = 0.001000 (10)
421.100000 1.000000
Priority = 0.001000 (10)
416.700000 1.000000
Priority = 0.001000 (10)
418.160000 1.000000
Priority = 0.001000 (10)
418.366667 1.000000
Priority = 0.001000 (10)
418.771429 1.000000
Priority = 0.001000 (10)
