Warning: I'll induce an error of 50 percent on all FTIO predictions
I think I'm working for the application of IOSETS_JOB_ID = 8
I'll open/create the priority file /sys/kernel/config/iosets/8/priority!
Priority = 0.028000 (280)
Now I'll create the log file
Now I'll wait for information from the predictor
I will launch the predictor on file /root/running_ior/8/8.jsonl
218.400000 1.000000
Priority = 0.010000 (100)
218.400000 1.000000
Priority = 0.001000 (10)
600.000000 1.000000
Priority = 0.010000 (100)
515.550000 1.000000
Priority = 0.001000 (10)
516.900000 1.000000
Priority = 0.001000 (10)
488.050000 1.000000
Priority = 0.010000 (100)
478.720000 1.000000
Priority = 0.001000 (10)
224.823077 0.857432
Priority = 0.001000 (10)
479.000000 1.000000
Priority = 0.001000 (10)
