app_id,start_exec,end_exec,start_io,end_io
0,0.1478731632232666,18.16627597808838,18.16629695892334,19.786071062088013
0,19.786071062088013,38.00432515144348,38.00433611869812,39.56590008735657
0,39.56590008735657,57.74542307853699,57.74543499946594,59.174458026885986
0,59.174458026885986,77.33551406860352,77.33552503585815,78.78992199897766
0,78.78992199897766,96.99184608459473,96.99185800552368,98.52054905891418
0,98.52054905891418,116.70448803901672,116.70450210571289,118.16993808746338
0,118.16993808746338,136.41624307632446,136.41625308990479,137.9695589542389
0,137.9695589542389,156.23953413963318,156.23954510688782,157.7459499835968
0,157.7459499835968,175.95110201835632,175.95111298561096,177.48189902305603
0,177.48189902305603,195.72271704673767,195.72272896766663,197.21394109725952
0,197.21394109725952,215.41579794883728,215.4158091545105,216.9179241657257
0,216.9179241657257,235.15406107902527,235.15407299995422,236.6979250907898
0,236.6979250907898,254.92746710777283,254.92747807502747,256.30869603157043
0,256.30869603157043,274.5242290496826,274.5242409706116,276.06193804740906
0,276.06193804740906,294.27248311042786,294.2724940776825,295.8338871002197
0,295.8338871002197,314.0199861526489,314.01999711990356,315.61792612075806
0,315.61792612075806,333.8204960823059,333.82050704956055,335.3430721759796
0,335.3430721759796,353.57994508743286,353.5799570083618,355.07791113853455
0,355.07791113853455,375.38822412490845,375.38825511932373,379.442223072052
0,379.442223072052,406.0010859966278,406.0011019706726,412.816281080246
0,412.816281080246,433.6288380622864,433.62885212898254,441.1704399585724
0,441.1704399585724,461.8852241039276,461.88524413108826,470.4828431606293
0,470.4828431606293,491.6810610294342,491.6810779571533,497.9539330005646
0,497.9539330005646,518.220486164093,518.2205049991608,524.3899040222168
0,524.3899040222168,545.233029127121,545.2330479621887,553.5019371509552
0,553.5019371509552,574.8577380180359,574.8577589988708,581.3154361248016
0,581.3154361248016,601.9689209461212,601.9689409732819,610.3210990428925
0,610.3210990428925,631.0809030532837,631.08092212677,637.3875451087952
0,637.3875451087952,657.2729179859161,657.2729370594025,663.5579650402069
0,663.5579650402069,684.3301839828491,684.3302030563354,692.9694790840149
0,692.9694790840149,713.3573000431061,713.3573169708252,721.3339581489563
0,721.3339581489563,742.2934000492096,742.2934200763702,750.6178820133209
0,750.6178820133209,768.8314590454102,768.8314731121063,776.409942150116
0,776.409942150116,797.939905166626,797.9399230480194,806.4019241333008
0,806.4019241333008,826.7901730537415,826.7901930809021,836.3339011669159
0,836.3339011669159,857.22234416008,857.222363948822,864.6138820648193
0,864.6138820648193,883.0511219501495,883.0511419773102,892.3781411647797
0,892.3781411647797,913.1017701625824,913.1017911434174,920.1299221515656
0,920.1299221515656,940.6735560894012,940.6735761165619,949.3659009933472
0,949.3659009933472,970.233803987503,970.2338230609894,979.3618960380554
0,979.3618960380554,1002.8373370170593,1002.8373560905457,1009.841845035553
0,1009.841845035553,1030.6679799556732,1030.6679980754852,1036.0631160736084
0,1036.0631160736084,1058.1767480373383,1058.1767671108246,1063.949867963791
0,1063.949867963791,1085.7903759479523,1085.7903950214386,1091.705852985382
0,1091.705852985382,1112.2958500385284,1112.2958681583405,1118.3619220256805
0,1118.3619220256805,1139.0704510211945,1139.070471048355,1147.0775501728058
0,1147.0775501728058,1167.3750710487366,1167.375086069107,1175.7340030670166
0,1175.7340030670166,1195.466686964035,1195.466714143753,1200.465882062912
0,1200.465882062912,1221.2867331504822,1221.2867510318756,1228.9419231414795
0,1228.9419231414795,1249.6826601028442,1249.6826801300049,1257.4938910007477
0,1257.4938910007477,1278.258875131607,1278.2588939666748,1286.4099600315094
0,1286.4099600315094,1307.5925920009613,1307.5926110744476,1314.062066078186
0,1314.062066078186,1334.6112439632416,1334.6112649440765,1342.5979120731354
0,1342.5979120731354,1363.6478719711304,1363.647891998291,1370.9459500312805
0,1370.9459500312805,1391.6749210357666,1391.6749410629272,1399.2259290218353
0,1399.2259290218353,1420.1268870830536,1420.12690615654,1428.0219130516052
0,1428.0219130516052,1449.0269601345062,1449.026978969574,1457.569936990738
0,1457.569936990738,1478.0924980640411,1478.0925209522247,1485.7498891353607
0,1485.7498891353607,1506.7713651657104,1506.7713840007782,1513.7619211673737
0,1513.7619211673737,1534.2671020030975,1534.2671339511871,1542.2933940887451
0,1542.2933940887451,1562.1835761070251,1562.183594942093,1570.241898059845
0,1570.241898059845,1588.4996130466461,1588.499626159668,1597.1100430488586
0,1597.1100430488586,1615.3109090328217,1615.3109209537506,1622.7859621047974
0,1622.7859621047974,1640.967537164688,1640.96755194664,1648.9531531333923
0,1648.9531531333923,1671.5675230026245,1671.5675420761108,1682.3619050979614
0,1682.3619050979614,1702.7837550640106,1702.783772945404,1709.0737600326538
0,1709.0737600326538,1728.8987500667572,1728.8987720012665,1732.449912071228
0,1732.449912071228,1753.1386070251465,1753.1386320590973,1761.1234891414642
0,1761.1234891414642,1782.2363860607147,1782.236405134201,1791.0317361354828
0,1791.0317361354828,1811.2636370658875,1811.2636580467224,1821.7299180030823
0,1821.7299180030823,1842.1000201702118,1842.1000390052795,1850.4739899635315
0,1850.4739899635315,1871.0840101242065,1871.0840301513672,1881.6899330615997
0,1881.6899330615997,1902.4208929538727,1902.4209129810333,1910.2299129962921
0,1910.2299129962921,1929.1802761554718,1929.1802959442139,1938.2339251041412
0,1938.2339251041412,1959.620903968811,1959.620924949646,1968.009936094284
0,1968.009936094284,1988.2682960033417,1988.2683160305023,1997.7498590946198
0,1997.7498590946198,2019.3923170566559,2019.3923361301422,2024.497887134552
0,2024.497887134552,2045.873692035675,2045.8737070560455,2054.2267050743103
0,2054.2267050743103,2075.080446958542,2075.080466032028,2083.193915128708
0,2083.193915128708,2104.1484529972076,2104.148472070694,2113.5579240322113
0,2113.5579240322113,2134.5766639709473,2134.576683998108,2144.9033930301666
0,2144.9033930301666,2166.060732126236,2166.0607481002808,2176.153960943222
0,2176.153960943222,2196.7777540683746,2196.7777709960938,2208.475254058838
0,2208.475254058838,2229.296769142151,2229.2967851161957,2239.093878030777
0,2239.093878030777,2260.2093341350555,2260.209352016449,2270.0539741516113
0,2270.0539741516113,2291.073152065277,2291.0731711387634,2299.4861409664154
0,2299.4861409664154,2319.6374859809875,2319.637505054474,2328.4179141521454
0,2328.4179141521454,2349.5291481018066,2349.5291640758514,2359.4058871269226
0,2359.4058871269226,2380.0372540950775,2380.037273168564,2390.125904083252
0,2390.125904083252,2408.3274240493774,2408.3274381160736,2417.991719007492
0,2417.991719007492,2439.99351811409,2439.9935369491577,2448.3378710746765
0,2448.3378710746765,2468.7252991199493,2468.7253210544586,2473.2828540802
0,2473.2828540802,2494.002587080002,2494.0026071071625,2498.63130402565
0,2498.63130402565,2522.3096499443054,2522.3096680641174,2530.4222350120544
0,2530.4222350120544,2551.253756046295,2551.2537801265717,2562.3698461055756
0,2562.3698461055756,2586.1336710453033,2586.1336920261383,2597.682181119919
0,2597.682181119919,2620.5215830802917,2620.521602153778,2630.164621114731
0,2630.164621114731,2651.114068031311,2651.1140880584717,2662.958573102951
0,2662.958573102951,2683.9057919979095,2683.9058101177216,2691.02596116066
0,2691.02596116066,2712.005887031555,2712.005907058716,2723.858232975006
0,2723.858232975006,2746.553964138031,2746.5539820194244,2756.0779321193695
0,2756.0779321193695,2776.7746579647064,2776.7746760845184,2786.3819830417633
0,2786.3819830417633,2807.9822630882263,2807.982292175293,2818.9578750133514
0,2818.9578750133514,2839.442279100418,2839.442300081253,2845.497768163681
0,2845.497768163681,2869.49387216568,2869.493889093399,2879.125986099243
0,2879.125986099243,2904.9302990436554,2904.930319070816,2914.1860189437866
0,2914.1860189437866,2934.814875125885,2934.8148951530457,2941.237785100937
0,2941.237785100937,2961.8040471076965,2961.804069042206,2964.7299070358276
0,2964.7299070358276,2985.5589451789856,2985.5589661598206,2993.31000995636
0,2993.31000995636,3014.6615691184998,3014.6615891456604,3024.4419419765472
0,3024.4419419765472,3044.9992201328278,3044.9992389678955,3054.8141911029816
0,3054.8141911029816,3076.442700147629,3076.4427189826965,3089.1178879737854
0,3089.1178879737854,3110.071051120758,3110.071069955826,3120.077919960022
0,3120.077919960022,3141.004003047943,3141.004019021988,3153.014009952545
0,3153.014009952545,3175.195011138916,3175.1950299739838,3185.054008960724
0,3185.054008960724,3205.9313349723816,3205.9313521385193,3216.1454100608826
0,3216.1454100608826,3253.9138650894165,3253.9138860702515,3256.432996034622
0,3256.432996034622,3276.5790820121765,3276.579102039337,3283.801836013794
0,3283.801836013794,3304.2313430309296,3304.2313640117645,3309.465756177902
0,3309.465756177902,3332.4744040966034,3332.4744231700897,3345.9859671592712
0,3345.9859671592712,3365.9236969947815,3365.923712015152,3376.584208011627
0,3376.584208011627,3396.0916860103607,3396.0917160511017,3405.5419721603394
0,3405.5419721603394,3424.823632955551,3424.8236479759216,3437.2179679870605
0,3437.2179679870605,3457.511896133423,3457.5119121074677,3468.193994998932
0,3468.193994998932,3488.7403621673584,3488.740378141403,3503.8569180965424
0,3503.8569180965424,3525.2638330459595,3525.26385307312,3533.16600894928
0,3533.16600894928,3553.9279379844666,3553.9279589653015,3566.605754137039
0,3566.605754137039,3587.395784139633,3587.395805120468,3592.3817551136017
0,3592.3817551136017,3613.335613965988,3613.335634946823,3621.636691093445
0,3621.636691093445,3642.612207174301,3642.612226009369,3653.7622730731964
0,3653.7622730731964,3675.4760880470276,3675.4761080741882,3683.5340461730957
0,3683.5340461730957,3708.9982221126556,3708.998236179352,3725.705943107605
0,3725.705943107605,3746.5122680664062,3746.5122871398926,3753.1218690872192
0,3753.1218690872192,3778.8486680984497,3778.848695039749,3786.4414920806885
10,1.5929291248321533,582.5127990245819,582.5128200054169,637.8121409416199
10,637.8121409416199,1007.9010260105133,1007.9010441303253,1063.528100013733
10,1063.528100013733,1426.6176669597626,1426.617686033249,1486.8223431110382
10,1486.8223431110382,1848.3928501605988,1848.3928680419922,1911.552668094635
10,1911.552668094635,2271.7342369556427,2271.734251976013,2337.515892982483
10,2337.515892982483,2703.1660780906677,2703.166095972061,2763.772402048111
10,2763.772402048111,3133.039170026779,3133.039186000824,3194.9292271137238
10,3194.9292271137238,3563.6529109477997,3563.652930021286,3622.3032400608063
11,1.7046310901641846,582.7049629688263,582.704980134964,666.9883050918579
11,666.9883050918579,1034.6364090442657,1034.636428117752,1091.216444015503
11,1091.216444015503,1456.1408021450043,1456.1408200263977,1515.2229630947113
11,1515.2229630947113,1881.839432001114,1881.8394479751587,1940.208004951477
11,1940.208004951477,2300.617026090622,2300.6170439720154,2362.5340349674225
11,2362.5340349674225,2724.015316963196,2724.015333175659,2793.5442349910736
11,2793.5442349910736,3155.3576159477234,3155.357637166977,3221.7420539855957
11,3221.7420539855957,3584.292098045349,3584.2921180725098,3655.396917104721
12,1.3686110973358154,364.20055198669434,364.20057010650635,695.7839441299438
12,695.7839441299438,1062.7925310134888,1062.7925510406494,1118.9919950962067
12,1118.9919950962067,1484.2798199653625,1484.2798380851746,1543.750743150711
12,1543.750743150711,1910.1250250339508,1910.1250450611115,1969.4859941005707
12,1969.4859941005707,2330.334207057953,2330.3342230319977,2392.168766975403
12,2392.168766975403,2757.7098569869995,2757.7098729610443,2824.2663230895996
12,2824.2663230895996,3185.891061067581,3185.8910760879517,3259.0434391498566
12,3259.0434391498566,3621.1252319812775,3621.1252551078796,3690.9876539707184
13,1.5366120338439941,640.2249250411987,640.2249460220337,724.0163221359253
13,724.0163221359253,1091.0224759578705,1091.0224950313568,1148.3278081417084
13,1148.3278081417084,1513.5783751010895,1513.5783941745758,1572.4127061367035
13,1572.4127061367035,1937.969556093216,1937.969577074051,1998.5963189601898
13,1998.5963189601898,2361.7585101127625,2361.7585260868073,2422.532235145569
13,2422.532235145569,2786.754832983017,2786.7548480033875,2883.0630209445953
13,2883.0630209445953,3253.91925406456,3253.9192700386047,3347.1382341384888
14,1.3646199703216553,361.49048614501953,361.4905071258545,755.0079669952393
14,755.0079669952393,1117.1068031787872,1117.106822013855,1176.4247629642487
14,1176.4247629642487,1540.8349931240082,1540.835011959076,1603.4604091644287
14,1603.4604091644287,1965.8802349567413,1965.8802540302277,2035.87548494339
14,2035.87548494339,2417.899036169052,2417.899050951004,2508.8910760879517
14,2508.8910760879517,2877.314805984497,2877.3148200511932,3132.2586510181427
14,3132.2586510181427,3505.050213098526,3505.050229072571,3720.9057099819183
15,1.4886360168457031,712.9808130264282,712.9808330535889,782.0605990886688
15,782.0605990886688,1162.9483020305634,1162.9483180046082,1287.713093996048
15,1287.713093996048,1648.908539056778,1648.9085550308228,2122.6511781215668
15,2122.6511781215668,2486.9292919635773,2486.9293110370636,3254.2070140838623
1,0.12572813034057617,360.143030166626,360.1430449485779,414.18869805336
1,414.18869805336,775.2554700374603,775.2554841041565,811.2487649917603
1,811.2487649917603,1174.6783850193024,1174.6784019470215,1230.7240271568298
1,1230.7240271568298,1597.023831129074,1597.0238480567932,1631.9337780475616
1,1631.9337780475616,1996.7616000175476,1996.761619091034,2056.079745054245
1,2056.079745054245,2417.914229154587,2417.9142451286316,2455.597680091858
1,2455.597680091858,2817.64275598526,2817.642774105072,2876.7080371379852
1,2876.7080371379852,3253.9150240421295,3253.9150381088257,3292.8048141002655
1,3292.8048141002655,3655.2363741397858,3655.2363941669464,3728.243306159973
2,0.0,360.011971950531,360.0119860172272,414.4898920059204
2,414.4898920059204,775.2808451652527,775.280858039856,838.6290600299835
2,838.6290600299835,1200.6706311702728,1200.6706459522247,1257.7707340717316
2,1257.7707340717316,1618.771243095398,1618.7712571620941,1662.033732175827
2,1662.033732175827,2026.3041729927063,2026.304193019867,2087.697286128998
2,2087.697286128998,2448.762810945511,2448.7628259658813,2498.6870930194855
2,2498.6870930194855,2869.4418370723724,2869.4418561458588,2921.967988014221
2,2921.967988014221,3283.190412044525,3283.1904311180115,3349.175218105316
2,3349.175218105316,3720.7937920093536,3720.7938101291656,3774.7162630558014
3,0.1379411220550537,360.6502950191498,360.65031814575195,441.2160701751709
3,441.2160701751709,803.2729141712189,803.2729320526123,866.5558841228485
3,866.5558841228485,1227.958270072937,1227.9582879543304,1287.1326129436493
3,1287.1326129436493,1649.0240881443024,1649.0241031646729,1694.3164811134338
3,1694.3164811134338,2058.7408080101013,2058.7408261299133,2117.1480770111084
3,2117.1480770111084,2479.2655639648438,2479.2655820846558,2539.344486951828
3,2539.344486951828,2910.383406162262,2910.383423089981,2964.6563351154327
3,2964.6563351154327,3332.4744091033936,3332.4744231700897,3378.9098541736603
4,0.13318610191345215,360.30067014694214,360.3006901741028,472.96518111228943
4,472.96518111228943,834.3926680088043,834.392685174942,895.0201070308685
4,895.0201070308685,1256.9855649471283,1256.9855830669403,1315.0564169883728
4,1315.0564169883728,1682.2952179908752,1682.2952361106873,1730.8503141403198
4,1730.8503141403198,2092.7969410419464,2092.796961069107,2152.416370153427
4,2152.416370153427,2519.8858139514923,2519.8858330249786,2575.47034406662
4,2575.47034406662,2940.94673705101,2940.946758031845,2999.2283520698547
4,2999.2283520698547,3359.468460083008,3359.468474149704,3411.1252961158752
5,1.5649120807647705,420.2646269798279,420.26464200019836,498.956444978714
5,498.956444978714,863.8044130802155,863.8044321537018,923.3597810268402
5,923.3597810268402,1285.8885231018066,1285.8885431289673,1343.1136770248413
5,1343.1136770248413,1708.3554961681366,1708.3555181026459,1764.7200479507446
5,1764.7200479507446,2124.9195561408997,2124.91957116127,2182.156949043274
5,2182.156949043274,2545.0737030506134,2545.0737221240997,2606.024183034897
5,2606.024183034897,2969.0864889621735,2969.0865099430084,3030.8629710674286
5,3030.8629710674286,3391.6647021770477,3391.6647181510925,3443.789355993271
6,1.4489121437072754,421.4885799884796,421.48859310150146,526.4521040916443
6,526.4521040916443,891.6336750984192,891.6336929798126,952.7314269542694
6,952.7314269542694,1314.0421869754791,1314.0422070026398,1371.8310101032257
6,1371.8310101032257,1733.76349401474,1733.763514995575,1794.5003349781036
6,1794.5003349781036,2154.6608180999756,2154.6608321666718,2212.112885951996
6,2212.112885951996,2574.3524889945984,2574.352514028549,2636.4659180641174
6,2636.4659180641174,2998.4028701782227,2998.4028871059418,3061.7718670368195
6,3061.7718670368195,3421.919764995575,3421.919779062271,3474.3176679611206
7,1.5166151523590088,422.2566089630127,422.25662302970886,555.0760130882263
7,555.0760130882263,919.4424481391907,919.4424669742584,980.3358221054077
7,980.3358221054077,1342.0796551704407,1342.0796749591827,1400.0080740451813
7,1400.0080740451813,1761.2787020206451,1761.27871799469,1824.2064440250397
7,1824.2064440250397,2184.4318211078644,2184.4318351745605,2241.9938361644745
7,2241.9938361644745,2603.7097849845886,2603.7098059654236,2667.266700029373
7,2667.266700029373,3030.810788154602,3030.810807943344,3093.6322059631348
7,3093.6322059631348,3453.779438018799,3453.7794511318207,3506.5146729946136
8,1.504945993423462,418.7643811702728,418.7644009590149,583.6133291721344
8,583.6133291721344,948.1006560325623,948.1006741523743,1009.1518919467926
8,1009.1518919467926,1369.374804019928,1369.37482213974,1428.4588370323181
8,1428.4588370323181,1791.054013967514,1791.0540289878845,1854.168329000473
8,1854.168329000473,2214.4519209861755,2214.4519350528717,2271.813334941864
8,2271.813334941864,2633.60210108757,2633.602117061615,2698.8133749961853
8,2698.8133749961853,3060.944666147232,3060.944682121277,3123.832134962082
8,3123.832134962082,3484.1002130508423,3484.100226163864,3539.789337158203
9,1.4409019947052002,368.9164869785309,368.91650795936584,611.0844280719757
9,611.0844280719757,977.6680791378021,977.6680970191956,1035.9761221408844
9,1035.9761221408844,1398.1470031738281,1398.1470210552216,1457.4678440093994
9,1457.4678440093994,1819.192892074585,1819.1929111480713,1882.559905052185
9,1882.559905052185,2242.775295972824,2242.7753100395203,2301.908746957779
9,2301.908746957779,2663.0373101234436,2663.037323951721,2731.31401515007
9,2731.31401515007,3093.8432080745697,3093.84322309494,3156.709455013275
9,3156.709455013275,3520.644145011902,3520.644163131714,3579.256191968918
