app_id,start_exec,end_exec,start_io,end_io
0,0.011244058609008789,18.021656036376953,18.02167510986328,19.321335077285767
0,19.321335077285767,37.534862995147705,37.53487515449524,38.85322713851929
0,38.85322713851929,57.106295108795166,57.10630702972412,58.401188135147095
0,58.401188135147095,76.70475816726685,76.70477199554443,78.00912618637085
0,78.00912618637085,96.24237203598022,96.24238419532776,97.50118708610535
0,97.50118708610535,115.74778509140015,115.74779605865479,117.04122710227966
0,117.04122710227966,135.29805707931519,135.2980670928955,136.50520515441895
0,136.50520515441895,154.76591515541077,154.76592707633972,156.04532313346863
0,156.04532313346863,174.23160099983215,174.23161101341248,175.46920800209045
0,175.46920800209045,193.68619918823242,193.68620920181274,194.9811670780182
0,194.9811670780182,213.1597101688385,213.15972018241882,214.41808319091797
0,214.41808319091797,232.64523816108704,232.64524912834167,233.99326515197754
0,233.99326515197754,252.27157020568848,252.27158117294312,253.57820105552673
0,253.57820105552673,271.81051301956177,271.8105251789093,273.07729721069336
0,273.07729721069336,291.3519501686096,291.35196018218994,292.7092010974884
0,292.7092010974884,310.9155011177063,310.91551899909973,312.2211949825287
0,312.2211949825287,330.43191599845886,330.4319272041321,331.79316210746765
0,331.79316210746765,349.98678517341614,349.9867961406708,351.33725214004517
0,351.33725214004517,374.0944471359253,374.09446811676025,378.21319007873535
0,378.21319007873535,402.4277160167694,402.4277319908142,406.3805902004242
0,406.3805902004242,427.134565114975,427.1345829963684,432.82506799697876
0,432.82506799697876,454.4464612007141,454.44647908210754,462.75258207321167
0,462.75258207321167,484.4140901565552,484.4141089916229,494.6099421977997
0,494.6099421977997,514.7302160263062,514.7302391529083,521.4372160434723
0,521.4372160434723,542.0956900119781,542.0957090854645,546.2844290733337
0,546.2844290733337,566.3584640026093,566.3584830760956,571.1892471313477
0,571.1892471313477,591.0065801143646,591.006597995758,594.3411691188812
0,594.3411691188812,614.2709081172943,614.2709259986877,618.2891881465912
0,618.2891881465912,638.6627881526947,638.6628060340881,642.4052140712738
0,642.4052140712738,663.0507550239563,663.0507740974426,665.6252419948578
0,665.6252419948578,685.4064040184021,685.4064230918884,689.37322306633
0,689.37322306633,707.5446331501007,707.544646024704,713.0812571048737
0,713.0812571048737,731.2952711582184,731.295282125473,732.6932141780853
0,732.6932141780853,750.8988761901855,750.8988871574402,752.3171730041504
0,752.3171730041504,772.331502199173,772.3315200805664,776.1331260204315
0,776.1331260204315,794.9765770435333,794.9765961170197,807.2092339992523
0,807.2092339992523,828.0751941204071,828.0752120018005,838.205197095871
0,838.205197095871,860.2162320613861,860.2162501811981,864.5342180728912
0,864.5342180728912,884.8750832080841,884.8751020431519,889.2691311836243
0,889.2691311836243,909.7954380512238,909.7954611778259,914.7732720375061
0,914.7732720375061,933.4043090343475,933.4043211936951,938.7809431552887
0,938.7809431552887,958.6436870098114,958.6437060832977,963.2525601387024
0,963.2525601387024,983.2996480464935,983.2996671199799,988.8892230987549
0,988.8892230987549,1009.0875730514526,1009.0875871181488,1014.2852551937103
0,1014.2852551937103,1034.6915371418,1034.6915562152863,1040.0492160320282
0,1040.0492160320282,1060.5281600952148,1060.5281791687012,1066.3891351222992
0,1066.3891351222992,1086.7359461784363,1086.7359631061554,1090.6318531036377
0,1090.6318531036377,1110.7004470825195,1110.7004661560059,1117.0252170562744
0,1117.0252170562744,1135.2738370895386,1135.273861169815,1142.8252642154694
0,1142.8252642154694,1160.9788091182709,1160.9788191318512,1162.3659420013428
0,1162.3659420013428,1182.8475141525269,1182.8475279808044,1189.2732231616974
0,1189.2732231616974,1210.012596130371,1210.0126111507416,1217.8710730075836
0,1217.8710730075836,1238.9842309951782,1238.9842460155487,1246.117171049118
0,1246.117171049118,1266.9042701721191,1266.9042870998383,1274.2696070671082
0,1274.2696070671082,1295.5195322036743,1295.5195500850677,1302.293347120285
0,1302.293347120285,1322.7919700145721,1322.7919890880585,1330.8091530799866
0,1330.8091530799866,1351.7803320884705,1351.780352115631,1356.845346212387
0,1356.845346212387,1377.5485270023346,1377.5485470294952,1384.425400018692
0,1384.425400018692,1405.176467180252,1405.1764850616455,1412.1492791175842
0,1412.1492791175842,1432.861043214798,1432.8610620498657,1439.3853001594543
0,1439.3853001594543,1459.8524470329285,1459.8524651527405,1466.3532631397247
0,1466.3532631397247,1486.5731070041656,1486.5731241703033,1492.4692001342773
0,1492.4692001342773,1513.1566100120544,1513.1566290855408,1520.3740360736847
0,1520.3740360736847,1541.449026107788,1541.4490420818329,1549.9412531852722
0,1549.9412531852722,1570.7169301509857,1570.7169451713562,1574.6852490901947
0,1574.6852490901947,1595.308848142624,1595.3088631629944,1603.6211709976196
0,1603.6211709976196,1624.8329110145569,1624.832929134369,1632.8812251091003
0,1632.8812251091003,1653.6224920749664,1653.6225111484528,1661.3652350902557
0,1661.3652350902557,1682.2847452163696,1682.284763097763,1690.6412150859833
0,1690.6412150859833,1711.2929201126099,1711.292937040329,1719.3692061901093
0,1719.3692061901093,1740.046709060669,1740.046727180481,1746.5772411823273
0,1746.5772411823273,1767.3411440849304,1767.3411622047424,1774.2295382022858
0,1774.2295382022858,1795.0054121017456,1795.005429983139,1802.8714621067047
0,1802.8714621067047,1823.8656930923462,1823.8657100200653,1831.8931879997253
0,1831.8931879997253,1852.8172960281372,1852.8173160552979,1859.7852120399475
0,1859.7852120399475,1880.7456450462341,1880.7456631660461,1888.0972561836243
0,1888.0972561836243,1908.9455540180206,1908.9455761909485,1916.3811991214752
0,1916.3811991214752,1936.533331155777,1936.5333499908447,1943.32932305336
0,1943.32932305336,1964.0535781383514,1964.0535972118378,1971.4492092132568
0,1971.4492092132568,1992.7897460460663,1992.7897641658783,1997.4162311553955
0,1997.4162311553955,2018.3607091903687,2018.3607280254364,2023.4491991996765
0,2023.4491991996765,2044.5941882133484,2044.5942051410675,2052.305426120758
0,2052.305426120758,2073.074052095413,2073.074070215225,2079.8011870384216
0,2079.8011870384216,2100.5138471126556,2100.513864994049,2107.0091750621796
0,2107.0091750621796,2128.2587110996246,2128.258728981018,2136.445279121399
0,2136.445279121399,2157.2538850307465,2157.253904104233,2164.8172340393066
0,2164.8172340393066,2185.5741431713104,2185.574162006378,2193.236577987671
0,2193.236577987671,2214.2441370487213,2214.2441561222076,2219.729210138321
0,2219.729210138321,2240.6659741401672,2240.6659920215607,2248.361200094223
0,2248.361200094223,2269.406468153,2269.4064869880676,2278.397197008133
0,2278.397197008133,2299.166990041733,2299.167009115219,2307.373225212097
0,2307.373225212097,2328.3595781326294,2328.3595991134644,2335.0932710170746
0,2335.0932710170746,2355.538717985153,2355.5387370586395,2362.7132291793823
0,2362.7132291793823,2380.9398381710052,2380.939851999283,2388.501317024231
0,2388.501317024231,2410.634476184845,2410.634493112564,2419.393196105957
0,2419.393196105957,2439.4305851459503,2439.430605173111,2444.1291160583496
0,2444.1291160583496,2464.9069521427155,2464.9069731235504,2469.5810911655426
0,2469.5810911655426,2490.2476041316986,2490.247623205185,2500.361310005188
0,2500.361310005188,2521.030880212784,2521.0308990478516,2529.403398036957
0,2529.403398036957,2550.1429262161255,2550.142944097519,2559.1012461185455
0,2559.1012461185455,2579.994912147522,2579.9949300289154,2588.3051991462708
0,2588.3051991462708,2609.0679671764374,2609.067985057831,2616.5852739810944
0,2616.5852739810944,2637.2479350566864,2637.2479531764984,2646.285211086273
0,2646.285211086273,2667.027491092682,2667.027509212494,2675.3652160167694
0,2675.3652160167694,2696.043244123459,2696.0432620048523,2704.4572150707245
0,2704.4572150707245,2725.4554691314697,2725.455488204956,2732.617196083069
0,2732.617196083069,2753.3916461467743,2753.391664981842,2761.733208179474
0,2761.733208179474,2782.0077300071716,2782.0077481269836,2791.4455440044403
0,2791.4455440044403,2813.095601081848,2813.09561920166,2822.7731161117554
0,2822.7731161117554,2842.5124711990356,2842.5124881267548,2851.54926609993
0,2851.54926609993,2872.8918311595917,2872.891846179962,2880.8332250118256
0,2880.8332250118256,2901.5557169914246,2901.555733203888,2911.6292130947113
0,2911.6292130947113,2932.2438881397247,2932.243903160095,2940.933182001114
0,2940.933182001114,2961.7957780361176,2961.7957921028137,2970.71320104599
0,2970.71320104599,2991.5000472068787,2991.5000610351562,3000.4092462062836
0,3000.4092462062836,3022.076098203659,3022.076112985611,3030.077253103256
0,3030.077253103256,3051.080291032791,3051.0803050994873,3058.8842182159424
0,3058.8842182159424,3079.9284720420837,3079.92848610878,3089.1171391010284
0,3089.1171391010284,3110.4449281692505,3110.4449450969696,3118.5812380313873
0,3118.5812380313873,3139.7615070343018,3139.7615230083466,3147.9651889801025
0,3147.9651889801025,3169.0764870643616,3169.076502084732,3178.5931911468506
0,3178.5931911468506,3196.8270671367645,3196.8270812034607,3205.569260120392
0,3205.569260120392,3226.2651929855347,3226.265212059021,3230.8251230716705
0,3230.8251230716705,3261.7231011390686,3261.7231171131134,3270.825273990631
0,3270.825273990631,3292.3005361557007,3292.3005549907684,3299.809228181839
0,3299.809228181839,3320.885845184326,3320.8858630657196,3330.54123210907
0,3330.54123210907,3351.7326250076294,3351.732642173767,3366.881241083145
0,3366.881241083145,3387.677097082138,3387.6771161556244,3398.257238149643
0,3398.257238149643,3419.6356852054596,3419.635703086853,3427.477289199829
0,3427.477289199829,3448.2342360019684,3448.234256029129,3457.44926404953
0,3457.44926404953,3478.0493721961975,3478.049390077591,3487.4092071056366
0,3487.4092071056366,3508.577292203903,3508.5773100852966,3517.5212121009827
0,3517.5212121009827,3537.9895100593567,3537.989529132843,3546.933851003647
0,3546.933851003647,3567.261071205139,3567.2610940933228,3578.417196035385
0,3578.417196035385,3599.237564086914,3599.237582206726,3607.869168996811
0,3607.869168996811,3629.381651163101,3629.3816690444946,3647.725123167038
0,3647.725123167038,3673.317507982254,3673.317526102066,3682.669208049774
0,3682.669208049774,3705.225412130356,3705.225433111191,3716.911113023758
0,3716.911113023758,3737.5857272148132,3737.5857470035553,3743.6091611385345
0,3743.6091611385345,3765.0541291236877,3765.054148197174,3769.273195028305
0,3769.273195028305,3790.753815174103,3790.753832101822,3798.1252031326294
10,1.1519160270690918,371.7543761730194,371.75439620018005,593.2441279888153
10,593.2441279888153,961.2478411197662,961.2478601932526,1013.9715161323547
10,1013.9715161323547,1384.3420021533966,1384.3420221805573,1440.184236049652
10,1440.184236049652,1802.074537038803,1802.074555158615,1860.5663211345673
10,1860.5663211345673,2220.987571001053,2220.9875860214233,2278.739780187607
10,2278.739780187607,2644.4829971790314,2644.4830191135406,2705.603429079056
10,2705.603429079056,3065.8150370121,3065.8150520324707,3119.2321631908417
10,3119.2321631908417,3486.372871160507,3486.372889995575,3549.362973213196
11,1.143904209136963,370.3858780860901,370.38589906692505,617.9805819988251
11,617.9805819988251,987.9681210517883,987.9681429862976,1040.383334159851
11,1040.383334159851,1410.4781031608582,1410.4781231880188,1466.8313500881195
11,1466.8313500881195,1831.0501689910889,1831.0501871109009,1888.4116551876068
11,1888.4116551876068,2248.6042051315308,2248.60422205925,2307.619264125824
11,2307.619264125824,2674.8144500255585,2674.8144681453705,2734.559576034546
11,2734.559576034546,3094.822210073471,3094.82222700119,3149.2678751945496
11,3149.2678751945496,3516.398814201355,3516.3988370895386,3580.16152715683
12,1.45222806930542,585.2570831775665,585.2571032047272,642.4678320884705
12,642.4678320884705,1003.1473979949951,1003.1474170684814,1065.8189849853516
12,1065.8189849853516,1439.3569521903992,1439.3569719791412,1493.6794350147247
12,1493.6794350147247,1859.0936341285706,1859.0936510562897,1916.6562740802765
12,1916.6562740802765,2278.072552204132,2278.0725700855255,2336.7446031570435
12,2336.7446031570435,2704.2044801712036,2704.2045001983643,2764.159159183502
12,2764.159159183502,3124.367224216461,3124.367240190506,3178.986342191696
12,3178.986342191696,3545.6018772125244,3545.6018941402435,3610.6476500034332
13,0.9559102058410645,366.022185087204,366.0222020149231,664.2960200309753
13,664.2960200309753,1038.6078641414642,1038.607880115509,1090.6235480308533
13,1090.6235480308533,1465.3729350566864,1465.3729560375214,1523.8680801391602
13,1523.8680801391602,1887.3110799789429,1887.3110980987549,1944.1755990982056
13,1944.1755990982056,2306.2687051296234,2306.268723011017,2365.4078180789948
13,2365.4078180789948,2731.9562001228333,2731.9562180042267,2792.6995310783386
13,2792.6995310783386,3152.8913700580597,3152.891384124756,3209.3603110313416
13,3209.3603110313416,3575.112006187439,3575.112023115158,3650.403370141983
14,0.5319070816040039,361.20308804512024,361.2031111717224,689.7494812011719
14,689.7494812011719,1061.224364042282,1061.2243821620941,1116.910952091217
14,1116.910952091217,1483.4600131511688,1483.4600369930267,1550.447748184204
14,1550.447748184204,1915.9715430736542,1915.9715611934662,1972.6514852046967
14,1972.6514852046967,2334.278975009918,2334.2789940834045,2394.7197711467743
14,2394.7197711467743,2760.0449130535126,2760.044932126999,2851.04252910614
14,2851.04252910614,3211.6748311519623,3211.6748440265656,3270.8489820957184
15,1.284494161605835,372.2340590953827,372.2340772151947,713.4319350719452
15,713.4319350719452,1088.0166912078857,1088.0167121887207,1143.6715919971466
15,1143.6715919971466,1520.187040090561,1520.1870601177216,1579.7696981430054
15,1579.7696981430054,1942.4744431972504,1942.4744610786438,2024.7663021087646
15,2024.7663021087646,2388.515997171402,2388.5160109996796,2851.06574010849
15,2851.06574010849,3211.76429104805,3211.7643070220947,3730.364734172821
1,0.04452919960021973,360.12635803222656,360.12637305259705,406.1407630443573
1,406.1407630443573,766.1785659790039,766.1785800457001,801.0440599918365
1,801.0440599918365,1161.2380990982056,1161.2381131649017,1190.7451012134552
1,1190.7451012134552,1551.9096591472626,1551.909674167633,1607.6578850746155
1,1607.6578850746155,1970.3428971767426,1970.3429172039032,2023.0838282108307
1,2023.0838282108307,2387.691955089569,2387.691971063614,2424.488953113556
1,2424.488953113556,2788.860311985016,2788.860331058502,2851.6938400268555
1,2851.6938400268555,3212.079085111618,3212.0791091918945,3268.771301984787
1,3268.771301984787,3647.631830215454,3647.631850004196,3689.8962659835815
2,0.0,360.01144313812256,360.0114572048187,406.3942840099335
2,406.3942840099335,766.5227081775665,766.5227220058441,815.6160290241241
2,815.6160290241241,1175.8503739833832,1175.8503890037537,1218.6247780323029
2,1218.6247780323029,1578.8787200450897,1578.878734111786,1635.8478980064392
2,1635.8478980064392,1997.4004061222076,1997.400424003601,2052.5830130577087
2,2052.5830130577087,2417.547490119934,2417.5475080013275,2465.587545156479
2,2465.587545156479,2842.3442170619965,2842.3442330360413,2882.140944004059
2,2882.140944004059,3260.556416988373,3260.5564370155334,3304.5164120197296
2,3304.5164120197296,3672.2617530822754,3672.2617721557617,3729.9495100975037
3,0.05248212814331055,360.1676170825958,360.16763520240784,434.75237917900085
3,434.75237917900085,799.699038028717,799.6990540027618,840.2502481937408
3,840.2502481937408,1200.4739351272583,1200.4739491939545,1246.3095080852509
3,1246.3095080852509,1606.5451121330261,1606.5451261997223,1664.8877971172333
3,1664.8877971172333,2025.101862192154,2025.1018760204315,2080.4232261180878
3,2080.4232261180878,2444.1198320388794,2444.1198530197144,2501.585993051529
3,2501.585993051529,2861.779386997223,2861.7794020175934,2911.9761731624603
3,2911.9761731624603,3273.21653008461,3273.2165501117706,3341.7826471328735
3,3341.7826471328735,3712.642327070236,3712.6423461437225,3766.0767951011658
4,0.24715209007263184,360.6511540412903,360.65117716789246,451.10625410079956
4,451.10625410079956,812.0195860862732,812.019602060318,864.698518037796
4,864.698518037796,1224.8672890663147,1224.8673050403595,1274.9407231807709
4,1274.9407231807709,1635.1594910621643,1635.159507036209,1691.8914830684662
4,1691.8914830684662,2052.2509961128235,2052.251013994217,2107.8915750980377
4,2107.8915750980377,2471.535763978958,2471.535784006119,2531.401873111725
4,2531.401873111725,2891.5719051361084,2891.5719192028046,2941.396781206131
4,2941.396781206131,3303.3124401569366,3303.3124589920044,3367.8995339870453
4,3367.8995339870453,3730.049381017685,3730.049395084381,3798.195701122284
5,0.8279139995574951,362.2721540927887,362.27217507362366,473.96670413017273
5,473.96670413017273,838.190877199173,838.1908950805664,889.0346841812134
5,889.0346841812134,1249.2728221416473,1249.2728371620178,1302.6845920085907
5,1302.6845920085907,1662.9143011569977,1662.914319038391,1720.1877610683441
5,1720.1877610683441,2080.394928216934,2080.394942045212,2136.8032701015472
5,2136.8032701015472,2500.5601251125336,2500.5601420402527,2560.9001910686493
5,2560.9001910686493,2921.110134124756,2921.1101491451263,2971.1771800518036
5,2971.1771800518036,3333.0049211978912,3333.004937171936,3398.8740000724792
6,0.9319241046905518,368.6138701438904,368.6138880252838,497.47198510169983
6,497.47198510169983,862.4756000041962,862.4756209850311,914.8593111038208
6,914.8593111038208,1275.0586681365967,1275.0586810112,1330.919242143631
6,1330.919242143631,1691.1507821083069,1691.150796175003,1747.515298128128
6,1747.515298128128,2107.6992511749268,2107.6992661952972,2164.996054172516
6,2164.996054172516,2527.783024072647,2527.783042192459,2589.219607114792
6,2589.219607114792,2949.4425010681152,2949.442514181137,3000.5603652000427
6,3000.5603652000427,3366.8197321891785,3366.819750070572,3428.5070610046387
7,0.8160731792449951,361.66622018814087,361.66624307632446,521.6271450519562
7,521.6271450519562,888.2193260192871,888.2193460464478,939.2832190990448
7,939.2832190990448,1301.4516170024872,1301.4516351222992,1357.0574021339417
7,1357.0574021339417,1717.2182531356812,1717.2182700634003,1776.1012890338898
7,1776.1012890338898,2136.3670330047607,2136.3670539855957,2193.9336540699005
7,2193.9336540699005,2559.1302502155304,2559.1302649974823,2618.650395154953
7,2618.650395154953,2978.882045030594,2978.8820621967316,3030.3887000083923
7,3030.3887000083923,3395.3433861732483,3395.343405008316,3458.803206205368
8,0.34101414680480957,360.82719802856445,360.8272211551666,546.2962410449982
8,546.2962410449982,914.3031671047211,914.3031849861145,963.2434711456299
8,963.2434711456299,1328.8845570087433,1328.8845751285553,1384.7897992134094
8,1384.7897992134094,1745.0415041446686,1745.0415210723877,1804.3876440525055
8,1804.3876440525055,2164.618677139282,2164.6186962127686,2221.7060301303864
8,2221.7060301303864,2586.621162176132,2586.6211800575256,2647.2876851558685
8,2647.2876851558685,3007.471451997757,3007.471466064453,3059.9906861782074
8,3059.9906861782074,3426.7804951667786,3426.780513048172,3488.263239145279
9,1.0279099941253662,369.5779709815979,369.5779860019684,571.4158229827881
9,571.4158229827881,933.4041211605072,933.4041411876678,988.1509091854095
9,988.1509091854095,1356.0067780017853,1356.0067942142487,1412.5281829833984
9,1412.5281829833984,1774.187825202942,1774.1878430843353,1832.5759420394897
9,1832.5759420394897,2193.212830066681,2193.21285200119,2250.4452641010284
9,2250.4452641010284,2615.5914990901947,2615.5915172100067,2676.0195240974426
9,2676.0195240974426,3036.155613183975,3036.1556282043457,3089.0922241210938
9,3089.0922241210938,3455.453561067581,3455.453579187393,3518.295930147171
