app_id,start_exec,end_exec,start_io,end_io
0,0.0016460418701171875,18.013033151626587,18.01305317878723,19.774188995361328
0,19.774188995361328,38.007596015930176,38.007609128952026,39.93016314506531
0,39.93016314506531,58.171783208847046,58.17179608345032,59.99797201156616
0,59.99797201156616,78.19600510597229,78.19601702690125,80.11395311355591
0,80.11395311355591,98.34704208374023,98.34705305099487,100.14088201522827
0,100.14088201522827,118.42945504188538,118.42947506904602,120.32198715209961
0,120.32198715209961,138.55923199653625,138.55924320220947,140.35239100456238
0,140.35239100456238,158.64371609687805,158.643728017807,160.54482007026672
0,160.54482007026672,178.77822518348694,178.77823615074158,180.68203020095825
0,180.68203020095825,198.88040113449097,198.88042211532593,200.73404908180237
0,200.73404908180237,218.97963500022888,218.97964715957642,220.84601402282715
0,220.84601402282715,239.09225916862488,239.09227013587952,241.01405215263367
0,241.01405215263367,259.17604398727417,259.1760551929474,261.0420000553131
0,261.0420000553131,279.25169110298157,279.2517020702362,281.1019802093506
0,281.1019802093506,299.3319671154022,299.33197808265686,301.12619400024414
0,301.12619400024414,319.3520212173462,319.35203099250793,321.19003105163574
0,321.19003105163574,339.36395502090454,339.36396503448486,341.22200202941895
0,341.22200202941895,359.48816204071045,359.488174200058,362.3233242034912
0,362.3233242034912,394.91650009155273,394.91651821136475,405.6625552177429
0,405.6625552177429,427.6283791065216,427.62839102745056,436.09554505348206
0,436.09554505348206,458.278076171875,458.2780921459198,468.23144912719727
0,468.23144912719727,489.65250420570374,489.6525230407715,502.7464191913605
0,502.7464191913605,525.9611530303955,525.9611730575562,537.4899530410767
0,537.4899530410767,562.2887341976166,562.2887551784515,574.4771771430969
0,574.4771771430969,598.6573731899261,598.6573941707611,613.2140190601349
0,613.2140190601349,637.3010511398315,637.3010740280151,653.5299301147461
0,653.5299301147461,676.1568741798401,676.1568930149078,691.5659952163696
0,691.5659952163696,715.4892380237579,715.4892580509186,730.7061340808868
0,730.7061340808868,753.7530591487885,753.7530791759491,767.7000131607056
0,767.7000131607056,790.4573981761932,790.4574182033539,802.8702290058136
0,802.8702290058136,824.1452820301056,824.1453020572662,830.36985206604
0,830.36985206604,852.2213749885559,852.2213950157166,862.5059230327606
0,862.5059230327606,884.5334141254425,884.5334310531616,898.6751461029053
0,898.6751461029053,921.3334240913391,921.3334391117096,931.6459801197052
0,931.6459801197052,957.1213750839233,957.1213960647583,970.5059721469879
0,970.5059721469879,993.4898760318756,993.4898960590363,1005.3699200153351
0,1005.3699200153351,1033.9359011650085,1033.9359149932861,1043.5059700012207
0,1043.5059700012207,1071.357892036438,1071.3579080104828,1083.6379401683807
0,1083.6379401683807,1106.1823270320892,1106.1823470592499,1118.6819021701813
0,1118.6819021701813,1147.9939889907837,1147.9940090179443,1162.021930217743
0,1162.021930217743,1183.6464130878448,1183.6464321613312,1190.7098371982574
0,1190.7098371982574,1212.9859881401062,1212.9860060214996,1221.583386182785
0,1221.583386182785,1245.1061971187592,1245.1062150001526,1255.310485124588
0,1255.310485124588,1277.2823390960693,1277.2823560237885,1291.718034029007
0,1291.718034029007,1311.8230202198029,1311.8230350017548,1323.6178920269012
0,1323.6178920269012,1345.1864590644836,1345.1864790916443,1352.4779500961304
0,1352.4779500961304,1374.4670391082764,1374.467059135437,1385.8979761600494
0,1385.8979761600494,1408.7031280994415,1408.7031481266022,1422.9139411449432
0,1422.9139411449432,1447.8826570510864,1447.8826780319214,1462.85804605484
0,1462.85804605484,1486.8708081245422,1486.8708281517029,1504.2378540039062
0,1504.2378540039062,1526.1149580478668,1526.1149780750275,1540.2059361934662
0,1540.2059361934662,1561.2479801177979,1561.2479991912842,1567.4681551456451
0,1567.4681551456451,1587.3874411582947,1587.387459039688,1592.0101110935211
0,1592.0101110935211,1611.5767381191254,1611.5767600536346,1614.0020370483398
0,1614.0020370483398,1635.0635201931,1635.0635402202606,1652.63005900383
0,1652.63005900383,1675.6755621433258,1675.6755821704865,1682.0818672180176
0,1682.0818672180176,1705.2391571998596,1705.239175081253,1715.4178709983826
0,1715.4178709983826,1735.2611141204834,1735.2611310482025,1741.3220829963684
0,1741.3220829963684,1762.7916960716248,1762.7917129993439,1775.6739630699158
0,1775.6739630699158,1796.6354351043701,1796.6354551315308,1806.9138541221619
0,1806.9138541221619,1826.8200850486755,1826.8201160430908,1833.2538590431213
0,1833.2538590431213,1856.4084141254425,1856.4084331989288,1869.0780580043793
0,1869.0780580043793,1893.3719220161438,1893.3719401359558,1911.7579910755157
0,1911.7579910755157,1934.611911058426,1934.6119310855865,1951.4578611850739
0,1951.4578611850739,1976.2481951713562,1976.248219013214,1990.945186138153
0,1990.945186138153,2013.3002090454102,2013.3002290725708,2025.865879058838
0,2025.865879058838,2047.4320521354675,2047.4320721626282,2053.941973209381
0,2053.941973209381,2075.6245000362396,2075.6245200634003,2087.38285112381
0,2087.38285112381,2119.984535217285,2119.984549999237,2134.2819361686707
0,2134.2819361686707,2156.0403242111206,2156.0403451919556,2166.9658482074738
0,2166.9658482074738,2191.0525810718536,2191.052604198456,2199.0293312072754
0,2199.0293312072754,2220.940383195877,2220.940402030945,2237.118318080902
0,2237.118318080902,2259.4861221313477,2259.486141204834,2270.692530155182
0,2270.692530155182,2290.898800134659,2290.8988180160522,2297.354035139084
0,2297.354035139084,2323.40309715271,2323.4031171798706,2335.5300221443176
0,2335.5300221443176,2356.7174232006073,2356.7174429893494,2363.213986158371
0,2363.213986158371,2385.1684679985046,2385.1684851646423,2403.549905061722
0,2403.549905061722,2427.008884191513,2427.008903026581,2439.921858072281
0,2439.921858072281,2463.42551612854,2463.425532102585,2472.062003135681
0,2472.062003135681,2492.083092212677,2492.0831110477448,2500.918048143387
0,2500.918048143387,2522.5453209877014,2522.5453391075134,2528.881847143173
0,2528.881847143173,2571.942491054535,2571.94251203537,2578.2020671367645
0,2578.2020671367645,2601.2815370559692,2601.281558036804,2615.4218780994415
0,2615.4218780994415,2636.6415281295776,2636.641547203064,2643.4498500823975
0,2643.4498500823975,2665.286285161972,2665.2863051891327,2670.3380970954895
0,2670.3380970954895,2693.4937970638275,2693.493817090988,2702.381936073303
0,2702.381936073303,2722.1859831809998,2722.1860032081604,2725.682075023651
0,2725.682075023651,2746.1240561008453,2746.1240770816803,2755.6059741973877
0,2755.6059741973877,2773.7716810703278,2773.771695137024,2786.7258760929108
0,2786.7258760929108,2804.943463087082,2804.9434740543365,2812.9861240386963
0,2812.9861240386963,2836.5698330402374,2836.5698511600494,2847.074000120163
0,2847.074000120163,2868.4261841773987,2868.4262030124664,2875.145839214325
0,2875.145839214325,2899.7340841293335,2899.73410320282,2912.42991399765
0,2912.42991399765,2935.5861451625824,2935.586165189743,2972.9779109954834
0,2972.9779109954834,3000.4063420295715,3000.4063601493835,3013.229960203171
0,3013.229960203171,3036.2455270290375,3036.245546102524,3043.1858460903168
0,3043.1858460903168,3064.611009120941,3064.6110281944275,3072.6500160694122
0,3072.6500160694122,3092.377784013748,3092.3778030872345,3097.1382150650024
0,3097.1382150650024,3116.821105003357,3116.8211250305176,3120.0979821681976
0,3120.0979821681976,3140.3508591651917,3140.3508801460266,3145.7860090732574
0,3145.7860090732574,3166.0876870155334,3166.087707042694,3171.1580381393433
0,3171.1580381393433,3190.6826090812683,3190.6826281547546,3195.8860881328583
0,3195.8860881328583,3218.5552871227264,3218.55530500412,3231.9242630004883
0,3231.9242630004883,3253.286826133728,3253.286847114563,3259.533838033676
0,3259.533838033676,3282.202896118164,3282.202913045883,3296.4579939842224
0,3296.4579939842224,3317.799280166626,3317.7993001937866,3324.2021441459656
0,3324.2021441459656,3348.2553260326385,3348.2553400993347,3358.7939422130585
0,3358.7939422130585,3378.827196121216,3378.827217102051,3384.4099020957947
0,3384.4099020957947,3405.1754581928253,3405.175477027893,3407.8301331996918
0,3407.8301331996918,3437.520970106125,3437.520989179611,3448.7060601711273
0,3448.7060601711273,3467.755315065384,3467.75532913208,3472.065982103348
0,3472.065982103348,3491.096440076828,3491.09645819664,3494.101991176605
0,3494.101991176605,3512.362675189972,3512.3626890182495,3515.19801902771
0,3515.19801902771,3533.41495513916,3533.4149701595306,3536.1780230998993
0,3536.1780230998993,3554.341113090515,3554.3411281108856,3559.4341130256653
0,3559.4341130256653,3577.6670310497284,3577.667043209076,3584.6379442214966
0,3584.6379442214966,3602.819832086563,3602.8198471069336,3607.326003074646
0,3607.326003074646,3625.5317680835724,3625.5317800045013,3626.6980471611023
0,3626.6980471611023,3644.9236969947815,3644.9237082004547,3646.0820410251617
0,3646.0820410251617,3664.297019004822,3664.297030210495,3665.4134430885315
0,3665.4134430885315,3683.7204871177673,3683.7205061912537,3691.2939171791077
0,3691.2939171791077,3709.5033280849457,3709.5033400058746,3710.718008995056
0,3710.718008995056,3728.9544970989227,3728.9545102119446,3734.2860560417175
0,3734.2860560417175,3752.503794193268,3752.503806114197,3753.7300221920013
0,3753.7300221920013,3771.9000811576843,3771.9000940322876,3781.3900310993195
10,1.369035005569458,628.8209450244904,628.8209640979767,738.149307012558
10,738.149307012558,1139.4623491764069,1139.4623670578003,1222.5019121170044
10,1222.5019121170044,1590.908762216568,1590.9087781906128,1644.44881606102
10,1644.44881606102,2008.9179601669312,2008.917979001999,2138.9196360111237
10,2138.9196360111237,2501.13703417778,2501.1370511054993,2578.364669084549
10,2578.364669084549,2968.7728130817413,2968.772828102112,3021.3292400836945
10,3021.3292400836945,3386.999221086502,3386.9992401599884,3445.144483089447
11,0.6406772136688232,361.03291606903076,361.03293204307556,777.7038631439209
11,777.7038631439209,1170.4181311130524,1170.4181470870972,1264.2476530075073
11,1264.2476530075073,1654.2399690151215,1654.2399830818176,1747.3956310749054
11,1747.3956310749054,2128.566353082657,2128.566372156143,2335.082460165024
11,2335.082460165024,2703.8737041950226,2703.8737330436707,2771.7680311203003
11,2771.7680311203003,3133.87242102623,3133.8724381923676,3191.8884110450745
11,3191.8884110450745,3559.432792186737,3559.4328072071075,3596.218308210373
12,0.8127150535583496,362.28203201293945,362.28205013275146,883.223815202713
12,883.223815202713,1253.594279050827,1253.5943050384521,1663.7969970703125
12,1663.7969970703125,2087.534162044525,2087.534179210663,2456.3673751354218
12,2456.3673751354218,2816.5680570602417,2816.568071126938,2975.385890007019
12,2975.385890007019,3342.9708671569824,3342.97088599205,3449.559471130371
13,1.3447082042694092,767.6575281620026,767.6575481891632,1743.7004730701447
13,1743.7004730701447,2118.3684351444244,2118.3684542179108,2577.2908279895782
13,2577.2908279895782,2968.694580078125,2968.694591999054,3183.663659095764
13,3183.663659095764,3543.837000131607,3543.837016105652,3576.7496750354767
14,1.3126962184906006,777.5012810230255,777.5013020038605,2577.271100997925
14,2577.271100997925,2968.6943640708923,2968.6944119930267,3296.271286010742
14,3296.271286010742,3665.095715045929,3665.095729112625,3697.1012201309204
15,1.3491191864013672,379.64043712615967,379.6404540538788,2773.5084002017975
15,2773.5084002017975,3135.6829240322113,3135.682941198349,3452.1586010456085
1,0.006431102752685547,360.4047021865845,360.4047181606293,416.09975004196167
1,416.09975004196167,781.0252110958099,781.0252320766449,862.5984899997711
1,862.5984899997711,1227.2897591590881,1227.2897791862488,1311.7629489898682
1,1311.7629489898682,1677.583428144455,1677.5834500789642,1740.7671511173248
1,1740.7671511173248,2111.828425168991,2111.828446149826,2193.763918161392
1,2193.763918161392,2573.18324303627,2573.183264017105,2630.4883151054382
1,2630.4883151054382,2999.99027299881,2999.9902930259705,3074.0135140419006
1,3074.0135140419006,3442.280261993408,3442.280282020569,3472.282646179199
2,0.0,360.0120770931244,360.01209115982056,432.9745671749115
2,432.9745671749115,800.9218211174011,800.9218401908875,898.7908790111542
2,898.7908790111542,1263.8830440044403,1263.8830630779266,1349.296198129654
2,1349.296198129654,1715.3123919963837,1715.312429189682,1779.6966171264648
2,1779.6966171264648,2144.996356010437,2144.9963760375977,2238.087480068207
2,2238.087480068207,2606.109423160553,2606.109444141388,2673.9272661209106
2,2673.9272661209106,3040.670531988144,3040.670554161072,3099.8877601623535
2,3099.8877601623535,3460.0918571949005,3460.091871023178,3491.513934135437
3,1.0566999912261963,370.37238907814026,370.37242102622986,471.50548815727234
3,471.50548815727234,861.306694984436,861.3067140579224,938.7122960090637
3,938.7122960090637,1302.118236064911,1302.1182520389557,1393.6695160865784
3,1393.6695160865784,1757.4316391944885,1757.4316561222076,1827.068831205368
3,1827.068831205368,2194.348466157913,2194.348484992981,2277.7313220500946
3,2277.7313220500946,2643.62202000618,2643.6220350265503,2705.5010571479797
3,2705.5010571479797,3072.251053094864,3072.25107216835,3118.106870174408
3,3118.106870174408,3478.319547176361,3478.31955909729,3512.6614191532135
4,1.144714117050171,373.08846402168274,373.08847999572754,509.428102016449
4,509.428102016449,895.8329200744629,895.8329410552979,977.6949760913849
4,977.6949760913849,1349.2626252174377,1349.2626440525055,1436.1571681499481
4,1436.1571681499481,1806.7627429962158,1806.7627630233765,1880.6047151088715
4,1880.6047151088715,2245.736617088318,2245.73663520813,2299.0727519989014
4,2299.0727519989014,2673.433967113495,2673.4339830875397,2727.6562581062317
4,2727.6562581062317,3097.8718140125275,3097.871829032898,3139.087520122528
4,3139.087520122528,3499.221633195877,3499.2216470241547,3533.1620230674744
5,0.18343710899353027,360.5142731666565,360.5142891407013,549.2556531429291
5,549.2556531429291,918.7177131175995,918.7177340984344,1018.3278901576996
5,1018.3278901576996,1392.2306361198425,1392.2306561470032,1477.1403231620789
5,1477.1403231620789,1840.4076561927795,1840.4076762199402,1925.2407472133636
5,1925.2407472133636,2288.3129670619965,2288.3129880428314,2351.400773048401
5,2351.400773048401,2714.505779027939,2714.505798101425,2764.184198141098
5,2764.184198141098,3126.935147047043,3126.935165166855,3172.404363155365
5,3172.404363155365,3532.5877211093903,3532.5877351760864,3557.9260160923004
6,1.1366980075836182,371.7803750038147,371.7803912162781,588.5242722034454
6,588.5242722034454,975.916097164154,975.9161140918732,1058.0762281417847
6,1058.0762281417847,1425.322918176651,1425.3229360580444,1520.7201540470123
6,1520.7201540470123,1884.8597581386566,1884.8597781658173,1967.9198751449585
6,1967.9198751449585,2330.3160910606384,2330.3161101341248,2403.3840441703796
6,2403.3840441703796,2763.991844177246,2763.991863012314,2816.173981189728
6,2816.173981189728,3181.43190908432,3181.431927204132,3235.4313011169434
6,3235.4313011169434,3595.6281971931458,3595.6282110214233,3618.3741149902344
7,0.9689121246337891,362.6404390335083,362.6404960155487,624.0844910144806
7,624.0844910144806,1014.2068130970001,1014.2068300247192,1099.6237351894379
7,1099.6237351894379,1476.7799742221832,1476.779993057251,1561.990807056427
7,1561.990807056427,1924.828075170517,1924.8280940055847,2009.8802511692047
7,2009.8802511692047,2375.6209800243378,2375.62099814415,2452.435816049576
7,2452.435816049576,2812.6361570358276,2812.636171102524,2858.7260282039642
7,2858.7260282039642,3231.929558992386,3231.929573059082,3306.2194571495056
7,3306.2194571495056,3666.460324048996,3666.460338115692,3706.573070049286
8,1.4366950988769531,574.5069980621338,574.5070130825043,661.6521530151367
8,661.6521530151367,1030.0858571529388,1030.0858759880066,1139.439721107483
8,1139.439721107483,1517.6868071556091,1517.686823129654,1592.372099161148
8,1592.372099161148,1954.7647831439972,1954.7647981643677,2052.456223011017
8,2052.456223011017,2416.3531351089478,2416.3531551361084,2476.771546125412
8,2476.771546125412,2846.6068201065063,2846.6068379879,2917.294776201248
8,2917.294776201248,3281.4596061706543,3281.459625005722,3360.07372713089
8,3360.07372713089,3720.30806016922,3720.3080730438232,3743.489634990692
9,1.4287090301513672,574.6204640865326,574.6204791069031,699.4973700046539
9,699.4973700046539,1068.3137910366058,1068.313814163208,1178.7356941699982
9,1178.7356941699982,1542.240228176117,1542.2402431964874,1611.92933011055
9,1611.92933011055,1991.009651184082,1991.0096650123596,2095.53547000885
9,2095.53547000885,2460.8933391571045,2460.893359184265,2517.045572042465
9,2517.045572042465,2879.854577064514,2879.854606151581,2974.830476999283
9,2974.830476999283,3341.7151911258698,3341.715210199356,3406.539887189865
9,3406.539887189865,3766.763734102249,3766.7637481689453,3790.237948179245
