app_id,start_exec,end_exec,start_io,end_io
0,9.703636169433594e-05,18.013532876968384,18.01355290412903,19.41196084022522
0,19.41196084022522,37.646113872528076,37.64612698554993,39.0477979183197
0,39.0477979183197,57.2855179309845,57.28552985191345,58.510972023010254
0,58.510972023010254,76.79517793655396,76.7951889038086,78.07986903190613
0,78.07986903190613,96.39730095863342,96.39731192588806,97.62845802307129
0,97.62845802307129,115.91664385795593,115.91665482521057,117.23174786567688
0,117.23174786567688,135.4586958885193,135.45870900154114,136.8357858657837
0,136.8357858657837,155.04224181175232,155.04225492477417,156.26778602600098
0,156.26778602600098,174.50051188468933,174.50052404403687,175.86836504936218
0,175.86836504936218,194.12956404685974,194.12957501411438,195.347797870636
0,195.347797870636,213.5613980293274,213.56140995025635,214.91977787017822
0,214.91977787017822,233.1372139453888,233.13722491264343,234.4125919342041
0,234.4125919342041,252.62112092971802,252.62113189697266,253.83585500717163
0,253.83585500717163,272.0697889328003,272.06980085372925,273.3962209224701
0,273.3962209224701,291.6200759410858,291.6200888156891,293.0397570133209
0,293.0397570133209,311.28782296180725,311.2878408432007,312.6317529678345
0,312.6317529678345,330.8294930458069,330.8295028209686,332.08774995803833
0,332.08774995803833,350.34735894203186,350.34737181663513,351.6558289527893
0,351.6558289527893,380.8248598575592,380.82487893104553,389.88302087783813
0,389.88302087783813,410.8616428375244,410.8616609573364,417.8316888809204
0,417.8316888809204,441.25253987312317,441.2525589466095,451.4637939929962
0,451.4637939929962,471.4446029663086,471.44462299346924,479.30772495269775
0,479.30772495269775,499.6071720123291,499.60719084739685,502.2797520160675
0,502.2797520160675,522.0570578575134,522.0570778846741,525.3078699111938
0,525.3078699111938,546.125030040741,546.125049829483,553.3782839775085
0,553.3782839775085,575.9613468647003,575.9613659381866,582.8638260364532
0,582.8638260364532,603.2636198997498,603.2636389732361,610.5897150039673
0,610.5897150039673,630.817461013794,630.8174788951874,635.4716930389404
0,635.4716930389404,655.6173529624939,655.6173729896545,659.1397669315338
0,659.1397669315338,679.5700030326843,679.5700228214264,684.2597408294678
0,684.2597408294678,702.4695880413055,702.4696009159088,706.0797939300537
0,706.0797939300537,724.2889788150787,724.2889919281006,725.6117889881134
0,725.6117889881134,743.831221818924,743.8312349319458,745.0877430438995
0,745.0877430438995,763.5775229930878,763.5775389671326,774.6918108463287
0,774.6918108463287,792.8784739971161,792.8784868717194,795.12455701828
0,795.12455701828,815.2531509399414,815.2531638145447,818.0352120399475
0,818.0352120399475,837.1538200378418,837.1538369655609,840.9518618583679
0,840.9518618583679,861.838546037674,861.8385648727417,864.8357229232788
0,864.8357229232788,884.9738929271698,884.9739239215851,888.2670500278473
0,888.2670500278473,907.462718963623,907.462739944458,911.3717279434204
0,911.3717279434204,932.0538849830627,932.0539059638977,934.6837348937988
0,934.6837348937988,954.9898400306702,954.9898579120636,958.1787598133087
0,958.1787598133087,978.4145300388336,978.414547920227,983.8317430019379
0,983.8317430019379,1003.8817248344421,1003.8817448616028,1007.1757760047913
0,1007.1757760047913,1027.964290857315,1027.9643108844757,1030.8597779273987
0,1030.8597779273987,1051.126750946045,1051.1267709732056,1055.503165960312
0,1055.503165960312,1075.3226308822632,1075.3226509094238,1078.7997589111328
0,1078.7997589111328,1099.0895709991455,1099.0895879268646,1102.7197048664093
0,1102.7197048664093,1120.9523689746857,1120.9523839950562,1126.7918348312378
0,1126.7918348312378,1145.0091989040375,1145.0092158317566,1153.2477669715881
0,1153.2477669715881,1171.5135579109192,1171.513571023941,1172.8923568725586
0,1172.8923568725586,1191.1710698604584,1191.1710829734802,1196.8398518562317
0,1196.8398518562317,1215.0659968852997,1215.0660099983215,1220.343850851059
0,1220.343850851059,1238.574275970459,1238.5742900371552,1246.6957988739014
0,1246.6957988739014,1264.8939428329468,1264.893956899643,1273.4718120098114
0,1273.4718120098114,1291.6731178760529,1291.6731309890747,1301.263839006424
0,1301.263839006424,1319.4213409423828,1319.421355009079,1325.7118079662323
0,1325.7118079662323,1343.925034046173,1343.9250478744507,1350.5804419517517
0,1350.5804419517517,1370.6707859039307,1370.6708009243011,1379.3638188838959
0,1379.3638188838959,1398.4271519184113,1398.4271669387817,1407.4397168159485
0,1407.4397168159485,1428.4316878318787,1428.4317049980164,1432.4997498989105
0,1432.4997498989105,1453.079006910324,1453.0790209770203,1458.9477529525757
0,1458.9477529525757,1479.8067469596863,1479.8067619800568,1486.3077569007874
0,1486.3077569007874,1507.0948100090027,1507.0948250293732,1513.439680814743
0,1513.439680814743,1534.0062618255615,1534.0062789916992,1540.5037009716034
0,1540.5037009716034,1558.7448120117188,1558.7448258399963,1565.375792980194
0,1565.375792980194,1583.5774688720703,1583.5774838924408,1591.4078040122986
0,1591.4078040122986,1609.6255819797516,1609.6255960464478,1616.6578078269958
0,1616.6578078269958,1634.8535919189453,1634.8536050319672,1642.0958180427551
0,1642.0958180427551,1660.2966089248657,1660.296622991562,1669.1846449375153
0,1669.1846449375153,1687.4022619724274,1687.4022748470306,1694.1277890205383
0,1694.1277890205383,1712.3079059123993,1712.3079209327698,1721.5117688179016
0,1721.5117688179016,1739.672775030136,1739.6727879047394,1747.5599088668823
0,1747.5599088668823,1765.7470090389252,1765.7470219135284,1774.2837660312653
0,1774.2837660312653,1792.4848709106445,1792.4848840236664,1801.6608078479767
0,1801.6608078479767,1822.8508818149567,1822.8508949279785,1833.5999310016632
0,1833.5999310016632,1854.8631238937378,1854.863137960434,1863.5106818675995
0,1863.5106818675995,1884.8632788658142,1884.8632938861847,1894.3677158355713
0,1894.3677158355713,1915.2351698875427,1915.2351858615875,1924.3117558956146
0,1924.3117558956146,1945.6230728626251,1945.6230919361115,1952.1957108974457
0,1952.1957108974457,1972.875242948532,1972.8752620220184,1980.3877518177032
0,1980.3877518177032,2001.5274770259857,2001.5274999141693,2011.2116978168488
0,2011.2116978168488,2031.73965382576,2031.739671945572,2039.616129875183
0,2039.616129875183,2060.6617670059204,2060.661784887314,2066.4499559402466
0,2066.4499559402466,2087.2962639331818,2087.296281814575,2094.439854860306
0,2094.439854860306,2115.287446975708,2115.2874660491943,2122.899745941162
0,2122.899745941162,2143.3406159877777,2143.3406348228455,2150.591761827469
0,2150.591761827469,2171.2399678230286,2171.239987850189,2178.18558883667
0,2178.18558883667,2198.895747900009,2198.895763874054,2205.8757469654083
0,2205.8757469654083,2226.543725013733,2226.543745994568,2233.8678250312805
0,2233.8678250312805,2254.8145270347595,2254.8145458698273,2261.423753976822
0,2261.423753976822,2282.380117893219,2282.380136013031,2290.2493209838867
0,2290.2493209838867,2311.1035459041595,2311.10356593132,2318.5517768859863
0,2318.5517768859863,2339.2795758247375,2339.2795939445496,2346.0798070430756
0,2346.0798070430756,2367.3126318454742,2367.3126549720764,2371.7597119808197
0,2371.7597119808197,2392.6169068813324,2392.616921901703,2399.4597568511963
0,2399.4597568511963,2420.5324478149414,2420.532464027405,2428.7357709407806
0,2428.7357709407806,2449.34934592247,2449.349364042282,2457.495728969574
0,2457.495728969574,2478.4557979106903,2478.4558160305023,2485.0373129844666
0,2485.0373129844666,2505.4145028591156,2505.414521932602,2512.143800020218
0,2512.143800020218,2533.1003329753876,2533.100350856781,2540.495740890503
0,2540.495740890503,2561.2365379333496,2561.236555814743,2569.4987909793854
0,2569.4987909793854,2590.328187942505,2590.328204870224,2597.722051858902
0,2597.722051858902,2618.572098016739,2618.5721158981323,2625.8197498321533
0,2625.8197498321533,2646.580353975296,2646.5803759098053,2654.719754934311
0,2654.719754934311,2675.420177936554,2675.4201958179474,2683.6117238998413
0,2683.6117238998413,2704.392693042755,2704.39271402359,2711.7662909030914
0,2711.7662909030914,2732.656926870346,2732.656944990158,2740.339763879776
0,2740.339763879776,2758.485141992569,2758.4851548671722,2766.2078828811646
0,2766.2078828811646,2787.512759923935,2787.5127789974213,2796.5157709121704
0,2796.5157709121704,2816.9765708446503,2816.976590871811,2822.424432992935
0,2822.424432992935,2842.564831972122,2842.5648539066315,2847.415722846985
0,2847.415722846985,2868.1206438541412,2868.1206588745117,2874.6557660102844
0,2874.6557660102844,2895.7886760234833,2895.7886929512024,2905.759796857834
0,2905.759796857834,2926.71684384346,2926.7168629169464,2936.9237208366394
0,2936.9237208366394,2957.4726338386536,2957.472653865814,2966.1973209381104
0,2966.1973209381104,2987.560781955719,2987.5608088970184,3000.011848926544
0,3000.011848926544,3020.781270980835,3020.7812898159027,3027.5837018489838
0,3027.5837018489838,3048.346088886261,3048.3461079597473,3056.275733947754
0,3056.275733947754,3077.399894952774,3077.3999140262604,3085.43177485466
0,3085.43177485466,3105.79394698143,3105.793965816498,3115.015576839447
0,3115.015576839447,3135.6495718955994,3135.64959192276,3143.372295856476
0,3143.372295856476,3165.1654748916626,3165.1654930114746,3173.8637359142303
0,3173.8637359142303,3193.941752910614,3193.9417719841003,3198.647626876831
0,3198.647626876831,3219.016655921936,3219.01668381691,3226.399821996689
0,3226.399821996689,3244.617719888687,3244.6177339553833,3252.6108899116516
0,3252.6108899116516,3270.8290429115295,3270.8290560245514,3280.6118009090424
0,3280.6118009090424,3298.8005068302155,3298.8005208969116,3306.568578004837
0,3306.568578004837,3324.816079854965,3324.8160948753357,3336.2517998218536
0,3336.2517998218536,3354.433835029602,3354.4338710308075,3362.7466390132904
0,3362.7466390132904,3383.8339438438416,3383.8339648246765,3392.967638015747
0,3392.967638015747,3414.3015780448914,3414.3015949726105,3420.0075929164886
0,3420.0075929164886,3440.884920835495,3440.8849399089813,3449.959800004959
0,3449.959800004959,3470.8938748836517,3470.8938908576965,3481.1637489795685
0,3481.1637489795685,3501.8459198474884,3501.8459389209747,3512.635717868805
0,3512.635717868805,3533.2864768505096,3533.2864968776703,3541.719717025757
0,3541.719717025757,3562.5063269138336,3562.5063450336456,3570.8557589054108
0,3570.8557589054108,3594.3977830410004,3594.3977978229523,3603.719787836075
0,3603.719787836075,3626.3180429935455,3626.318063020706,3635.923775911331
0,3635.923775911331,3657.0941479206085,3657.094167947769,3667.3156049251556
0,3667.3156049251556,3689.8782198429108,3689.8782348632812,3702.5916709899902
0,3702.5916709899902,3724.990196943283,3724.990213871002,3735.031795978546
0,3735.031795978546,3756.922871828079,3756.9228899478912,3766.1917428970337
10,1.2104530334472656,369.44467282295227,369.44468998908997,588.6983318328857
10,588.6983318328857,957.5504720211029,957.550488948822,1006.1062428951263
10,1006.1062428951263,1366.3297040462494,1366.3297169208527,1406.703495979309
10,1406.703495979309,1773.6863589286804,1773.6863749027252,1816.8147659301758
10,1816.8147659301758,2178.1063718795776,2178.1063919067383,2234.670012950897
10,2234.670012950897,2596.3844158649445,2596.384435892105,2656.6253390312195
10,2656.6253390312195,3025.8786828517914,3025.8787038326263,3087.905508041382
10,3087.905508041382,3449.531266927719,3449.531285047531,3513.438300848007
11,1.2824559211730957,553.4274559020996,553.4274699687958,611.9266970157623
11,611.9266970157623,979.3736410140991,979.3736548423767,1031.1898980140686
11,1031.1898980140686,1391.410387992859,1391.4104008674622,1432.3395128250122
11,1432.3395128250122,1797.0145909786224,1797.014605998993,1844.8869869709015
11,1844.8869869709015,2205.7773718833923,2205.7773900032043,2262.110873937607
11,2262.110873937607,2625.6164000034332,2625.616418838501,2684.56379199028
11,2684.56379199028,3056.2108449935913,3056.2108628749847,3117.2732899188995
11,3117.2732899188995,3483.5892498493195,3483.58926987648,3542.585386991501
12,1.2343599796295166,373.83354091644287,373.83356404304504,635.6554689407349
12,635.6554689407349,1005.5937829017639,1005.593799829483,1054.362123966217
12,1054.362123966217,1414.5507349967957,1414.5507500171661,1459.283874988556
12,1459.283874988556,1819.4899899959564,1819.490003824234,1873.151417016983
12,1873.151417016983,2233.527190923691,2233.527209043503,2290.8863139152527
12,2290.8863139152527,2653.204368829727,2653.204386949539,2712.301489830017
12,2712.301489830017,3085.810959815979,3085.8109788894653,3145.3286049365997
12,3145.3286049365997,3512.1545238494873,3512.154543876648,3572.1498939990997
13,0.7424609661102295,361.0660488605499,361.0660710334778,659.2461400032043
13,659.2461400032043,1030.4255149364471,1030.4255349636078,1078.2498579025269
13,1078.2498579025269,1438.4374859333038,1438.4375009536743,1486.6918649673462
13,1486.6918649673462,1846.8896799087524,1846.8896958827972,1902.153100013733
13,1902.153100013733,2262.4526178836823,2262.452630996704,2319.311504840851
13,2319.311504840851,2682.109771966934,2682.1097898483276,2740.7194459438324
13,2740.7194459438324,3114.9701540470123,3114.9701828956604,3174.967721939087
13,3174.967721939087,3540.1349959373474,3540.1350169181824,3603.9416179656982
14,0.38445496559143066,360.5163040161133,360.5163240432739,684.3617849349976
14,684.3617849349976,1054.0740430355072,1054.0740609169006,1102.6724710464478
14,1102.6724710464478,1462.9366738796234,1462.9366879463196,1513.130280971527
14,1513.130280971527,1873.362911939621,1873.3629248142242,1928.846890926361
14,1928.846890926361,2289.035984992981,2289.0360028743744,2346.313243865967
14,2346.313243865967,2711.4443249702454,2711.444342851639,2769.7183220386505
14,2769.7183220386505,3143.365203857422,3143.365222930908,3228.117094039917
15,1.3988280296325684,380.100576877594,380.10060381889343,706.4600818157196
15,706.4600818157196,1077.9032378196716,1077.903256893158,1127.1264100074768
15,1127.1264100074768,1487.3183979988098,1487.3184130191803,1540.2587490081787
15,1540.2587490081787,1900.4879088401794,1900.4879260063171,1955.462513923645
15,1955.462513923645,2318.224030017853,2318.224046945572,2381.973692893982
15,2381.973692893982,2762.2030498981476,2762.2030658721924,2856.0487349033356
1,0.0,360.0137138366699,360.0137279033661,391.62972688674927
1,391.62972688674927,751.6621129512787,751.662125825882,776.691083908081
1,776.691083908081,1136.949826002121,1136.9498388767242,1162.9514608383179
1,1162.9514608383179,1523.1381478309631,1523.1381628513336,1567.5834078788757
1,1567.5834078788757,1927.825122833252,1927.8251368999481,1981.8422079086304
1,1981.8422079086304,2345.083719968796,2345.083737850189,2399.9192650318146
1,2399.9192650318146,2762.1708238124847,2762.1708409786224,2800.3280498981476
1,2800.3280498981476,3164.0852229595184,3164.0852398872375,3225.57346200943
1,3225.57346200943,3588.289788007736,3588.289808034897,3646.0099799633026
2,1.246466875076294,378.08871388435364,378.0887339115143,430.9630308151245
2,430.9630308151245,790.9840178489685,790.9840319156647,816.2332119941711
2,816.2332119941711,1176.396831035614,1176.3968439102173,1202.2454919815063
2,1202.2454919815063,1564.5890719890594,1564.5890879631042,1594.7840068340302
2,1594.7840068340302,1954.968829870224,1954.9688458442688,2011.8703198432922
2,2011.8703198432922,2372.0426230430603,2372.042637825012,2429.5912079811096
2,2429.5912079811096,2793.97678899765,2793.976809024811,2843.553680896759
2,2843.553680896759,3219.016896009445,3219.016907930374,3258.679785966873
2,3258.679785966873,3620.966055870056,3620.966078042984,3682.9313390254974
3,1.1627700328826904,363.4533588886261,363.4533770084381,448.8487319946289
3,448.8487319946289,808.8821828365326,808.8821959495544,841.0767509937286
3,841.0767509937286,1201.276051044464,1201.276062965393,1227.379343032837
3,1227.379343032837,1590.662339925766,1590.662358045578,1622.57177400589
3,1622.57177400589,1982.7673349380493,1982.7673490047455,2041.134153842926
3,2041.134153842926,2401.384610891342,2401.3846249580383,2458.686290025711
3,2458.686290025711,2823.1844398975372,2823.1844589710236,2883.6337628364563
3,2883.6337628364563,3243.843253850937,3243.8432669639587,3287.9476039409637
3,3287.9476039409637,3650.870106935501,3650.8701248168945,3713.4651398658752
4,0.9984569549560547,361.2135720252991,361.2135908603668,455.49924302101135
4,455.49924302101135,815.9662070274353,815.9662239551544,863.294184923172
4,863.294184923172,1223.4975798130035,1223.4975929260254,1252.7888519763947
4,1252.7888519763947,1614.084853887558,1614.0848689079285,1650.0796208381653
4,1650.0796208381653,2010.8656418323517,2010.865660905838,2067.817878961563
4,2067.817878961563,2428.2292518615723,2428.2292699813843,2485.6140089035034
4,2485.6140089035034,2850.3153178691864,2850.3153319358826,2912.3210458755493
4,2912.3210458755493,3274.765355825424,3274.7653720378876,3318.3823289871216
4,3318.3823289871216,3681.7299978733063,3681.730013847351,3743.7662489414215
5,1.3107779026031494,377.145427942276,377.14547085762024,479.47265100479126
5,479.47265100479126,840.7367570400238,840.7367899417877,887.838495016098
5,887.838495016098,1248.045164823532,1248.0451788902283,1276.9477708339691
5,1276.9477708339691,1638.2018909454346,1638.2019069194794,1678.2914588451385
5,1678.2914588451385,2039.2851629257202,2039.2851798534393,2095.975198030472
5,2095.975198030472,2456.143884897232,2456.1439039707184,2512.942438840866
5,2512.942438840866,2876.1775929927826,2876.17760682106,2941.6545219421387
5,2941.6545219421387,3302.2361919879913,3302.236207962036,3347.921331882477
5,3347.921331882477,3711.2386088371277,3711.238623857498,3773.9625630378723
6,1.126457929611206,361.75090193748474,361.7509288787842,500.7791368961334
6,500.7791368961334,863.1374459266663,863.1374640464783,910.9360299110413
6,910.9360299110413,1271.1340408325195,1271.1340539455414,1303.0557248592377
6,1303.0557248592377,1668.4947650432587,1668.4947788715363,1705.6352798938751
6,1705.6352798938751,2066.3151428699493,2066.315160036087,2124.228299856186
6,2124.228299856186,2484.8341619968414,2484.8341789245605,2542.033938884735
6,2542.033938884735,2903.895756959915,2903.8957738876343,2973.4299759864807
6,2973.4299759864807,3333.628965854645,3333.6289789676666,3378.6313478946686
7,1.2344539165496826,372.90930795669556,372.9093418121338,524.8445188999176
7,524.8445188999176,887.6380839347839,887.6381099224091,933.9216120243073
7,933.9216120243073,1297.3601899147034,1297.3602149486542,1327.9832918643951
7,1327.9832918643951,1690.3186128139496,1690.31862783432,1733.7712318897247
7,1733.7712318897247,2094.221025943756,2094.2210438251495,2151.6500329971313
7,2151.6500329971313,2512.1364138126373,2512.1364319324493,2571.846050977707
7,2571.846050977707,2937.541806936264,2937.54182100296,3000.7664058208466
7,3000.7664058208466,3362.689064979553,3362.689080953598,3410.9826328754425
8,1.2344529628753662,367.8810570240021,367.8810739517212,550.3467869758606
8,550.3467869758606,910.6409749984741,910.6409938335419,958.4337339401245
8,958.4337339401245,1318.6451590061188,1318.6451728343964,1354.3069899082184
8,1354.3069899082184,1716.9482748508453,1716.9482898712158,1762.1282818317413
8,1762.1282818317413,2122.6875460147858,2122.6875648498535,2178.981925010681
8,2178.981925010681,2540.4307448863983,2540.4307630062103,2598.5822489261627
8,2598.5822489261627,2966.1364879608154,2966.136507987976,3029.82226395607
8,3029.82226395607,3392.682260990143,3392.6822798252106,3450.9694299697876
9,0.1747899055480957,360.19066286087036,360.1906809806824,565.5619628429413
9,565.5619628429413,933.1173119544983,933.1173279285431,983.2810888290405
9,983.2810888290405,1343.4040169715881,1343.4040298461914,1381.6903669834137
9,1381.6903669834137,1746.4487438201904,1746.4487669467926,1789.9432108402252
9,1789.9432108402252,2150.154189825058,2150.1542069911957,2206.8427288532257
9,2206.8427288532257,2568.2317550182343,2568.231770992279,2627.1503369808197
9,2627.1503369808197,2999.9680190086365,2999.96803689003,3058.069654941559
9,3058.069654941559,3421.8817689418793,3421.881784915924,3483.882341861725
