I think I'm working for the application of IOSETS_JOB_ID = 6
I'll open/create the priority file /sys/kernel/config/iosets/6/priority!
Priority = 0.026000 (260)
Will write 260 to the file (priority is 0.026000)
Now I'll create the log file
Now I'll wait for information from the predictor
I will launch the predictor on file /root/running_ior/6/8.jsonl
128.500000 1.000000
Priority = 0.010000 (100)
Will write 100 to the file (priority is 0.010000)
128.500000 1.000000
Priority = 0.010000 (100)
Will write 100 to the file (priority is 0.010000)
551.300000 1.000000
Priority = 0.001000 (10)
Will write 10 to the file (priority is 0.001000)
466.900000 1.000000
Priority = 0.001000 (10)
Will write 10 to the file (priority is 0.001000)
449.900000 1.000000
Priority = 0.001000 (10)
Will write 10 to the file (priority is 0.001000)
442.125000 1.000000
Priority = 0.001000 (10)
Will write 10 to the file (priority is 0.001000)
438.100000 1.000000
Priority = 0.001000 (10)
Will write 10 to the file (priority is 0.001000)
439.083333 1.000000
Priority = 0.001000 (10)
Will write 10 to the file (priority is 0.001000)
436.428571 1.000000
Priority = 0.001000 (10)
Will write 10 to the file (priority is 0.001000)
