I think I'm working for the application of IOSETS_JOB_ID = 2
I will launch the predictor on file /root/running_ior/2/8.jsonl
I'll open/create the priority file /sys/kernel/config/iosets/2/priority!
Priority = 0.022000 (220)
Will write 220 to the file (priority is 0.022000)
Now I'll create the log file
Now I'll wait for information from the predictor
126.700000 1.000000
Priority = 0.010000 (100)
Will write 100 to the file (priority is 0.010000)
506.800000 1.000000
Priority = 0.001000 (10)
Will write 10 to the file (priority is 0.001000)
449.850000 1.000000
Priority = 0.001000 (10)
Will write 10 to the file (priority is 0.001000)
439.000000 1.000000
Priority = 0.001000 (10)
Will write 10 to the file (priority is 0.001000)
432.725000 1.000000
Priority = 0.001000 (10)
Will write 10 to the file (priority is 0.001000)
427.580000 1.000000
Priority = 0.001000 (10)
Will write 10 to the file (priority is 0.001000)
428.166667 1.000000
Priority = 0.001000 (10)
Will write 10 to the file (priority is 0.001000)
424.342857 1.000000
Priority = 0.001000 (10)
Will write 10 to the file (priority is 0.001000)
