I think I'm working for the application of IOSETS_JOB_ID = 1
I'll open/create the priority file /sys/kernel/config/iosets/1/priority!
Priority = 0.030000 (300)
Will write 300 to the file (priority is 0.030000)
Now I'll create the log file
Now I'll wait for information from the predictor
I will launch the predictor on file /root/running_ior/1/8.jsonl
-1.000000 0.000000
Priority = 0.030000 (300)
Will write 300 to the file (priority is 0.030000)
-1.000000 0.000000
Priority = 0.030000 (300)
Will write 300 to the file (priority is 0.030000)
-1.000000 0.000000
Priority = 0.030000 (300)
Will write 300 to the file (priority is 0.030000)
-1.000000 0.000000
Priority = 0.030000 (300)
Will write 300 to the file (priority is 0.030000)
-1.000000 0.000000
Priority = 0.030000 (300)
Will write 300 to the file (priority is 0.030000)
-1.000000 0.000000
Priority = 0.030000 (300)
Will write 300 to the file (priority is 0.030000)
19.628571 1.000000
Priority = 0.100000 (1000)
Will write 1000 to the file (priority is 0.100000)
-1.000000 1.000000
Priority = 0.100000 (1000)
Will write 1000 to the file (priority is 0.100000)
-1.000000 1.000000
Priority = 0.100000 (1000)
Will write 1000 to the file (priority is 0.100000)
19.570000 1.000000
Priority = 0.100000 (1000)
Will write 1000 to the file (priority is 0.100000)
-1.000000 1.000000
Priority = 0.100000 (1000)
Will write 1000 to the file (priority is 0.100000)
-1.000000 1.000000
Priority = 0.100000 (1000)
Will write 1000 to the file (priority is 0.100000)
19.607692 1.000000
Priority = 0.100000 (1000)
Will write 1000 to the file (priority is 0.100000)
-1.000000 1.000000
Priority = 0.100000 (1000)
Will write 1000 to the file (priority is 0.100000)
19.560000 1.000000
Priority = 0.100000 (1000)
Will write 1000 to the file (priority is 0.100000)
19.562500 1.000000
Priority = 0.100000 (1000)
Will write 1000 to the file (priority is 0.100000)
-1.000000 1.000000
Priority = 0.100000 (1000)
Will write 1000 to the file (priority is 0.100000)
-1.000000 1.000000
Priority = 0.100000 (1000)
Will write 1000 to the file (priority is 0.100000)
-1.000000 1.000000
Priority = 0.100000 (1000)
Will write 1000 to the file (priority is 0.100000)
-1.000000 1.000000
Priority = 0.100000 (1000)
Will write 1000 to the file (priority is 0.100000)
-1.000000 1.000000
Priority = 0.100000 (1000)
Will write 1000 to the file (priority is 0.100000)
-1.000000 1.000000
Priority = 0.100000 (1000)
Will write 1000 to the file (priority is 0.100000)
-1.000000 1.000000
Priority = 0.100000 (1000)
Will write 1000 to the file (priority is 0.100000)
-1.000000 1.000000
Priority = 0.100000 (1000)
Will write 1000 to the file (priority is 0.100000)
-1.000000 1.000000
Priority = 0.100000 (1000)
Will write 1000 to the file (priority is 0.100000)
-1.000000 1.000000
Priority = 0.100000 (1000)
Will write 1000 to the file (priority is 0.100000)
-1.000000 1.000000
Priority = 0.100000 (1000)
Will write 1000 to the file (priority is 0.100000)
-1.000000 1.000000
Priority = 0.100000 (1000)
Will write 1000 to the file (priority is 0.100000)
-1.000000 1.000000
Priority = 0.100000 (1000)
Will write 1000 to the file (priority is 0.100000)
-1.000000 1.000000
Priority = 0.100000 (1000)
Will write 1000 to the file (priority is 0.100000)
-1.000000 1.000000
Priority = 0.100000 (1000)
Will write 1000 to the file (priority is 0.100000)
-1.000000 1.000000
Priority = 0.100000 (1000)
Will write 1000 to the file (priority is 0.100000)
-1.000000 1.000000
Priority = 0.100000 (1000)
Will write 1000 to the file (priority is 0.100000)
-1.000000 1.000000
Priority = 0.100000 (1000)
Will write 1000 to the file (priority is 0.100000)
-1.000000 1.000000
Priority = 0.100000 (1000)
Will write 1000 to the file (priority is 0.100000)
6.526882 1.000000
Priority = 0.100000 (1000)
Will write 1000 to the file (priority is 0.100000)
-1.000000 1.000000
Priority = 0.100000 (1000)
Will write 1000 to the file (priority is 0.100000)
6.529534 1.000000
Priority = 0.100000 (1000)
Will write 1000 to the file (priority is 0.100000)
3.264885 1.000000
Priority = 0.100000 (1000)
Will write 1000 to the file (priority is 0.100000)
6.528000 1.000000
Priority = 0.100000 (1000)
Will write 1000 to the file (priority is 0.100000)
3.265356 0.801481
Priority = 0.100000 (1000)
Will write 1000 to the file (priority is 0.100000)
-1.000000 0.801481
Priority = 0.100000 (1000)
Will write 1000 to the file (priority is 0.100000)
6.527488 1.000000
Priority = 0.100000 (1000)
Will write 1000 to the file (priority is 0.100000)
6.528972 1.000000
Priority = 0.100000 (1000)
Will write 1000 to the file (priority is 0.100000)
6.535321 1.000000
Priority = 0.100000 (1000)
Will write 1000 to the file (priority is 0.100000)
6.522072 1.000000
Priority = 0.100000 (1000)
Will write 1000 to the file (priority is 0.100000)
-1.000000 1.000000
Priority = 0.100000 (1000)
Will write 1000 to the file (priority is 0.100000)
6.523043 1.000000
Priority = 0.100000 (1000)
Will write 1000 to the file (priority is 0.100000)
2.176000 0.997076
Priority = 1.000000 (10000)
Will write 10000 to the file (priority is 1.000000)
-1.000000 0.997076
Priority = 1.000000 (10000)
Will write 10000 to the file (priority is 1.000000)
2.176552 0.854806
Priority = 1.000000 (10000)
Will write 10000 to the file (priority is 1.000000)
6.524797 1.000000
Priority = 0.100000 (1000)
Will write 1000 to the file (priority is 0.100000)
6.532000 1.000000
Priority = 0.100000 (1000)
Will write 1000 to the file (priority is 0.100000)
-1.000000 1.000000
Priority = 0.100000 (1000)
Will write 1000 to the file (priority is 0.100000)
6.533846 1.000000
Priority = 0.100000 (1000)
Will write 1000 to the file (priority is 0.100000)
2.175945 0.826665
Priority = 1.000000 (10000)
Will write 10000 to the file (priority is 1.000000)
6.526394 1.000000
Priority = 0.100000 (1000)
Will write 1000 to the file (priority is 0.100000)
-1.000000 1.000000
Priority = 0.100000 (1000)
Will write 1000 to the file (priority is 0.100000)
-1.000000 1.000000
Priority = 0.100000 (1000)
Will write 1000 to the file (priority is 0.100000)
-1.000000 1.000000
Priority = 0.100000 (1000)
Will write 1000 to the file (priority is 0.100000)
6.532862 1.000000
Priority = 0.100000 (1000)
Will write 1000 to the file (priority is 0.100000)
6.530662 1.000000
Priority = 0.100000 (1000)
Will write 1000 to the file (priority is 0.100000)
6.531959 1.000000
Priority = 0.100000 (1000)
Will write 1000 to the file (priority is 0.100000)
6.525926 1.000000
Priority = 0.100000 (1000)
Will write 1000 to the file (priority is 0.100000)
6.525497 1.000000
Priority = 0.100000 (1000)
Will write 1000 to the file (priority is 0.100000)
6.523203 1.000000
Priority = 0.100000 (1000)
Will write 1000 to the file (priority is 0.100000)
-1.000000 1.000000
Priority = 0.100000 (1000)
Will write 1000 to the file (priority is 0.100000)
6.527707 1.000000
Priority = 0.100000 (1000)
Will write 1000 to the file (priority is 0.100000)
-1.000000 1.000000
Priority = 0.100000 (1000)
Will write 1000 to the file (priority is 0.100000)
-1.000000 1.000000
Priority = 0.100000 (1000)
Will write 1000 to the file (priority is 0.100000)
-1.000000 1.000000
Priority = 0.100000 (1000)
Will write 1000 to the file (priority is 0.100000)
6.529909 1.000000
Priority = 0.100000 (1000)
Will write 1000 to the file (priority is 0.100000)
-1.000000 1.000000
Priority = 0.100000 (1000)
Will write 1000 to the file (priority is 0.100000)
6.526608 1.000000
Priority = 0.100000 (1000)
Will write 1000 to the file (priority is 0.100000)
6.530636 1.000000
Priority = 0.100000 (1000)
Will write 1000 to the file (priority is 0.100000)
6.529429 1.000000
Priority = 0.100000 (1000)
Will write 1000 to the file (priority is 0.100000)
-1.000000 1.000000
Priority = 0.100000 (1000)
Will write 1000 to the file (priority is 0.100000)
-1.000000 1.000000
Priority = 0.100000 (1000)
Will write 1000 to the file (priority is 0.100000)
3.266943 0.939038
Priority = 0.100000 (1000)
Will write 1000 to the file (priority is 0.100000)
6.530874 1.000000
Priority = 0.100000 (1000)
Will write 1000 to the file (priority is 0.100000)
6.537838 1.000000
Priority = 0.100000 (1000)
Will write 1000 to the file (priority is 0.100000)
6.536898 1.000000
Priority = 0.100000 (1000)
Will write 1000 to the file (priority is 0.100000)
-1.000000 1.000000
Priority = 0.100000 (1000)
Will write 1000 to the file (priority is 0.100000)
6.527937 1.000000
Priority = 0.100000 (1000)
Will write 1000 to the file (priority is 0.100000)
-1.000000 1.000000
Priority = 0.100000 (1000)
Will write 1000 to the file (priority is 0.100000)
6.531202 1.000000
Priority = 0.100000 (1000)
Will write 1000 to the file (priority is 0.100000)
3.265740 0.859302
Priority = 0.100000 (1000)
Will write 1000 to the file (priority is 0.100000)
6.533250 1.000000
Priority = 0.100000 (1000)
Will write 1000 to the file (priority is 0.100000)
6.531436 1.000000
Priority = 0.100000 (1000)
Will write 1000 to the file (priority is 0.100000)
6.530392 1.000000
Priority = 0.100000 (1000)
Will write 1000 to the file (priority is 0.100000)
6.532767 1.000000
Priority = 0.100000 (1000)
Will write 1000 to the file (priority is 0.100000)
3.266026 0.891398
Priority = 0.100000 (1000)
Will write 1000 to the file (priority is 0.100000)
6.530879 1.000000
Priority = 0.100000 (1000)
Will write 1000 to the file (priority is 0.100000)
3.266040 0.931363
Priority = 0.100000 (1000)
Will write 1000 to the file (priority is 0.100000)
-1.000000 0.931363
Priority = 0.100000 (1000)
Will write 1000 to the file (priority is 0.100000)
6.533410 1.000000
Priority = 0.100000 (1000)
Will write 1000 to the file (priority is 0.100000)
-1.000000 1.000000
Priority = 0.100000 (1000)
Will write 1000 to the file (priority is 0.100000)
-1.000000 1.000000
Priority = 0.100000 (1000)
Will write 1000 to the file (priority is 0.100000)
6.532886 1.000000
Priority = 0.100000 (1000)
Will write 1000 to the file (priority is 0.100000)
6.533259 1.000000
Priority = 0.100000 (1000)
Will write 1000 to the file (priority is 0.100000)
6.534725 1.000000
Priority = 0.100000 (1000)
Will write 1000 to the file (priority is 0.100000)
6.534858 1.000000
Priority = 0.100000 (1000)
Will write 1000 to the file (priority is 0.100000)
-1.000000 1.000000
Priority = 0.100000 (1000)
Will write 1000 to the file (priority is 0.100000)
6.533120 1.000000
Priority = 0.100000 (1000)
Will write 1000 to the file (priority is 0.100000)
6.533192 1.000000
Priority = 0.100000 (1000)
Will write 1000 to the file (priority is 0.100000)
6.530398 1.000000
Priority = 0.100000 (1000)
Will write 1000 to the file (priority is 0.100000)
-1.000000 1.000000
Priority = 0.100000 (1000)
Will write 1000 to the file (priority is 0.100000)
-1.000000 1.000000
Priority = 0.100000 (1000)
Will write 1000 to the file (priority is 0.100000)
-1.000000 1.000000
Priority = 0.100000 (1000)
Will write 1000 to the file (priority is 0.100000)
-1.000000 1.000000
Priority = 0.100000 (1000)
Will write 1000 to the file (priority is 0.100000)
-1.000000 1.000000
Priority = 0.100000 (1000)
Will write 1000 to the file (priority is 0.100000)
6.534592 1.000000
Priority = 0.100000 (1000)
Will write 1000 to the file (priority is 0.100000)
-1.000000 1.000000
Priority = 0.100000 (1000)
Will write 1000 to the file (priority is 0.100000)
-1.000000 1.000000
Priority = 0.100000 (1000)
Will write 1000 to the file (priority is 0.100000)
-1.000000 1.000000
Priority = 0.100000 (1000)
Will write 1000 to the file (priority is 0.100000)
-1.000000 1.000000
Priority = 0.100000 (1000)
Will write 1000 to the file (priority is 0.100000)
6.534476 1.000000
Priority = 0.100000 (1000)
Will write 1000 to the file (priority is 0.100000)
27.903226 1.000000
Priority = 0.100000 (1000)
Will write 1000 to the file (priority is 0.100000)
-1.000000 1.000000
Priority = 0.100000 (1000)
Will write 1000 to the file (priority is 0.100000)
9.729752 0.963440
Priority = 0.100000 (1000)
Will write 1000 to the file (priority is 0.100000)
28.016535 1.000000
Priority = 0.100000 (1000)
Will write 1000 to the file (priority is 0.100000)
4.902599 0.980489
Priority = 0.100000 (1000)
Will write 1000 to the file (priority is 0.100000)
6.535986 1.000000
Priority = 0.100000 (1000)
Will write 1000 to the file (priority is 0.100000)
6.531362 0.818794
Priority = 0.100000 (1000)
Will write 1000 to the file (priority is 0.100000)
-1.000000 0.818794
Priority = 0.100000 (1000)
Will write 1000 to the file (priority is 0.100000)
27.927820 1.000000
Priority = 0.100000 (1000)
Will write 1000 to the file (priority is 0.100000)
28.009701 1.000000
Priority = 0.100000 (1000)
Will write 1000 to the file (priority is 0.100000)
