I think I'm working for the application of IOSETS_JOB_ID = 7
I'll open/create the priority file /sys/kernel/config/iosets/7/priority!
Priority = 0.027000 (270)
Will write 270 to the file (priority is 0.027000)
Now I'll create the log file
Now I'll wait for information from the predictor
I will launch the predictor on file /root/running_ior/7/8.jsonl
92.550000 1.000000
Priority = 0.010000 (100)
Will write 100 to the file (priority is 0.010000)
638.600000 1.000000
Priority = 0.001000 (10)
Will write 10 to the file (priority is 0.001000)
544.850000 1.000000
Priority = 0.001000 (10)
Will write 10 to the file (priority is 0.001000)
490.133333 1.000000
Priority = 0.001000 (10)
Will write 10 to the file (priority is 0.001000)
469.450000 1.000000
Priority = 0.001000 (10)
Will write 10 to the file (priority is 0.001000)
209.472727 0.819567
Priority = 0.010000 (100)
Will write 100 to the file (priority is 0.010000)
209.223077 1.000000
Priority = 0.010000 (100)
Will write 100 to the file (priority is 0.010000)
209.426667 1.000000
Priority = 0.010000 (100)
Will write 100 to the file (priority is 0.010000)
